,LMA (g/m²),N content (mg/cm²),LAI (m²/m²),C content (mg/cm²),Chl content (μg/cm²),EWT (mg/cm²),Carotenoid content (μg/cm²),Phosphorus content (mg/cm²),Lignin (mg/cm²),Cellulose (mg/cm²),Fiber (mg/cm²),Anthocyanin content (μg/cm²),NSC (mg/cm²),Magnesium content (mg/cm²),Ca content (mg/cm²),Potassium content (mg/cm²),Boron content (mg/cm²),Copper content (mg/cm²),Sulfur content (mg/cm²),Manganese content (mg/cm²)
0,64.24614305,0.1525836,,,26.52690577,26.59206829,,,,,,,,0.015379224,0.275347303,,,,,
1,29.9912538,0.093848577,,,30.0367018,17.79641736,,,,,,,,0.003823674,0.072642543,,,,,
2,102.1825775,0.244742171,,,47.90419839,46.31338702,,,,,,,,0.035063251,0.181073296,,,,,
3,45.92720386,0.097272637,,,27.87120037,8.695349306,,,,,,,,0.018198558,0.040435249,,,,,
4,28.77857195,0.052461011,,,17.60445922,9.342698097,,,,,,,,0.00438853,0.012135445,,,,,
5,49.83335037,0.143695208,,,32.53311774,16.94286654,,,,,,,,0.012409902,0.103948973,,,,,
6,36.91427123,0.133302753,,,39.49312606,14.86925138,,,,,,,,0.011323768,0.080374327,,,,,
7,48.05413597,0.111962249,,,26.58720846,18.31798941,,,,,,,,0.020236358,0.100838479,,,,,
8,113.0900434,0.12825777,,,67.09652688,38.17283359,,,,,,,,0.020829275,0.169020693,,,,,
9,34.76276919,0.08115698,,,23.75527923,13.8884682,,,,,,,,0.008599453,0.043194762,,,,,
10,50.27567923,0.110111128,,,25.13063808,11.31116801,,,,,,,,0.015450305,0.046416659,,,,,
11,69.46906478,0.113035783,,,21.35919553,14.82166847,,,,,,,,0.019422242,0.046444037,,,,,
12,67.8801724,0.0665295,,,10.97772846,11.34314447,,,,,,,,0.01126033,0.046023997,,,,,
13,32.1700701,0.055200398,,,25.14113285,22.97066601,,,,,,,,0.005091897,0.024482133,,,,,
14,51.89149601,0.146627133,,,30.09513686,10.69936498,,,,,,,,0.023494443,0.269231068,,,,,
15,35.97769547,,3.715885375,,24.74853403,12.44634345,7.6387921,,,,,1.183458544,,,,,,,,
16,36.9198346,,3.225553406,,49.51951783,17.61414408,11.36733485,,,,,2.203916684,,,,,,,,
17,36.61105799,,3.742598897,,36.9835463,17.55874329,9.102526397,,,,,1.440179677,,,,,,,,
18,27.7723988,,3.357968412,,36.83426917,19.52696055,9.789430026,,,,,1.108106957,,,,,,,,
19,32.11285694,,4.192724298,,28.81359031,12.27228794,8.818611137,,,,,1.03938171,,,,,,,,
20,58.92742501,,4.141808737,,36.7674536,29.68865273,10.76277878,,,,,1.052231379,,,,,,,,
21,43.43945031,,5.421877346,,28.85918498,12.3132729,8.927648595,,,,,1.244632136,,,,,,,,
22,35.78591539,,4.204001103,,36.47055088,15.1210767,9.270984968,,,,,1.526747342,,,,,,,,
23,33.74587456,,4.481435119,,45.55877197,13.71606101,10.71617282,,,,,1.80954791,,,,,,,,
24,43.53514834,,4.485881643,,32.19180842,11.3438397,8.883702827,,,,,1.548682441,,,,,,,,
25,38.89339451,,3.822819014,,32.27359121,9.502207244,8.240334269,,,,,1.353375679,,,,,,,,
26,33.30008697,,4.389625722,,44.48197455,13.53057073,10.61304618,,,,,1.787605601,,,,,,,,
27,27.42268675,,4.700901471,,33.82634554,10.65348648,9.952183496,,,,,1.552383007,,,,,,,,
28,80.36627993,,3.759931329,,27.27274307,14.01958829,7.636412252,,,,,0.899222057,,,,,,,,
29,66.26940983,,3.425237653,,65.78746429,16.42242072,11.81566551,,,,,1.966255405,,,,,,,,
30,61.81341426,,4.412365862,,35.35636132,29.287044,10.51436442,,,,,0.954817133,,,,,,,,
31,31.49394443,,4.884210302,,45.27360399,14.72916797,10.23247548,,,,,1.697388864,,,,,,,,
32,65.2067324,,3.923795299,,65.23446673,15.51732901,11.8744989,,,,,1.924018552,,,,,,,,
33,41.93905608,,3.369947368,,38.16800044,13.15753698,10.50268515,,,,,1.601601675,,,,,,,,
34,46.70047309,,6.108822862,,27.6368137,11.57710975,8.992708093,,,,,1.259378707,,,,,,,,
35,32.45701257,,5.278662794,,47.37842108,13.42554801,10.35868298,,,,,1.842325529,,,,,,,,
36,38.36041721,,5.240058953,,31.73432508,8.25136098,8.524533881,,,,,1.276457211,,,,,,,,
37,32.52056429,,4.108608501,,42.09714222,13.15436887,10.43986145,,,,,1.783211244,,,,,,,,
38,30.12904325,,2.613833333,,44.015923,11.12007663,10.56141058,,,,,1.821228878,,,,,,,,
39,41.7909094,,5.717736946,,23.78679723,11.67683963,7.736232404,,,,,0.991956573,,,,,,,,
40,63.80367415,,4.781208072,,64.49800286,14.11223209,11.98259155,,,,,1.877727171,,,,,,,,
41,63.43735471,,4.713696921,,34.25481866,28.92176064,10.29975661,,,,,0.887631126,,,,,,,,
42,48.01394563,,6.420321489,,27.08789375,11.3822893,9.015993091,,,,,1.264645664,,,,,,,,
43,50.48847478,,4.191274827,,24.31924474,18.48007733,8.95578582,,,,,1.944066923,,,,,,,,
44,41.83916494,,5.87790025,,23.32824614,11.66737137,7.657132165,,,,,0.961961234,,,,,,,,
45,37.43180758,,5.925026832,,31.71963405,7.811832227,8.584121683,,,,,1.237092425,,,,,,,,
46,58.5651751,,3.943202797,,28.45031267,18.17278041,9.552855932,,,,,1.084473351,,,,,,,,
47,44.90826644,,5.902418681,,26.81828212,11.01644528,7.92927479,,,,,1.061115099,,,,,,,,
48,42.91006068,,6.788100103,,22.77758909,8.367177851,8.253987734,,,,,1.150381191,,,,,,,,
49,59.0593343,,3.862216783,,26.07333361,18.20132716,9.038706446,,,,,0.990815705,,,,,,,,
50,62.71661944,,4.844914541,,34.1971874,28.83632487,10.26202721,,,,,0.895464031,,,,,,,,
51,55.53693991,,3.854646322,,22.08819256,18.77487902,8.61043112,,,,,1.897955168,,,,,,,,
52,31.70336507,,6.415076348,,32.35728747,6.458155527,9.218814645,,,,,1.641391023,,,,,,,,
53,38.33461334,,2.909333333,,35.89534758,10.61475233,10.16360424,,,,,1.320596283,,,,,,,,
54,22.50803571,,1.858291667,,38.39620628,13.11663738,9.320611597,,,,,0.883358995,,,,,,,,
55,72.74611619,,4.641223112,,27.47263906,8.836697532,7.4605969,,,,,0.826782152,,,,,,,,
56,42.35764772,,6.963662216,,21.98208923,8.091869568,8.118327095,,,,,1.080355284,,,,,,,,
57,41.98972279,,3.374735698,,26.15394666,11.58914382,8.82499384,,,,,1.083660955,,,,,,,,
58,36.04456478,,6.402107714,,31.9807988,7.687798481,8.5398066,,,,,1.207258995,,,,,,,,
59,45.41496866,,3.871961687,,34.00032586,11.21163814,10.24798483,,,,,1.318675993,,,,,,,,
60,59.2008438,,3.676365636,,21.53018624,18.97383604,8.497638273,,,,,1.854265509,,,,,,,,
61,72.42844938,,2.584951945,,55.00570944,14.54209223,11.13476521,,,,,1.622620864,,,,,,,,
62,72.93179209,,4.760539755,,27.40009407,8.797265605,7.385503045,,,,,0.823327697,,,,,,,,
63,35.17895595,,6.562690531,,32.2148271,7.744092235,8.478685476,,,,,1.195916538,,,,,,,,
64,59.5977244,,3.460538462,,21.04433891,18.48879941,7.891821855,,,,,0.760114808,,,,,,,,
65,38.48585108,,2.30175,,33.37537407,10.51803882,9.855424652,,,,,1.346815794,,,,,,,,
66,22.58639951,,3.072958333,,32.86791398,12.97006206,8.945212834,,,,,0.867921871,,,,,,,,
67,73.53338316,,4.871980591,,27.29730308,8.993371736,7.297325962,,,,,0.822335775,,,,,,,,
68,40.57266738,,3.253200895,,25.82283736,11.7300868,8.672395886,,,,,1.087790034,,,,,,,,
69,22.10883459,,3.041625,,28.02330676,12.55038527,8.254399566,,,,,0.786463997,,,,,,,,
70,37.60110323,,3.16485103,,25.6252487,11.99572138,8.458120481,,,,,1.08914282,,,,,,,,
71,38.3521201,,4.121387061,,24.33269448,9.935795849,7.564019586,,,,,1.231163432,,,,,,,,
72,34.81204616,,5.611214375,,17.73229557,12.5513526,6.340708164,,,,,0.767367106,,,,,,,,
73,39.14990484,,6.45405284,,27.27409445,11.51470477,7.818749856,,,,,0.951142302,,,,,,,,
74,48.83286355,,4.865256771,,38.25888014,29.53324452,10.79363189,,,,,1.254407721,,,,,,,,
75,45.4051996,,6.372061306,,27.25109702,13.43555161,8.921904389,,,,,1.243162473,,,,,,,,
76,38.72009334,,4.839004412,,26.80851816,11.05586883,8.577315905,,,,,1.333822322,,,,,,,,
77,38.14481738,,1.619476923,,29.14563102,16.92061118,9.145648196,,,,,1.811253989,,,,,,,,
78,36.26487582,,6.314886998,,27.78846144,12.26830518,7.83546837,,,,,0.904622172,,,,,,,,
79,28.22699461,,3.548916226,,26.38295517,9.66721146,7.628084805,,,,,1.375737356,,,,,,,,
80,36.82126187,,3.006486157,,44.20410957,14.08841431,11.55268946,,,,,2.555483253,,,,,,,,
81,34.64131597,,6.184733347,,28.11360048,12.75526425,7.853870158,,,,,0.879512883,,,,,,,,
82,24.00362683,,3.266803037,,27.29976381,9.626582067,7.675159212,,,,,1.437060598,,,,,,,,
83,115.8641867,,2.010925759,,30.44661002,21.8028402,9.032523558,,,,,1.009537468,,,,,,,,
84,75.60962839,,6.014014229,,70.42609461,17.02407281,12.36307244,,,,,2.669084005,,,,,,,,
85,21.9017032,,3.933764822,,11.17865984,14.20090245,4.583202818,,,,,0.644842637,,,,,,,,
86,78.1584338,,5.814059289,,71.7207533,18.14441364,12.37403528,,,,,2.81775878,,,,,,,,
87,19.35935831,,3.098911067,,25.83360658,13.54077474,7.445229555,,,,,1.076543421,,,,,,,,
88,24.7628796,,0.387538462,,30.53977646,12.5248304,10.57438855,,,,,2.352591683,,,,,,,,
89,13.43660753,,1.6789,,34.37358761,15.15485734,8.873186314,,,,,1.291640576,,,,,,,,
90,,,0.452038462,,29.98267299,,10.39703695,,,,,2.157185611,,,,,,,,
91,30.68022457,,3.51775,,43.24311707,13.41582509,10.76100041,,,,,1.30037181,,,,,,,,
92,23.59988597,,2.7811,,33.34525555,16.14686013,8.695261511,,,,,1.614404177,,,,,,,,
93,26.46228053,,4.8978625,,41.33504252,16.38211929,10.38704082,,,,,2.059976784,,,,,,,,
94,39.79350555,,0.8035,,30.50214597,10.33254294,10.17607332,,,,,1.618047191,,,,,,,,
95,79.28063844,,0.848466403,,50.33800315,14.02692008,11.95733388,,,,,1.247771306,,,,,,,,
96,50.746912,,0.2576,,36.45680908,22.4795762,10.27054462,,,,,0.988954192,,,,,,,,
97,23.6494226,,5.818742657,,39.48358112,11.76057464,10.17579875,,,,,1.2612999,,,,,,,,
98,23.079956,,3.375553811,,42.40988404,11.12107786,10.67846756,,,,,1.751079709,,,,,,,,
99,24.6115953,,2.317769231,,50.73963187,35.80813519,11.7257984,,,,,2.057985435,,,,,,,,
100,39.14139077,,4.926829306,,46.73703599,12.01278123,11.10060894,,,,,1.639848789,,,,,,,,
101,,,6.238811189,,35.75204126,,9.958331047,,,,,1.657026016,,,,,,,,
102,70.22584577,,3.768403589,,52.86248554,55.7867779,11.72846162,,,,,1.450775148,,,,,,,,
103,29.116908,,5.574919617,,40.32346686,9.607910144,9.465118198,,,,,1.722316794,,,,,,,,
104,30.3192842,,4.827006604,,35.2521953,11.16485811,9.55705817,,,,,0.984850986,,,,,,,,
105,30.9184193,,2.766882057,,42.505883,16.04993812,11.64682373,,,,,1.620124444,,,,,,,,
106,29.89083746,,3.057461538,,46.62660573,34.62242948,11.3524337,,,,,1.852429,,,,,,,,
107,,,2.219032508,,22.33975155,,6.942028405,,,,,0.708463336,,,,,,,,
108,,,2.551721651,,31.75744754,,9.125666177,,,,,0.969683645,,,,,,,,
109,48.66039343,,2.230506837,,21.76737659,22.28775112,6.869085409,,,,,0.718891049,,,,,,,,
110,53.282994,,2.0741,,16.91552858,26.6233864,6.446341279,,,,,0.689398659,,,,,,,,
111,38.72225347,,4.14286014,,40.31838314,32.6342915,10.75227188,,,,,1.525524101,,,,,,,,
112,47.19176698,,2.233195046,,21.23184947,22.24743184,6.806740247,,,,,0.728988715,,,,,,,,
113,82.27397439,,4.057733732,,49.87582076,50.05115988,11.38846747,,,,,1.374804468,,,,,,,,
114,,,1.453115385,,37.33423266,,10.99886507,,,,,1.489717369,,,,,,,,
115,,,4.94680583,,20.97079168,,6.65310626,,,,,0.703225941,,,,,,,,
116,,,2.707099322,,26.68945991,,8.270316266,,,,,0.927007866,,,,,,,,
117,,,3.117604895,,41.51169047,,10.95456901,,,,,1.665917717,,,,,,,,
118,,,3.324477911,,32.01561005,,9.892831091,,,,,1.221363758,,,,,,,,
119,,,4.702944056,,36.56726681,,10.34753348,,,,,1.310896498,,,,,,,,
120,30.34077691,,4.246304266,,45.65281147,11.51131644,10.93189383,,,,,1.655404358,,,,,,,,
121,90.18112192,,4.070939474,,45.50182154,43.38006042,10.90668982,,,,,1.313644388,,,,,,,,
122,51.90915371,,4.786957895,,23.46188473,9.0053609,7.741559648,,,,,1.091490525,,,,,,,,
123,53.73219253,,2.938800699,,34.50631318,18.77324461,10.09682012,,,,,1.207784535,,,,,,,,
124,24.32553491,,3.381278828,,42.87733757,11.56303671,10.69652316,,,,,1.580853638,,,,,,,,
125,113.7201734,,2.015059289,,55.73777684,25.50967651,12.39376217,,,,,1.378526521,,,,,,,,
126,35.73407629,,5.170346768,,20.98452483,16.52037353,6.597495785,,,,,0.695925858,,,,,,,,
127,43.92440196,,3.155285526,,26.45984099,21.04542573,8.47540816,,,,,1.016695264,,,,,,,,
128,54.05246263,,4.673484211,,22.21573805,9.125931626,7.605958952,,,,,1.04500671,,,,,,,,
129,35.92233598,,4.252758871,,27.47065444,8.266138608,8.20957029,,,,,0.966696559,,,,,,,,
130,45.20963796,,2.952840385,,18.84679892,15.20827807,7.083250312,,,,,1.433690537,,,,,,,,
131,44.7807619,,3.584265789,,21.81562281,14.25873573,8.478723127,,,,,1.118915894,,,,,,,,
132,90.14473819,,2.437693281,,53.90224951,21.35227717,12.18179165,,,,,1.417361454,,,,,,,,
133,37.39361897,,2.914501954,,23.28992927,18.50204362,7.91562086,,,,,1.029907343,,,,,,,,
134,82.87193603,,3.49788126,,41.88254158,40.31929084,10.53101122,,,,,1.334306457,,,,,,,,
135,37.7039175,,3.39949339,,21.54588176,8.176034013,7.387296883,,,,,0.877900084,,,,,,,,
136,42.71615115,,3.442330542,,15.98591618,15.05982767,7.970143024,,,,,1.353759995,,,,,,,,
137,,,3.737666218,,21.30282621,,6.735372815,,,,,0.72223789,,,,,,,,
138,38.08117214,,3.128672763,,19.8275434,8.268720862,7.160248733,,,,,0.847938673,,,,,,,,
139,31.84009145,,2.594332656,,20.70956788,16.70807883,7.394440272,,,,,1.01700077,,,,,,,,
140,35.48466375,,1.882172192,,12.34986515,11.07824557,6.269711049,,,,,0.929284154,,,,,,,,
141,,,1.34828741,,17.60349357,,7.046680457,,,,,0.835701066,,,,,,,,
142,,,2.140978349,,17.4656028,,6.712401725,,,,,0.991085789,,,,,,,,
143,,,3.327865385,,15.45828034,,7.06395056,,,,,0.628779018,,,,,,,,
144,68.58740735,,2.570934091,,24.40895345,20.94330742,9.112724633,,,,,1.066854243,,,,,,,,
145,,,,,38.53563507,,10.22024767,,,,,1.467106178,,,,,,,,
146,,,,,8.398645694,,5.602821218,,,,,0.646321865,,,,,,,,
147,71.584535,0.114687831,,,23.21848045,17.623673,4.125131344,0.015553823,,,,,,,,,,,,
148,,,,,,,,,,,,,,,,,,,,
149,,,,,,,,,,,,,,,,,,,,
150,71.584535,0.114687831,,,23.21848045,17.623673,4.125131344,0.015553823,,,,,,,,,,,,
151,,,,,,,,,,,,,,,,,,,,
152,,,,,,,,,,,,,,,,,,,,
153,,,,,,,,,,,,,,,,,,,,
154,,,,,,,,,,,,,,,,,,,,
155,,,,,,,,,,,,,,,,,,,,
156,,,,,,,,,,,,,,,,,,,,
157,,,,,,,,,,,,,,,,,,,,
158,48.032008,0.154691102,,,32.12775315,21.587114,6.310817876,0.013645274,,,,,,,,,,,,
159,,,,,,,,,,,,,,,,,,,,
160,,,,,,,,,,,,,,,,,,,,
161,,,,,,,,,,,,,,,,,,,,
162,36.914271,0.133302752,,,39.49312606,18.560679,7.512185328,0.011870873,,,,,,,,,,,,
163,48.032008,0.154691102,,,32.12775315,21.587114,6.310817876,0.013645274,,,,,,,,,,,,
164,48.032008,0.154691102,,,32.12775315,21.587114,6.310817876,0.013645274,,,,,,,,,,,,
165,50.275679,0.110111128,,,25.13063808,16.338736,4.883929481,0.015523536,,,,,,,,,,,,
166,66.924237,0.096307283,,,17.68320468,18.448757,4.410524466,0.010692084,,,,,,,,,,,,
167,50.275679,0.110111128,,,25.13063808,16.338736,4.883929481,0.015523536,,,,,,,,,,,,
168,,,,,,,,,,,,,,,,,,,,
169,66.924237,0.096307283,,,17.68320468,18.448757,4.410524466,0.010692084,,,,,,,,,,,,
170,69.469065,0.113035783,,,21.35919553,21.768575,4.646784592,0.011125769,,,,,,,,,,,,
171,37.995797,0.163797518,,,34.70645849,26.24742,5.04198573,0.022660754,,,,,,,,,,,,
172,37.995797,0.163797518,,,34.70645849,26.24742,5.04198573,0.022660754,,,,,,,,,,,,
173,61.77461,0.195667105,,,38.06426302,17.49588,6.527779509,0.017217307,,,,,,,,,,,,
174,,,,,,,,,,,,,,,,,,,,
175,71.584535,0.114687831,,,23.21848045,17.623673,4.125131344,0.015553823,,,,,,,,,,,,
176,,,,,,,,,,,,,,,,,,,,
177,,,,,,,,,,,,,,,,,,,,
178,,,,,,,,,,,,,,,,,,,,
179,,,,,,,,,,,,,,,,,,,,
180,,,,,,,,,,,,,,,,,,,,
181,,,,,,,,,,,,,,,,,,,,
182,,,,,,,,,,,,,,,,,,,,
183,,,,,,,,,,,,,,,,,,,,
184,,,,,,,,,,,,,,,,,,,,
185,,,,,,,,,,,,,,,,,,,,
186,,,,,,,,,,,,,,,,,,,,
187,,,,,,,,,,,,,,,,,,,,
188,,,,,,,,,,,,,,,,,,,,
189,,,,,,,,,,,,,,,,,,,,
190,,,,,,,,,,,,,,,,,,,,
191,,,,,,,,,,,,,,,,,,,,
192,,,,,,,,,,,,,,,,,,,,
193,,,,,,,,,,,,,,,,,,,,
194,,,,,,,,,,,,,,,,,,,,
195,,,,,,,,,,,,,,,,,,,,
196,61.613605,0.106175238,,,23.15972671,17.786732,5.157500741,0.018735089,,,,,,,,,,,,
197,,,,,,,,,,,,,,,,,,,,
198,,,,,,,,,,,,,,,,,,,,
199,,,,,,,,,,,,,,,,,,,,
200,,,,,,,,,,,,,,,,,,,,
201,,,,,,,,,,,,,,,,,,,,
202,,,,,,,,,,,,,,,,,,,,
203,56.383585,0.096201131,,,25.55150263,17.319128,5.677561008,0.017723278,,,,,,,,,,,,
204,50.275679,0.110111128,,,25.13063808,16.338736,4.883929481,0.015523536,,,,,,,,,,,,
205,67.880172,0.066529499,,,10.97772846,18.131162,3.20410926,0.010473001,,,,,,,,,,,,
206,69.469065,0.113035783,,,21.35919553,21.768575,4.646784592,0.011125769,,,,,,,,,,,,
207,67.880172,0.066529499,,,10.97772846,18.131162,3.20410926,0.010473001,,,,,,,,,,,,
208,,,,,,,,,,,,,,,,,,,,
209,67.880172,0.066529499,,,10.97772846,18.131162,3.20410926,0.010473001,,,,,,,,,,,,
210,59.760721,0.07045238,,,14.5461188,17.975897,3.118470465,0.011747972,,,,,,,,,,,,
211,50.275679,0.110111128,,,25.13063808,16.338736,4.883929481,0.015523536,,,,,,,,,,,,
212,,,,,,,,,,,,,,,,,,,,
213,,,,,,,,,,,,,,,,,,,,
214,,,,,,,,,,,,,,,,,,,,
215,58.703349,0.118195741,,,35.90387324,18.050379,6.150298042,0.017517379,,,,,,,,,,,,
216,,,,,,,,,,,,,,,,,,,,
217,,,,,,,,,,,,,,,,,,,,
218,71.584535,0.114687831,,,23.21848045,17.623673,4.125131344,0.015553823,,,,,,,,,,,,
219,,,,,,,,,,,,,,,,,,,,
220,,,,,,,,,,,,,,,,,,,,
221,,,,,,,,,,,,,,,,,,,,
222,,,,,,,,,,,,,,,,,,,,
223,,,,,,,,,,,,,,,,,,,,
224,,,,,,,,,,,,,,,,,,,,
225,,,,,,,,,,,,,,,,,,,,
226,,,,,,,,,,,,,,,,,,,,
227,,,,,,,,,,,,,,,,,,,,
228,,,,,,,,,,,,,,,,,,,,
229,,,,,,,,,,,,,,,,,,,,
230,,,,,,,,,,,,,,,,,,,,
231,,,,,,,,,,,,,,,,,,,,
232,61.613605,0.106175238,,,23.15972671,17.786732,5.157500741,0.018735089,,,,,,,,,,,,
233,69.469065,0.113035783,,,21.35919553,21.768575,4.646784592,0.011125769,,,,,,,,,,,,
234,,,,,,,,,,,,,,,,,,,,
235,,,,,,,,,,,,,,,,,,,,
236,,,,,,,,,,,,,,,,,,,,
237,,,,,,,,,,,,,,,,,,,,
238,,,,,,,,,,,,,,,,,,,,
239,56.383585,0.096201131,,,25.55150263,17.319128,5.677561008,0.017723278,,,,,,,,,,,,
240,69.469065,0.113035783,,,21.35919553,21.768575,4.646784592,0.011125769,,,,,,,,,,,,
241,59.760721,0.07045238,,,14.5461188,17.975897,3.118470465,0.011747972,,,,,,,,,,,,
242,,,,,,,,,,,,,,,,,,,,
243,,,,,,,,,,,,,,,,,,,,
244,69.469065,0.113035783,,,21.35919553,21.768575,4.646784592,0.011125769,,,,,,,,,,,,
245,59.760721,0.07045238,,,14.5461188,17.975897,3.118470465,0.011747972,,,,,,,,,,,,
246,,,,,,,,,,,,,,,,,,,,
247,,,,,,,,,,,,,,,,,,,,
248,,,,,,,,,,,,,,,,,,,,
249,58.703349,0.118195741,,,35.90387324,18.050379,6.150298042,0.017517379,,,,,,,,,,,,
250,,,,,,,,,,,,,,,,,,,,
251,51.891496,0.146627133,,,30.09513686,15.888515,5.788805405,0.016718677,,,,,,,,,,,,
252,,,,,,,,,,,,,,,,,,,,
253,,,,,,,,,,,,,,,,,,,,
254,,,,,,,,,,,,,,,,,,,,
255,,,,,,,,,,,,,,,,,,,,
256,,,,,,,,,,,,,,,,,,,,
257,,,,,,,,,,,,,,,,,,,,
258,,,,,,,,,,,,,,,,,,,,
259,,,,,,,,,,,,,,,,,,,,
260,,,,,,,,,,,,,,,,,,,,
261,,,,,,,,,,,,,,,,,,,,
262,,,,,,,,,,,,,,,,,,,,
263,,,,,,,,,,,,,,,,,,,,
264,,,,,,,,,,,,,,,,,,,,
265,,,,,,,,,,,,,,,,,,,,
266,,,,,,,,,,,,,,,,,,,,
267,,,,,,,,,,,,,,,,,,,,
268,,,,,,,,,,,,,,,,,,,,
269,,,,,,,,,,,,,,,,,,,,
270,,,,,,,,,,,,,,,,,,,,
271,,,,,,,,,,,,,,,,,,,,
272,,,,,,,,,,,,,,,,,,,,
273,,,,,,,,,,,,,,,,,,,,
274,,,,,,,,,,,,,,,,,,,,
275,,,,,,,,,,,,,,,,,,,,
276,,,,,,,,,,,,,,,,,,,,
277,,,,,,,,,,,,,,,,,,,,
278,,,,,,,,,,,,,,,,,,,,
279,,,,,,,,,,,,,,,,,,,,
280,,,,,,,,,,,,,,,,,,,,
281,,,,,,,,,,,,,,,,,,,,
282,,,,,,,,,,,,,,,,,,,,
283,,,,,,,,,,,,,,,,,,,,
284,,,,,,,,,,,,,,,,,,,,
285,175.2,0.387,,8.897,,19.8759445,,,,,,,,,,,,,,
286,129.07,0.306,,6.586,,12.46551818,,,,,,,,,,,,,,
287,103.39,0.206,,5.192,,9.775785992,,,,,,,,,,,,,,
288,108.28,0.158,,5.666,,8.759554269,,,,,,,,,,,,,,
289,105.26,0.172,,5.115,,13.4348468,,,,,,,,,,,,,,
290,33.82,0.075,,1.404,,17.74229731,,,,,,,,,,,,,,
291,71.9,0.114,,3.245,,8.745283688,,,,,,,,,,,,,,
292,67.83,0.089,,3.093,,6.812911004,,,,,,,,,,,,,,
293,,,,,,,,,,,,,,,,,,,,
294,,,,,,,,,,,,,,,,,,,,
295,,,,,,,,,,,,,,,,,,,,
296,,,,,,,,,,,,,,,,,,,,
297,,,,,,,,,,,,,,,,,,,,
298,,,,,,,,,,,,,,,,,,,,
299,,,,,,,,,,,,,,,,,,,,
300,,,,,,,,,,,,,,,,,,,,
301,,,,,,,,,,,,,,,,,,,,
302,,,,,,,,,,,,,,,,,,,,
303,,,,,,,,,,,,,,,,,,,,
304,,,,,,,,,,,,,,,,,,,,
305,,,,,,,,,,,,,,,,,,,,
306,,,,,,,,,,,,,,,,,,,,
307,,,,,,,,,,,,,,,,,,,,
308,,,,,,,,,,,,,,,,,,,,
309,,,,,,,,,,,,,,,,,,,,
310,,,,,,,,,,,,,,,,,,,,
311,,,,,,,,,,,,,,,,,,,,
312,,,,,,,,,,,,,,,,,,,,
313,,,,,,,,,,,,,,,,,,,,
314,,,,,,,,,,,,,,,,,,,,
315,,,,,,,,,,,,,,,,,,,,
316,,,,,,,,,,,,,,,,,,,,
317,,,,,,,,,,,,,,,,,,,,
318,,,,,,,,,,,,,,,,,,,,
319,,,,,,,,,,,,,,,,,,,,
320,,,,,,,,,,,,,,,,,,,,
321,,,,,,,,,,,,,,,,,,,,
322,,,,,,,,,,,,,,,,,,,,
323,,,,,,,,,,,,,,,,,,,,
324,,,,,,,,,,,,,,,,,,,,
325,,,,,,,,,,,,,,,,,,,,
326,,,,,,,,,,,,,,,,,,,,
327,,,,,,,,,,,,,,,,,,,,
328,,,,,,,,,,,,,,,,,,,,
329,,,,,,,,,,,,,,,,,,,,
330,,,,,,,,,,,,,,,,,,,,
331,,,,,,,,,,,,,,,,,,,,
332,,,,,,,,,,,,,,,,,,,,
333,,,,,,,,,,,,,,,,,,,,
334,,,,,,,,,,,,,,,,,,,,
335,,,,,,,,,,,,,,,,,,,,
336,,,,,,,,,,,,,,,,,,,,
337,,,,,,,,,,,,,,,,,,,,
338,,,,,,,,,,,,,,,,,,,,
339,,,,,,,,,,,,,,,,,,,,
340,,,,,,,,,,,,,,,,,,,,
341,,,,,,,,,,,,,,,,,,,,
342,,,,,,,,,,,,,,,,,,,,
343,,,,,,,,,,,,,,,,,,,,
344,,,,,,,,,,,,,,,,,,,,
345,,,,,,,,,,,,,,,,,,,,
346,,,,,,,,,,,,,,,,,,,,
347,,,,,,,,,,,,,,,,,,,,
348,,,,,,,,,,,,,,,,,,,,
349,,,,,,,,,,,,,,,,,,,,
350,,,,,,,,,,,,,,,,,,,,
351,,,,,,,,,,,,,,,,,,,,
352,,,,,,,,,,,,,,,,,,,,
353,75.076,0.2132,,3.6802,,,,,,,,,,,,,,,,
354,87.47,0.2021,,4.0857,,,,,,,,,,,,,,,,
355,72.552,0.177,,3.5434,,,,,,,,,,,,,,,,
356,53.383,0.1399,,2.6489,,,,,,,,,,,,,,,,
357,92.315,0.2179,,4.5964,,,,,,,,,,,,,,,,
358,87.47,0.2405,,4.3376,,,,,,,,,,,,,,,,
359,173.639,0.1528,,9.1334,,,,,,,,,,,,,,,,
360,79.419,0.1874,,3.9638,,,,,,,,,,,,,,,,
361,72.118,0.2019,,3.6449,,,,,,,,,,,,,,,,
362,185.754,0.2173,,9.754,,,,,,,,,,,,,,,,
363,,,,,,,,,,,,,,,,,,,,
364,102.141,0.2216,,5.1826,,,,,,,,,,,,,,,,
365,95.262,0.2201,,4.5611,,,,,,,,,,,,,,,,
366,80.144,0.1915,,4.0657,,,,,,,,,,,,,,,,
367,93.664,0.1574,,4.7731,,,,,,,,,,,,,,,,
368,108.971,0.2419,,5.442,,,,,,,,,,,,,,,,
369,74.767,0.1772,,3.7182,,,,,,,,,,,,,,,,
370,283.099,0.1897,,15.477,,,,,,,,,,,,,,,,
371,68.257,0.1891,,3.3958,,,,,,,,,,,,,,,,
372,74.223,0.1811,,3.6889,,,,,,,,,,,,,,,,
373,106.952,0.2214,,5.1187,,,,,,,,,,,,,,,,
374,85.345,0.1954,,4.2818,,,,,,,,,,,,,,,,
375,56.68,0.1513,,2.6282,,,,,,,,,,,,,,,,
376,48.718,0.1272,,2.2162,,,,,,,,,,,,,,,,
377,93.945,0.2367,,4.4173,,,,,,,,,,,,,,,,
378,102.562,0.2154,,5.2727,,,,,,,,,,,,,,,,
379,215.6057095,0.366266554,,12.02664275,,,,0.034466873,5.786444132,4.991062979,11.67223232,,4.973835124,,,0.167892208,0.000227232,8.94e-05,0.024504039,0.00383707
380,86.93387878,0.211806517,,4.436652001,34.36778646,13.14932444,8.193228459,0.016742091,1.531108735,1.411335283,2.601190014,,2.045634498,0.014412785,0.094055966,0.15150264,0.000249025,6.07e-05,0.012313311,0.000997074
381,237.6139448,0.32679185,,13.12996732,,,,0.039589047,8.563881174,6.47347143,15.57118999,,3.717865585,0.026952248,0.1770669,0.222657873,0.000570956,0.000111811,0.034657378,0.006287548
382,103.6118606,0.203365753,,5.582145306,39.47869661,8.186601446,7.695087325,0.012022003,2.402400314,1.841209705,4.408154193,,3.010894574,0.015278446,0.121597079,0.167739743,0.000330755,5.46e-05,0.015808584,0.002459985
383,221.3110027,0.241080994,,11.96879115,,5.738133383,,0.02867594,7.678422087,6.250570967,14.89688977,,3.620665408,0.019859169,0.157669057,0.162937407,0.000520899,9.51e-05,0.024070836,0.005253515
384,86.3480481,0.168563999,,4.772421997,,10.12758332,,0.017360106,2.537987,2.014723687,4.991931357,,1.955432158,0.011375305,0.070872704,0.074690896,0.000274084,5.34e-05,0.010079971,0.0021272
385,79.96922681,0.185716684,,4.298165442,46.90255249,9.929562168,8.078453245,0.013047177,2.041362154,1.450747654,3.659196416,,2.204231033,0.013751182,0.079607741,0.047285174,0.00029815,5.01e-05,0.009807375,0.002024729
386,,,,,,,8.207338166,,,,,,,,,,,,,
387,,,,,,,9.922013803,,,,,,,,,,,,,
388,,,,,,,7.215504043,,,,,,,,,,,,,
389,,,,,,,7.914742503,,,,,,,,,,,,,
390,,,,,,,5.167297077,,,,,,,,,,,,,
391,,,,,,,5.973802348,,,,,,,,,,,,,
392,108.16,0.272599996,,5.228600005,,,,,,,,,,,,,,,,
393,85.24,0.1713,,4.639599996,,,,,,,,,,,,,,,,
394,89.47,0.2263591,,3.9026814,,,,,,,,,,,,,,,,
395,92.25,0.2832075,,4.2942375,,,,,,,,,,,,,,,,
396,104.78,0.2483286,,4.5453564,,,,,,,,,,,,,,,,
397,57.65,0.1666085,,2.4864445,,,,,,,,,,,,,,,,
398,109.75,0.2842525,,4.8432675,,,,,,,,,,,,,,,,
399,82.42,0.2365454,,3.6338978,,,,,,,,,,,,,,,,
400,86.55,0.1895445,,3.7121295,,,,,,,,,,,,,,,,
401,82.22,0.197328,,3.613569,,,,,,,,,,,,,,,,
402,87.23,0.3122834,,3.9026702,,,,,,,,,,,,,,,,
403,79.7,0.246273,,3.400002,,,,,,,,,,,,,,,,
404,80.24,0.2158456,,3.6541296,,,,,,,,,,,,,,,,
405,62.41,,,,,,,,,,,,,,,,,,,
406,65.56,,,,,,,,,,,,,,,,,,,
407,43.56,,,,,,,,,,,,,,,,,,,
408,69.68,0.15678,,3.017144,,,,,,,,,,,,,,,,
409,53.06,,,,,,,,,,,,,,,,,,,
410,60.39,0.1763388,,2.7024525,,,,,,,,,,,,,,,,
411,66.03,0.1961091,,2.8967361,,,,,,,,,,,,,,,,
412,57.37,0.131951,,2.6080402,,,,,,,,,,,,,,,,
413,64.29,0.1954416,,2.8261884,,,,,,,,,,,,,,,,
414,76.84,0.1167968,,3.4209168,,,,,,,,,,,,,,,,
415,58.33,0.1230763,,2.578186,,,,,,,,,,,,,,,,
416,63.35,0.136836,,2.807672,,,,,,,,,,,,,,,,
417,39.95,0.1114605,,1.7957525,,,,,,,,,,,,,,,,
418,57.85,0.134212,,2.6246545,,,,,,,,,,,,,,,,
419,72.11,0.1860438,,3.0754915,,,,,,,,,,,,,,,,
420,94.84,0.256068,,4.0572552,,,,,,,,,,,,,,,,
421,53.71,0.1278298,,2.4593809,,,,,,,,,,,,,,,,
422,59.38,0.163295,,2.7605762,,,,,,,,,,,,,,,,
423,58.71,0.1773042,,2.8409769,,,,,,,,,,,,,,,,
424,79.48,0.115246,,3.5503716,,,,,,,,,,,,,,,,
425,84.33,0.0725238,,3.6784746,,,,,,,,,,,,,,,,
426,89.45,0.2531435,,4.440298,,,,,,,,,,,,,,,,
427,78.18,0.1766868,,3.823002,,,,,,,,,,,,,,,,
428,72.58,0.1516922,,3.1194884,,,,,,,,,,,,,,,,
429,90.26,0.18052,,3.8649332,,,,,,,,,,,,,,,,
430,85.4,0.267302,,4.275124,,,,,,,,,,,,,,,,
431,107.5,0.2967,,5.404025,,,,,,,,,,,,,,,,
432,83.22,0.287109,,4.2866622,,,,,,,,,,,,,,,,
433,93.25,0.214475,,4.7995775,,,,,,,,,,,,,,,,
434,40.73842577,,,,,,,,,,,,,,,,,,,
435,41.91735127,,,,,,,,,,,,,,,,,,,
436,39.95247543,,,,,,,,,,,,,,,,,,,
437,39.55950026,,,,,,,,,,,,,,,,,,,
438,51.15226773,,,,,,,,,,,,,,,,,,,
439,45.91259882,,,,,,,,,,,,,,,,,,,
440,40.21445888,,,,,,,,,,,,,,,,,,,
441,39.10102924,,,,,,,,,,,,,,,,,,,
442,,,,,,,,,,,,,,,,,,,,
443,,,,,,,,,,,,,,,,,,,,
444,,,,,,,,,,,,,,,,,,,,
445,,,,,,,,,,,,,,,,,,,,
446,,,,,,,,,,,,,,,,,,,,
447,,,,,,,,,,,,,,,,,,,,
448,,,,,,,,,,,,,,,,,,,,
449,,,,,,,,,,,,,,,,,,,,
450,64.44792758,,,,,,,,,,,,,,,,,,,
451,52.06920979,,,,,,,,,,,,,,,,,,,
452,52.78966426,,,,,,,,,,,,,,,,,,,
453,41.78635955,,,,,,,,,,,,,,,,,,,
454,44.53718573,,,,,,,,,,,,,,,,,,,
455,80.10143845,,,,,,,,,,,,,,,,,,,
456,,,,,,,,,,,,,,,,,,,,
457,,,,,,,,,,,,,,,,,,,,
458,,,,,,,,,,,,,,,,,,,,
459,,,,,,,,,,,,,,,,,,,,
460,,,,,,,,,,,,,,,,,,,,
461,,,,,,,,,,,,,,,,,,,,
462,,,,,,,,,,,,,,,,,,,,
463,,,,,,,,,,,,,,,,,,,,
464,48.66342499,,,,,,,,,,,,,,,,,,,
465,35.69524444,,,,,,,,,,,,,,,,,,,
466,39.23202096,,,,,,,,,,,,,,,,,,,
467,40.67292991,,,,,,,,,,,,,,,,,,,
468,45.91259882,,,,,,,,,,,,,,,,,,,
469,146.5493709,,,,,,,,,,,,,,,,,,,
470,139.2780867,,,,,,,,,,,,,,,,,,,
471,72.04089904,,,,,,,,,,,,,,,,,,,
472,72.34580094,,,,,,,,,,,,,,,,,,,
473,149.5867382,,,,,,,,,,,,,,,,,,,
474,86.20644479,,,,,,,,,,,,,,,,,,,
475,86.20644479,,,,,,,,,,,,,,,,,,,
476,71.55861881,,,,,,,,,,,,,,,,,,,
477,113.9792216,,,,,,,,,,,,,,,,,,,
478,113.9792216,,,,,,,,,,,,,,,,,,,
479,48.99996877,,,,,,,,,,,,,,,,,,,
480,65.5898581,,,,,,,,,,,,,,,,,,,
481,113.0827217,,,,,,,,,,,,,,,,,,,
482,106.8806357,,,,,,,,,,,,,,,,,,,
483,103.1464018,,,,,,,,,,,,,,,,,,,
484,56.59365525,,,,,,,,,,,,,,,,,,,
485,56.59365525,,,,,,,,,,,,,,,,,,,
486,88.55109346,,,,,,,,,,,,,,,,,,,
487,98.16159951,,,,,,,,,,,,,,,,,,,
488,85.87427425,,,,,,,,,,,,,,,,,,,
489,155.5190192,,,,,,,,,,,,,,,,,,,
490,65.29643227,,,,,,,,,,,,,,,,,,,
491,75.37042348,,,,,,,,,,,,,,,,,,,
492,92.44687221,,,,,,,,,,,,,,,,,,,
493,180.3795298,,,,,,,,,,,,,,,,,,,
494,70.38153373,,,,,,,,,,,,,,,,,,,
495,68.32862809,,,,,,,,,,,,,,,,,,,
496,72.63409376,,,,,,,,,,,,,,,,,,,
497,85.81088757,,,,,,,,,,,,,,,,,,,
498,96.35800234,,,,,,,,,,,,,,,,,,,
499,78.16644574,,,,,,,,,,,,,,,,,,,
500,76.35382265,,,,,,,,,,,,,,,,,,,
501,212.3139277,,,,,,,,,,,,,,,,,,,
502,212.3139277,,,,,,,,,,,,,,,,,,,
503,214.6586608,,,,,,,,,,,,,,,,,,,
504,84.4172376,,,,,,,,,,,,,,,,,,,
505,186.6091116,,,,,,,,,,,,,,,,,,,
506,88.65451709,,,,,,,,,,,,,,,,,,,
507,155.1864392,,,,,,,,,,,,,,,,,,,
508,75.28592832,,,,,,,,,,,,,,,,,,,
509,176.8646403,,,,,,,,,,,,,,,,,,,
510,163.2019288,,,,,,,,,,,,,,,,,,,
511,178.1321699,,,,,,,,,,,,,,,,,,,
512,116.0828859,,,,,,,,,,,,,,,,,,,
513,54.12034202,,,,,,,,,,,,,,,,,,,
514,224.5329829,,,,,,,,,,,,,,,,,,,
515,48.56854028,,,,,,,,,,,,,,,,,,,
516,205.7832935,,,,,,,,,,,,,,,,,,,
517,176.09011,,,,,,,,,,,,,,,,,,,
518,94.87481145,,,,,,,,,,,,,,,,,,,
519,68.3987085,,,,,,,,,,,,,,,,,,,
520,76.68226123,,,,,,,,,,,,,,,,,,,
521,76.68226123,,,,,,,,,,,,,,,,,,,
522,70.62115454,,,,,,,,,,,,,,,,,,,
523,70.62115454,,,,,,,,,,,,,,,,,,,
524,75.81976823,,,,,,,,,,,,,,,,,,,
525,75.81976823,,,,,,,,,,,,,,,,,,,
526,74.97590066,,,,,,,,,,,,,,,,,,,
527,136.6466653,,,,,,,,,,,,,,,,,,,
528,136.6466653,,,,,,,,,,,,,,,,,,,
529,64.65380413,,,,,,,,,,,,,,,,,,,
530,0.28,0.001385674,,,,0.095666667,,,,,,,,,,,,,,
531,0.933333333,0.004509281,,,,0.338333333,,,,,,,,,,,,,,
532,0.47,0.002250551,,,,0.198333333,,,,,,,,,,,,,,
533,0.693333333,0.002762946,,,,0.244333333,,,,,,,,,,,,,,
534,9.5,0.045870906,,,,5.604,,,,,,,,,,,,,,
535,0.786666667,0.003418637,,,,0.299,,,,,,,,,,,,,,
536,4.933333333,0.022908588,,,,2.591,,,,,,,,,,,,,,
537,0.933333333,0.004550333,,,,0.343333333,,,,,,,,,,,,,,
538,20.03333333,0.087085541,2.8333,,,14.07,,,,,,,,,,,,,,
539,2.7,0.012132468,,,,1.02,,,,,,,,,,,,,,
540,20.63333333,0.084895928,3.69,,,14.98333333,,,,,,,,,,,,,,
541,25.06666667,0.105314642,3.4167,,,17.11,,,,,,,,,,,,,,
542,15.46666667,0.068132416,2.33,,,10.69333333,,,,,,,,,,,,,,
543,18.5,0.078179163,2.92,,,14.61,,,,,,,,,,,,,,
544,31.06666667,0.126944303,3.91,,,21.95333333,,,,,,,,,,,,,,
545,2.906666667,0.011789657,0.34,,,1.171,,,,,,,,,,,,,,
546,19.66666667,0.075016781,2.2833,,,12.47666667,,,,,,,,,,,,,,
547,2.04,0.00869931,0.12,,,0.811333333,,,,,,,,,,,,,,
548,3.28,0.013645826,0.283333333,,,1.255,,,,,,,,,,,,,,
549,24.63333333,0.087192703,5.82,,,15.91333333,,,,,,,,,,,,,,
550,4.633333333,0.019772534,0.193333333,,,1.657333333,,,,,,,,,,,,,,
551,37.43333333,0.122727605,4.68,,,26.35,,,,,,,,,,,,,,
552,3.733333333,0.014472244,,,,1.560333333,,,,,,,,,,,,,,
553,5.633333333,0.017207273,,,,2.143666667,,,,,,,,,,,,,,
554,31.33333333,0.120664758,4.6833,,,22.65,,,,,,,,,,,,,,
555,46.43333333,0.176351107,4.7467,,,34.35666667,,,,,,,,,,,,,,
556,39.36666667,0.142671142,5.15,,,30.2,,,,,,,,,,,,,,
557,33.4,0.117920467,3.5633,,,21.83333333,,,,,,,,,,,,,,
558,43.86666667,0.149163314,5.1867,,,30.39,,,,,,,,,,,,,,
559,29.7,0.119602702,4.3933,,,21.87333333,,,,,,,,,,,,,,
560,35.5,0.130612562,4.0433,,,24.72,,,,,,,,,,,,,,
561,7.966666667,0.021100901,1.093333333,,,3.009,,,,,,,,,,,,,,
562,5.4,0.014048276,0.67,,,2.009333333,,,,,,,,,,,,,,
563,94.53333333,0.292363448,6.343333333,,,56.28333333,,,,,,,,,,,,,,
564,82.0,0.207141504,6.133333333,,,47.62,,,,,,,,,,,,,,
565,9.533333333,0.027136917,1.306666667,,,3.674,,,,,,,,,,,,,,
566,6.566666667,0.020102294,0.516666667,,,2.409,,,,,,,,,,,,,,
567,7.133333333,0.025266359,0.823333333,,,2.802666667,,,,,,,,,,,,,,
568,84.96666667,0.176059965,6.42,,,45.87666667,,,,,,,,,,,,,,
569,10.26666667,0.032149115,1.253333333,,,3.982333333,,,,,,,,,,,,,,
570,90.8,0.169493336,4.25,,,28.74666667,,,,,,,,,,,,,,
571,82.96666667,0.204128109,7.05,,,49.41,,,,,,,,,,,,,,
572,14.53333333,0.041975931,1.59,,,6.629333333,,,,,,,,,,,,,,
573,80.36666667,0.162435033,4.995,,,28.34333333,,,,,,,,,,,,,,
574,68.53333333,0.157944373,5.93,,,23.76666667,,,,,,,,,,,,,,
575,15.36666667,0.037084689,1.766666667,,,5.399,,,,,,,,,,,,,,
576,13.73333333,0.043091105,1.553333333,,,6.169666667,,,,,,,,,,,,,,
577,12.7,0.035285934,1.91,,,5.986333333,,,,,,,,,,,,,,
578,11.06666667,0.032921528,1.053333333,,,4.338,,,,,,,,,,,,,,
579,19.43333333,0.056753157,2.323333333,,,8.331333333,,,,,,,,,,,,,,
580,27.26666667,0.061981534,2.44,,,10.625,,,,,,,,,,,,,,
581,20.93333333,0.049821333,1.593333333,,,8.190333333,,,,,,,,,,,,,,
582,17.53333333,0.042255333,1.17,,,6.190333333,,,,,,,,,,,,,,
583,37.69666667,0.0599377,1.806666667,,,7.543666667,,,,,,,,,,,,,,
584,24.68333333,0.044676833,1.92,,,5.221666667,,,,,,,,,,,,,,
585,30.30666667,0.050309067,1.59,,,6.242666667,,,,,,,,,,,,,,
586,29.12666667,0.051845467,1.63,,,6.160666667,,,,,,,,,,,,,,
587,34.19,0.0632515,1.823333333,,,7.624333333,,,,,,,,,,,,,,
588,30.27,0.0529725,2.533333333,,,6.726333333,,,,,,,,,,,,,,
589,61.26666667,0.098026667,3.2,,,17.87,,,,,,,,,,,,,,
590,38.66666667,0.05336,2.563333333,,,4.83,,,,,,,,,,,,,,
591,37.93333333,0.051968667,1.28,,,4.82,,,,,,,,,,,,,,
592,33.26666667,0.051896,1.263333333,,,4.126666667,,,,,,,,,,,,,,
593,89.96666667,0.143047,5.246666667,,,27.44666667,,,,,,,,,,,,,,
594,31.06666667,0.057162667,2.703333333,,,4.493333333,,,,,,,,,,,,,,
595,37.2,0.058032,1.33,,,5.013333333,,,,,,,,,,,,,,
596,59.11345955,,,,,,,,,,,,,,,,,,,
597,84.79272147,,,,,,,,,,,,,,,,,,,
598,77.231439,,,,,,,,,,,,,,,,,,,
599,78.07411018,,,,,,,,,,,,,,,,,,,
600,106.3169627,,,,,,,,,,,,,,,,,,,
601,91.75492236,,,,,,,,,,,,,,,,,,,
602,78.47024468,,,,,,,,,,,,,,,,,,,
603,72.19850158,,,,,,,,,,,,,,,,,,,
604,113.3778657,,,,,,,,,,,,,,,,,,,
605,110.6695269,,,,,,,,,,,,,,,,,,,
606,63.47000727,,,,,,,,,,,,,,,,,,,
607,75.61469212,0.167256735,,3.769861599,,,,,1.714153031,1.280131215,3.06391935,,,,,,,,,
608,100.5624617,0.173409708,,5.060666868,,,,,1.650584257,1.253879699,3.091571448,,,,,,,,,
609,92.63915884,0.185747266,,4.610739989,,,,,2.172680193,1.731541324,3.920554301,,,,,,,,,
610,64.17847951,0.166414868,,3.171327773,,,,,1.502869514,0.98168327,2.496300989,,,,,,,,,
611,60.68138092,0.120509861,,2.986170113,,,,,1.513446194,1.2680496,2.780001073,,,,,,,,,
612,149.357999,0.144491945,,7.493680709,,,,,3.789992097,3.505984241,7.629590984,,,,,,,,,
613,75.00331382,0.168384307,,3.781098663,,,,,1.879956532,1.36513904,3.303383011,,,,,,,,,
614,144.1425802,0.231830609,,7.447055992,,,,,3.779419473,2.323671584,6.211665848,,,,,,,,,
615,113.5985068,0.237578259,,5.636361562,,,,,1.698033586,1.581797162,3.302012694,,,,,,,,,
616,113.5985068,0.237578259,,5.636361562,,,,,1.698033586,1.581797162,3.302012694,,,,,,,,,
617,52.79615238,0.164476872,,2.596763872,,,,,0.992822164,0.876633976,1.62728574,,,,,,,,,
618,52.79615238,0.164476872,,2.596763872,,,,,0.992822164,0.876633976,1.62728574,,,,,,,,,
619,72.5171109,0.208621365,,3.555874785,,,,,1.333471886,1.150845329,2.421087007,,,,,,,,,
620,100.4478292,0.252187906,,4.853172014,,,,,2.108112783,1.709644751,3.790989079,,,,,,,,,
621,107.8323163,0.243736285,,5.341626942,,,,,2.435007822,1.681466975,4.01422221,,,,,,,,,
622,47.0679522,0.136403999,,2.231953915,,,,,0.909229467,0.777089641,1.567680925,,,,,,,,,
623,59.77464065,0.174913683,,2.914949761,,,,,1.031953816,0.948647531,1.920918787,,,,,,,,,
624,62.28502203,0.188597801,,3.064775237,,,,,1.248176443,1.08641056,2.232176958,,,,,,,,,
625,58.15655263,0.176895967,,2.84300621,,,,,1.106240241,0.984789223,2.003869966,,,,,,,,,
626,118.2976546,0.260352164,,5.8937037,,,,,2.917553254,2.19635823,4.96343154,,,,,,,,,
627,118.2976546,0.260352164,,5.8937037,,,,,2.917553254,2.19635823,4.96343154,,,,,,,,,
628,85.9911961,0.228483389,,4.363341995,,,,,1.940977398,1.21239736,3.149671822,,,,,,,,,
629,181.4131872,0.282491898,,9.279288535,,,,,5.318687402,3.464051488,8.716641646,,,,,,,,,
630,68.06182209,0.193652402,,3.244799357,,,,,1.493236315,1.128996413,2.525129914,,,,,,,,,
631,94.76495364,0.259182366,,4.635030699,,,,,1.940042792,1.575644014,3.419416904,,,,,,,,,
632,75.89892367,0.228173697,,3.744229043,,,,,1.627657017,1.238825888,2.626838859,,,,,,,,,
633,182.0075436,0.295534767,,9.226006577,,,,,5.145482989,3.493495829,8.670776776,,,,,,,,,
634,60.16052594,0.150606986,,2.943093092,,,,,1.162467763,0.970992927,2.057700093,,,,,,,,,
635,63.07755156,0.169437128,,3.07484625,,,,,1.142698373,1.010037927,2.085469445,,,,,,,,,
636,57.44223157,0.1777314,,2.769473357,,,,,1.262298213,0.975280578,2.060618324,,,,,,,,,
637,94.344893,0.186112217,,4.716457304,,,,,2.244887556,1.621589042,3.743440737,,,,,,,,,
638,65.84428611,0.166280638,,3.140892396,,,,,1.266490993,0.949795106,2.163283183,,,,,,,,,
639,86.91004823,0.240702332,,4.336756784,,,,,1.971441783,1.391370322,3.228386932,,,,,,,,,
640,149.8194261,0.256773702,,7.637174704,,,,,3.972840912,3.026056388,6.859872149,,,,,,,,,
641,221.7378325,0.256463662,,11.26178253,,,,,6.235274682,4.62858949,11.02097061,,,,,,,,,
642,74.98501292,0.206145386,,3.784852803,,,,,1.87942437,1.36707767,2.581570352,,,,,,,,,
643,76.21366402,0.223998772,,3.665015804,,,,,1.406821879,0.923153138,2.293760788,,,,,,,,,
644,67.60512104,0.183577089,,3.315699442,,,,,1.03420274,1.000842388,2.02587564,,,,,,,,,
645,81.00396908,0.151735412,,3.942558711,,,,,1.197620083,1.155188865,2.395988952,,,,,,,,,
646,76.57946536,0.194504881,,3.944171704,,,,,2.161827762,1.43231483,2.772057069,,,,,,,,,
647,100.9853,0.223132898,,5.052314756,,,,,2.495917344,1.586982057,3.475440089,,,,,,,,,
648,73.17271996,0.18954867,,3.584854605,,,,,1.529774967,1.144524902,2.5282566,,,,,,,,,
649,88.38840593,0.169422313,,4.405967661,,,,,1.396499897,1.230673511,2.640919188,,,,,,,,,
650,102.4189021,0.188342871,,5.131727654,,,,,1.636970922,1.27652279,2.958054037,,,,,,,,,
651,173.3653633,0.26849203,,8.880236204,,,,,5.209741742,3.815901053,9.210758296,,,,,,,,,
652,44.744606,0.109481742,,2.150436879,,,,,0.65869751,0.712873889,1.318946069,,,,,,,,,
653,93.43510572,0.194860735,,4.585448335,,,,,1.484530786,1.334762107,2.808024834,,,,,,,,,
654,93.43510572,0.194860735,,4.585448335,,,,,1.484530786,1.334762107,2.808024834,,,,,,,,,
655,170.0534341,0.230459815,,8.506209973,,,,,4.282497399,2.742646559,6.850989651,,,,,,,,,
656,89.15026448,0.176129355,,4.404224286,,,,,1.797809589,1.441745982,3.178935617,,,,,,,,,
657,89.15026448,0.176129355,,4.404224286,,,,,1.797809589,1.441745982,3.178935617,,,,,,,,,
658,60.37391001,0.161179739,,2.930505616,,,,,1.202131448,0.940000471,2.083203708,,,,,,,,,
659,67.49751591,0.169393649,,3.335225068,,,,,1.259660662,0.992714442,2.227998413,,,,,,,,,
660,63.99662542,0.146553962,,3.201520424,,,,,1.160041779,0.926919872,2.088425354,,,,,,,,,
661,69.1005074,0.174452965,,3.366384428,,,,,1.401109417,1.019268942,2.374133396,,,,,,,,,
662,69.1005074,0.174452965,,3.366384428,,,,,1.401109417,1.019268942,2.374133396,,,,,,,,,
663,66.10178822,0.168379353,,3.249523527,,,,,1.261381476,0.979500658,2.214537422,,,,,,,,,
664,125.1482732,0.184414328,,6.330829004,,,,,3.509248433,2.207076129,5.71586798,,,,,,,,,
665,125.1482732,0.184414328,,6.330829004,,,,,3.509248433,2.207076129,5.71586798,,,,,,,,,
666,125.1482732,0.184414328,,6.330829004,,,,,3.509248433,2.207076129,5.71586798,,,,,,,,,
667,60.68528848,0.143840112,,3.010190831,,,,,1.128949462,0.899085775,1.998847688,,,,,,,,,
668,,,2.26,,,,,,,,,,,,,,,,,
669,,,2.26,,,,,,,,,,,,,,,,,
670,,,2.26,,,,,,,,,,,,,,,,,
671,,,2.26,,,,,,,,,,,,,,,,,
672,,,2.26,,,,,,,,,,,,,,,,,
673,,,2.26,,,,,,,,,,,,,,,,,
674,,,2.26,,,,,,,,,,,,,,,,,
675,,,2.26,,,,,,,,,,,,,,,,,
676,,,2.26,,,,,,,,,,,,,,,,,
677,,,2.26,,,,,,,,,,,,,,,,,
678,,,2.26,,,,,,,,,,,,,,,,,
679,,,2.26,,,,,,,,,,,,,,,,,
680,,,2.26,,,,,,,,,,,,,,,,,
681,,,2.26,,,,,,,,,,,,,,,,,
682,,,2.26,,,,,,,,,,,,,,,,,
683,,,2.26,,,,,,,,,,,,,,,,,
684,,,2.26,,,,,,,,,,,,,,,,,
685,,,2.26,,,,,,,,,,,,,,,,,
686,,,2.26,,,,,,,,,,,,,,,,,
687,,,,,,,,,,,,,,,,,,,,
688,50.9859726,,,,,,,,,,,,,,,,,,,
689,56.48121999,,,,,,,,,,,,,,,,,,,
690,64.66798762,,,,,,,,,,,,,,,,,,,
691,53.44735436,,,,,,,,,,,,,,,,,,,
692,121.6830036,,,,,,,,,,,,,,,,,,,
693,109.0959951,,,,,,,,,,,,,,,,,,,
694,86.33847669,,,,,,,,,,,,,,,,,,,
695,56.26636818,,,,,,,,,,,,,,,,,,,
696,76.81750108,,,,,,,,,,,,,,,,,,,
697,22.69358187,,,,,,,,,,,,,,,,,,,
698,66.89087802,,,,,,,,,,,,,,,,,,,
699,53.53319058,,,,,,,,,,,,,,,,,,,
700,165.2177277,,,,,,,,,,,,,,,,,,,
701,,,2.63,,48.4574915,,,,,,,,,,,,,,,
702,,,2.54,,47.72221199,,,,,,,,,,,,,,,
703,,,3.71,,45.58264034,,,,,,,,,,,,,,,
704,,,3.98,,51.05032698,,,,,,,,,,,,,,,
705,,,3.45,,50.27570456,,,,,,,,,,,,,,,
706,,,2.89,,60.5689236,,,,,,,,,,,,,,,
707,,,3.96,,59.44294528,,,,,,,,,,,,,,,
708,,,2.56,,58.13552656,,,,,,,,,,,,,,,
709,,,3.14,,59.19558431,,,,,,,,,,,,,,,
710,,,3.96,,47.22729218,,,,,,,,,,,,,,,
711,,,6.79,,52.41652738,,,,,,,,,,,,,,,
712,,,6.41,,46.76999897,,,,,,,,,,,,,,,
713,,,4.17,,62.27636312,,,,,,,,,,,,,,,
714,,,2.32,,52.7454203,,,,,,,,,,,,,,,
715,,,3.96,,59.77436856,,,,,,,,,,,,,,,
716,,,3.02,,56.97553412,,,,,,,,,,,,,,,
717,,,4.09,,59.31913586,,,,,,,,,,,,,,,
718,,,4.59,,50.1361322,,,,,,,,,,,,,,,
719,,,3.49,,49.03341231,,,,,,,,,,,,,,,
720,,,2.31,,50.73200378,,,,,,,,,,,,,,,
721,,,3.46,,51.72891708,,,,,,,,,,,,,,,
722,,,5.0,,52.19840557,,,,,,,,,,,,,,,
723,,,4.54,,50.97941632,,,,,,,,,,,,,,,
724,,,3.29,,48.55863077,,,,,,,,,,,,,,,
725,,,3.8,,47.6559242,,,,,,,,,,,,,,,
726,,,,,,,,,,,,,,,,,,,,
727,,,,,,,,,,,,,,,,,,,,
728,,,,,,,,,,,,,,,,,,,,
729,,,,,,,,,,,,,,,,,,,,
730,,,,,,,,,,,,,,,,,,,,
731,,,,,,,,,,,,,,,,,,,,
732,,,,,,,,,,,,,,,,,,,,
733,,,,,,,,,,,,,,,,,,,,
734,,,,,,,,,,,,,,,,,,,,
735,,,,,,,,,,,,,,,,,,,,
736,,,,,,,,,,,,,,,,,,,,
737,,,,,,,,,,,,,,,,,,,,
738,,,,,,,,,,,,,,,,,,,,
739,,,,,,,,,,,,,,,,,,,,
740,,,,,,,,,,,,,,,,,,,,
741,,,,,,,,,,,,,,,,,,,,
742,,,,,,,,,,,,,,,,,,,,
743,,,,,,,,,,,,,,,,,,,,
744,,,,,,,,,,,,,,,,,,,,
745,,,,,,,,,,,,,,,,,,,,
746,,,3.35,,,,,,,,,,,,,,,,,
747,,,4.68,,,,,,,,,,,,,,,,,
748,,,4.15,,,,,,,,,,,,,,,,,
749,,,2.49,,,,,,,,,,,,,,,,,
750,,,,,,,,,,,,,,,,,,,,
751,,,,,,,,,,,,,,,,,,,,
752,,,,,,,,,,,,,,,,,,,,
753,,,,,,,,,,,,,,,,,,,,
754,,,,,,,,,,,,,,,,,,,,
755,,,,,,,,,,,,,,,,,,,,
756,,,,,,,,,,,,,,,,,,,,
757,,,,,,,,,,,,,,,,,,,,
758,,,,,,,,,,,,,,,,,,,,
759,,,,,,,,,,,,,,,,,,,,
760,,,,,,,,,,,,,,,,,,,,
761,,,,,,,,,,,,,,,,,,,,
762,,,,,,,,,,,,,,,,,,,,
763,,,,,,,,,,,,,,,,,,,,
764,,,,,,,,,,,,,,,,,,,,
765,,,,,,,,,,,,,,,,,,,,
766,,,,,,,,,,,,,,,,,,,,
767,,,,,,,,,,,,,,,,,,,,
768,,,,,,,,,,,,,,,,,,,,
769,,,,,,,,,,,,,,,,,,,,
770,,,,,,,,,,,,,,,,,,,,
771,,,,,,,,,,,,,,,,,,,,
772,,,,,,,,,,,,,,,,,,,,
773,,,,,,,,,,,,,,,,,,,,
774,,,,,,,,,,,,,,,,,,,,
775,,,,,,,,,,,,,,,,,,,,
776,,,5.2,,,,,,,,,,,,,,,,,
777,,,5.74,,,,,,,,,,,,,,,,,
778,,,4.68,,,,,,,,,,,,,,,,,
779,,,3.9,,,,,,,,,,,,,,,,,
780,,,1.65,,,,,,,,,,,,,,,,,
781,,,3.4,,65.22972586,,,,,,,,,,,,,,,
782,,,3.66,,61.64478381,,,,,,,,,,,,,,,
783,,,1.08,,34.56760424,,,,,,,,,,,,,,,
784,,,4.95,,42.13976997,,,,,,,,,,,,,,,
785,,,4.34,,47.09618264,,,,,,,,,,,,,,,
786,,,4.82,,45.5087804,,,,,,,,,,,,,,,
787,,,4.21,,50.46240564,,,,,,,,,,,,,,,
788,,,3.96,,55.72238491,,,,,,,,,,,,,,,
789,,,3.46,,70.67358977,,,,,,,,,,,,,,,
790,,,3.71,,54.91502276,,,,,,,,,,,,,,,
791,,,4.81,,51.525592,,,,,,,,,,,,,,,
792,,,,,46.70503383,,,,,,,,,,,,,,,
793,,,5.1,,41.58697219,,,,,,,,,,,,,,,
794,,,4.88,,37.60029701,,,,,,,,,,,,,,,
795,,,0.76,,29.52247831,,,,,,,,,,,,,,,
796,,,0.83,,32.17957549,,,,,,,,,,,,,,,
797,,,2.55,,41.48112964,,,,,,,,,,,,,,,
798,,,4.66,,41.35639024,,,,,,,,,,,,,,,
799,,,4.79,,52.48943702,,,,,,,,,,,,,,,
800,49.5,0.0806,5.8,1.288,57.77,,16.49,,,,,,,,,,,,,
801,51.1,0.0907,6.2,1.3337,54.26,,14.83,,,,,,,,,,,,,
802,59.1,,3.8,1.0301,18.21,,3.18,,,,,,,,,,,,,
803,47.2,0.049737,3.1,0.909787,53.67,,14.56,,,,,,,,,,,,,
804,45.3,0.046833,1.8,0.518814,48.2,,12.18,,,,,,,,,,,,,
805,60.2,0.089372,3.6,1.241594,60.79,,18.0,,,,,,,,,,,,,
806,,,5.33,,,,,,,,,,,,,,,,,
807,,,4.85,,,,,,,,,,,,,,,,,
808,,,5.06,,,,,,,,,,,,,,,,,
809,,,2.61,,,,,,,,,,,,,,,,,
810,,,4.09,,,,,,,,,,,,,,,,,
811,,,2.94,,,,,,,,,,,,,,,,,
812,,,3.54,,,,,,,,,,,,,,,,,
813,,,2.6,,,,,,,,,,,,,,,,,
814,,,2.74,,,,,,,,,,,,,,,,,
815,,,4.61,,,,,,,,,,,,,,,,,
816,93.0,0.091940299,2.01,4.747164179,,9.68,,,,,,,,,,,,,,
817,,,3.7,,,,,,,,,,,,,,,,,
818,108.0,0.114647303,2.41,5.501701245,,15.0,,,,,,,,,,,,,,
819,119.0,0.120461538,1.95,6.042461538,,15.9,,,,,,,,,,,,,,
820,103.0,0.098181818,1.76,5.20875,,9.84,,,,,,,,,,,,,,
821,92.0,0.088645418,2.51,4.67876494,,8.5,,,,,,,,,,,,,,
822,125.0,0.111733333,0.75,6.482133333,,11.0,,,,,,,,,,,,,,
823,78.0,0.075238095,2.94,4.032619048,,9.23,,,,,,,,,,,,,,
824,123.0,0.108274112,1.97,6.399746193,,13.2,,,,,,,,,,,,,,
825,290.0,0.296724138,0.58,14.84189655,,27.1,,,,,,,,,,,,,,
826,107.0,0.123333333,1.2,5.0155,,12.5,,,,,,,,,,,,,,
827,54.0,0.055470588,1.7,2.699588235,,6.21,,,,,,,,,,,,,,
828,102.0,0.121219512,1.64,5.367926829,,12.4,,,,,,,,,,,,,,
829,99.0,0.086526718,2.62,5.158587786,,11.5,,,,,,,,,,,,,,
830,94.0,0.093397436,1.56,4.977948718,,8.94,,,,,,,,,,,,,,
831,110.0,0.101438053,4.52,5.552522124,,12.9,,,,,,,,,,,,,,
832,,,0.09,,,,,,,,,,,,,,,,,
833,111.0,0.120708661,1.27,5.902283465,,11.8,,,,,,,,,,,,,,
834,85.78837256,0.208953326,,,,,,0.018936168,0.717665809,,,,,,0.020238573,0.086310448,,,,
835,81.60714395,0.168718578,,,,,,0.012040938,0.591969921,,,,,,0.050294092,0.059385101,,,,
836,67.21121946,0.193317112,,,,,,0.017611185,0.284240649,,,,,,0.073410442,0.064912534,,,,
837,101.503672,0.256512912,,,,,,0.016218918,1.209040196,,,,,,0.052927272,0.077064387,,,,
838,99.13474789,0.235855054,,,,,,0.021817323,1.090502315,,,,,,0.063589442,0.103377784,,,,
839,90.7806955,0.219943198,,,,,,0.012363079,1.340565031,,,,,,0.075599217,0.057561974,,,,
840,109.1204712,0.265576663,,,,,,0.017894213,1.688705213,,,,,,0.048545894,0.087205793,,,,
841,92.06296992,0.260209969,,,,,,0.016083772,1.292344849,,,,,,0.250656096,0.111760095,,,,
842,92.5775483,0.173342627,,,,,,0.013710965,1.235488827,,,,,,0.110634644,0.04523269,,,,
843,94.39871603,0.163737521,,,,,,0.010263423,1.099775345,,,,,,0.044925173,0.005439195,,,,
844,103.5111753,0.204644196,,,,,,0.007552417,0.976565211,,,,,,0.126124458,0.112274702,,,,
845,102.3912313,0.310941361,,,,,,0.017925311,2.377339444,,,,,,0.025020278,0.079849808,,,,
846,103.5356279,0.182076835,,,,,,0.015124186,2.156390476,,,,,,0.094705936,0.037115374,,,,
847,111.5897436,0.085407109,,,,,,0.011658085,1.115948156,,,,,,0.103885134,0.000573103,,,,
848,107.4605283,0.125568685,,,,,,0.015325754,0.682097599,,,,,,0.350555187,0.044646226,,,,
849,80.13835085,0.079043733,,,,,,0.013989189,1.152262947,,,,,,0.11454788,0.090161127,,,,
850,,,3.01,,26.99933555,10.28006645,7.109966777,,,,,,,,,,,,,
851,,,2.31,,9.338095238,6.785281385,3.815151515,,,,,,,,,,,,,
852,,,4.35,,24.05172414,9.209195402,5.818390805,,,,,,,,,,,,,
853,,,6.68,,26.43173653,9.879191617,6.358682635,,,,,,,,,,,,,
854,,,3.45,,18.50985507,9.157681159,4.921449275,,,,,,,,,,,,,
855,,,6.04,,29.21754967,8.276821192,6.951324503,,,,,,,,,,,,,
856,,,3.19,,23.79373041,9.510971787,5.925705329,,,,,,,,,,,,,
857,,,1.64,,23.07926829,16.33841463,15.27987805,,,,,,,,,,,,,
858,,,2.66,,25.08308271,6.839097744,9.068045113,,,,,,,,,,,,,
859,,,3.64,,27.04175824,10.18928571,6.754395604,,,,,,,,,,,,,
860,,,1.46,,31.77945205,10.4869863,8.466438356,,,,,,,,,,,,,
861,,,2.54,,22.86259843,7.963779528,6.101968504,,,,,,,,,,,,,
862,,,2.48242,,,,,,,,,,,,,,,,,
863,,,2.48242,,,,,,,,,,,,,,,,,
864,,,3.73438,,,,,,,,,,,,,,,,,
865,,,6.6766,,,,,,,,,,,,,,,,,
866,,,0.656255,,,,,,,,,,,,,,,,,
867,,,0.656255,,,,,,,,,,,,,,,,,
868,,,0.893758,,,,,,,,,,,,,,,,,
869,,,0.893758,,,,,,,,,,,,,,,,,
870,,,0.863513,,,,,,,,,,,,,,,,,
871,,,0.863513,,,,,,,,,,,,,,,,,
872,,,0.892809,,,,,,,,,,,,,,,,,
873,,,1.98885,,,,,,,,,,,,,,,,,
874,,,1.15533,,,,,,,,,,,,,,,,,
875,,,0.385126,,,,,,,,,,,,,,,,,
876,,,1.437073,,,,,,,,,,,,,,,,,
877,,,2.18775,,,,,,,,,,,,,,,,,
878,,,1.6075,,,,,,,,,,,,,,,,,
879,,,0.914149,,,,,,,,,,,,,,,,,
880,,,,,,,,,,,,,,,,,,,,
881,,,3.27426,,,,,,,,,,,,,,,,,
882,,,2.389598,,,,,,,,,,,,,,,,,
883,,,1.032858,,,,,,,,,,,,,,,,,
884,,,1.853483,,,,,,,,,,,,,,,,,
885,,,1.213964,,,,,,,,,,,,,,,,,
886,,,3.901797,,,,,,,,,,,,,,,,,
887,,,4.03829,,,,,,,,,,,,,,,,,
888,,,,,,,,,,,,,,,,,,,,
889,,,,,,,,,,,,,,,,,,,,
890,,,,,,,,,,,,,,,,,,,,
891,,,2.37,,,,,,,,,,,,,,,,,
892,,,2.37,,,,,,,,,,,,,,,,,
893,,,2.70947,,,,,,,,,,,,,,,,,
894,,,,,,,,,,,,,,,,,,,,
895,,,0.579916,,,,,,,,,,,,,,,,,
896,,,5.011747,,,,,,,,,,,,,,,,,
897,75.30102758,,,,45.54491313,8.474507003,8.804660526,,,,,,,,,,,,,
898,102.2184366,0.224350897,,5.575468491,49.26330637,9.99066311,9.922013803,0.015696248,2.310498118,1.89173096,3.961369873,,2.122158093,0.023695726,0.048979972,0.065091141,0.000243214,6.65e-05,0.018677261,0.003724314
899,168.759004,0.233267846,,9.706554805,,25.67232706,,0.016393574,4.897441826,3.04378572,8.54027937,,4.318479592,0.016537487,0.151909319,0.091386393,0.000385977,6.07e-05,0.019772584,0.00393157
900,58.18644275,0.140783527,,3.000895241,33.93776797,12.62635456,7.002899731,0.011843782,,0.655642507,0.782987908,,0.919777081,0.016143906,0.116478191,0.13355375,0.000251273,4.42e-05,0.013390929,0.001125752
901,320.1691726,0.376112537,,18.51939931,,46.15508371,,0.03776066,9.336201407,6.47486592,16.5369844,,7.756790095,0.029996664,0.236967534,0.181090813,0.000653436,0.00012548,0.039277433,0.007727299
902,69.04431013,0.186381731,,3.43917457,48.84888461,8.316832243,9.003416981,0.005814423,3.92251722,1.263627662,4.403190531,,1.822558886,0.01322761,0.107970543,,0.000209257,5.03e-05,0.01334172,0.004000595
903,224.22057,0.408588758,,11.84179687,48.22424126,36.189064,16.61385867,0.030463636,5.868265172,5.239752178,11.52110157,,4.394210859,0.016614314,0.024250725,0.177907326,0.000518885,0.000115979,0.020495624,0.001915455
904,101.1368197,0.304274775,,5.286574043,54.07696546,12.52447704,10.03622127,0.010682422,1.820675154,2.119760166,3.787641814,,2.236671536,0.010976525,0.007458838,0.126137432,0.000470147,0.000112464,0.012874663,0.002458213
905,86.07844681,0.172317649,,4.525469202,34.53054072,11.81934736,7.051600589,0.003191938,2.31660357,1.847892211,4.250930681,,2.304944986,0.02333686,0.134736808,0.075903213,0.00045507,6.71e-05,0.006437743,0.002624816
906,86.16865007,0.211178328,,4.613493521,46.53726452,9.278704196,8.658751289,0.008341739,1.716963379,1.57478538,3.162249602,,2.13089505,0.01862441,0.003085526,0.062037461,0.000320677,6.86e-05,0.009071721,0.002114873
907,108.1884557,0.265439785,,5.774240208,56.44957751,9.069076783,10.20228614,0.007560941,2.612437357,2.559089258,5.335935881,,2.306702546,0.016716708,0.021478526,0.126837257,0.000501645,9.36e-05,0.009777646,0.001993441
908,76.53444099,0.167513224,,3.60098401,39.51686485,8.659808516,8.075755847,0.005901474,0.262044199,1.111469104,1.959124616,,1.367780144,0.030344806,0.179729696,0.121778102,0.000521845,5.99e-05,0.007681358,
909,81.71645226,0.156280508,,4.614505809,46.42946983,6.610541206,8.738754778,0.005494681,2.307512601,1.739941899,4.411537429,,2.157018727,0.011994207,0.059031352,0.065661713,0.000191801,6.21e-05,0.010730914,0.003233355
910,105.6740148,0.246303947,,5.837478458,53.64861685,17.33987824,10.67991609,0.025639182,0.886378369,0.784759418,1.152002298,,3.139288371,0.024293379,0.137701632,0.146805115,0.000409083,5.19e-05,0.020182207,
911,92.77636134,0.257046031,,5.173008768,59.54342612,9.308383965,10.77566607,0.012758151,2.791117767,1.702308637,4.837539133,,2.396614479,0.014540152,0.064040835,0.102617452,0.000335109,7.79e-05,0.013111002,0.003188209
912,66.96929723,0.187445123,,3.725422857,41.67273143,6.564104576,8.250520288,0.009627901,1.053010481,0.467327262,1.746056107,,2.057301742,0.024051039,0.1041649,0.040227143,0.000216781,5.35e-05,0.01309557,0.00359115
913,69.10359564,0.122529381,,3.374780573,48.59085472,15.6000655,9.460269406,0.001888697,0.226247953,0.961658467,1.328375774,,1.578770559,0.020141949,0.117559768,0.075355336,0.000347279,4.77e-05,0.004255987,0.000300995
914,80.95092331,0.177828577,,4.044954599,46.67101763,9.640071799,8.811281409,0.00464463,1.469505705,1.890885676,3.049318171,,1.465494922,0.020710134,0.030058129,0.062290238,0.000343048,5.32e-05,0.007879352,0.002236679
915,62.63178401,0.169252406,,2.993244177,42.53993069,6.638366771,8.485969399,0.011065937,0.599137948,0.762745573,1.675786151,,1.269947386,0.016600981,0.159903567,0.105547097,0.000303505,6.13e-05,0.010954839,0.001281851
916,83.21401931,0.229992926,,4.357761415,58.11220659,11.5879407,10.19425421,0.012213473,1.720696362,1.877706059,3.474904988,,1.598467166,0.012041564,0.041478823,0.106007131,0.000344196,7.22e-05,0.011216958,0.001271176
917,64.48327105,0.130770207,,3.246803548,45.8472439,8.430790896,8.82631457,0.007471825,2.107103792,1.078669986,3.671076583,,1.241948178,0.020881256,0.104799622,0.067922666,0.000245738,3.88e-05,0.00847981,0.003538375
918,75.20956164,0.17932229,,3.973965635,51.07641594,12.54226226,9.492374954,0.002155477,1.924293664,1.507663863,3.459770441,,2.262771166,0.013656928,0.075218679,0.073550237,0.000356035,6.62e-05,0.006772318,0.002290627
919,77.13715473,,,,63.73294548,11.00336885,12.08086045,,,,,,,,,,,,,
920,112.0490091,0.19366341,,6.038655092,42.47605624,12.18926161,8.127632529,0.005867266,2.634203841,2.397988034,4.444435657,,2.853085376,0.016218378,0.021962673,0.060400512,0.000344767,7.34e-05,0.008720962,0.003860312
921,292.7511,0.247639845,,16.10936769,39.86878378,47.411669,17.61845943,,9.860456216,7.701924074,19.21109874,,5.819264289,0.013683231,,0.107637911,0.000441579,9.36e-05,0.013414419,0.005243022
922,236.9684,0.296091169,,13.24148785,48.07297484,36.629587,14.54059323,,7.135270177,6.098484348,14.44463703,,6.259520855,0.037320505,,,0.000654182,9.58e-05,0.008422736,0.005441978
923,303.3951,0.364925184,,17.21433392,48.79543712,44.246975,19.04597547,0.022237233,10.39066376,6.779488745,18.03785299,,7.151709606,0.027384555,,0.041311186,0.000672954,0.000125216,0.014837837,0.005969944
924,180.1696592,0.27573481,,9.575864918,58.94020559,14.82141383,11.15988794,0.007405055,4.972220884,4.6020477,9.04752323,,4.78010218,0.038692066,0.052786218,0.123971488,0.000561796,0.00010965,0.011476627,0.004500001
925,214.2197024,0.354312391,,11.80516824,72.98588727,14.9679815,13.9613243,0.020252915,7.282935196,4.182509429,11.72866208,,5.249918174,0.047557944,0.213162456,0.16593421,0.000503456,0.000112899,0.02718317,0.010757097
926,109.519372,0.230279299,,5.314660075,50.39700042,8.404371147,10.04362779,0.001247169,3.392442176,3.094483047,6.49496739,,2.744507401,0.032791779,0.124627589,0.055392543,0.000430604,8.89e-05,0.007655832,0.007492123
927,99.64045626,0.296343863,,4.685824448,44.34687333,10.76884397,9.043741105,0.023331633,2.635932649,1.198342118,4.510954792,,2.083284045,0.022420815,0.252438897,0.150059269,0.000297368,8.82e-05,0.025091461,0.004816687
928,146.4159107,0.175348107,,8.024003487,29.70878673,8.958181007,9.10289814,,4.869286575,3.109731728,7.50677482,,4.691558197,0.024455934,0.028864611,0.042237262,0.000419191,8.88e-05,0.0020663,0.006397855
929,112.6656657,0.227225415,,6.186988389,36.87175509,9.42681219,8.093270773,0.006575042,3.024981789,2.37880452,4.979338847,,3.016364782,0.021120378,0.058022553,0.067796882,0.000465167,8.4e-05,0.009712895,0.003422549
930,124.5927395,0.222375892,,6.7488319,33.20582287,7.519847464,6.921268158,0.018088867,2.753865907,1.44558079,4.522658147,,3.149627075,0.036581699,0.217007802,0.087433499,0.000421411,6.78e-05,0.020464146,0.004736931
931,123.3474462,0.225170561,,6.550645641,32.6833188,9.185845249,7.332149818,0.006728795,2.546490262,2.506016621,4.378176336,,2.968712232,0.016197863,0.021959449,0.083576678,0.00045227,8.08e-05,0.009519104,0.003861977
932,162.0649916,0.208267219,,8.713615628,26.08496514,19.31894628,5.563009867,,4.32647969,6.410292316,9.695241709,,2.148862382,0.0014977,,0.109264937,0.000507325,9.44e-05,0.013813769,0.001373032
933,136.2508448,0.184940364,,7.765257945,47.73986703,8.971682473,9.233903295,,5.169205774,2.428560632,7.300861043,,4.513416051,0.036525727,0.131971485,,0.000318051,6.19e-05,0.015333258,0.006647047
934,108.4623997,0.132549852,,6.226482349,33.44618932,10.30489653,7.364355157,,3.444517439,1.453353474,4.801336437,,4.657252052,0.025554473,0.087005953,,0.000471273,4.97e-05,,0.00430533
935,142.7922583,0.183387927,,7.721237312,,17.85202678,,0.014197062,2.975567634,2.926095773,6.173716013,,3.182040332,0.034302694,0.143681916,0.09577408,0.000356175,7.72e-05,0.023039493,0.004344549
936,56.22416021,0.147712714,,2.710125731,45.41545858,9.175498066,8.806323016,0.011720352,1.206681818,1.358783705,2.845070668,,0.852704077,0.006865122,0.027889062,0.100365244,,3.39e-05,0.013366208,0.000610811
937,121.3412364,0.204102808,,6.771997788,49.35497864,9.77680946,10.09354995,,4.914119684,2.624431442,7.371565401,,3.526447075,0.014457843,0.073864854,,0.000349581,5.44e-05,0.010682019,0.004567734
938,180.6629358,0.231139736,,9.896199939,40.43580222,16.67948807,8.436214117,0.013471668,6.428632004,4.50314753,11.66144039,,4.528143581,0.023638942,,,0.000304618,7.27e-05,0.017699114,0.005078446
939,100.8635065,0.125094348,,5.664799817,14.51391638,,4.932933365,0.007339762,3.218892366,2.041470762,5.945110879,,4.425240256,,,,0.000285735,5.45e-05,,0.001808882
940,80.53475663,0.168721517,,4.01919729,49.9721648,,10.88202244,0.021649503,,,,,0.895279822,0.082041041,0.361475812,0.204345203,0.00051133,7.22e-05,0.041367332,
941,110.4556496,0.1751972,,5.398109073,18.94156565,,5.499785953,0.011407017,,1.777585226,1.72607372,,1.269072453,0.050127467,0.167781503,0.277201676,0.000441101,6.65e-05,0.027159704,
942,98.3837373,0.189480757,,4.807522311,42.05469865,,9.139134192,0.013556107,2.384547807,2.096994716,3.751675751,,0.657104148,0.046332337,0.390602487,0.119783762,0.000565283,8.6e-05,0.022502407,0.004022899
943,81.78177765,0.261216727,,4.297795447,41.79261924,,8.768726268,0.01732806,2.195886116,1.098042111,1.389435446,,2.817068776,0.05406546,0.191293965,0.17396857,0.000397041,7.03e-05,0.026177259,0.004201983
944,171.39316,0.26855624,,9.548830188,30.2007837,18.382348,,0.008698914,4.966481519,3.465847446,8.967114969,,4.170470775,0.021214546,0.075716527,,0.000530056,9.27e-05,0.011482212,0.003923144
945,93.38138169,0.193381762,,4.992826539,34.83337087,11.41143807,6.949131691,0.011332181,1.922355495,1.590034109,3.310078728,,2.453717904,0.026239042,0.110389556,0.04942332,0.000414784,6.74e-05,0.007211758,0.001322427
946,90.04069088,0.230602727,,4.842752792,36.21379591,7.735232802,7.27314231,0.011329014,2.160516261,1.664830107,3.51893207,,2.452176011,0.01747798,0.059635203,0.059808626,0.000426071,7.44e-05,0.007345647,0.001549216
947,78.57090188,0.185476297,,4.253139304,42.4315939,6.638755358,8.039778494,0.012221521,3.130295499,1.087682784,4.178007447,,2.399869166,0.012017647,0.100380979,0.037669977,0.000238572,6.13e-05,0.00976086,0.003646008
948,102.8634,0.23135484,,5.567211102,35.7229612,15.74628,12.45223426,0.011475465,2.956660663,2.64598648,5.734732486,,2.17292054,0.028350457,0.154759339,0.073142284,0.000222926,5.45e-05,0.019336018,0.005328068
949,79.65338176,0.154481024,,3.922439649,32.1529782,9.109537101,6.885610004,0.008011938,1.208668688,1.70414357,2.488354448,,1.781226641,0.0135951,0.059623768,0.076619524,0.000281058,6.13e-05,0.005262984,0.001387542
950,78.70764578,0.166514312,,4.300190152,31.24400088,7.85933312,6.470360661,0.00399618,0.547753417,1.217449544,1.528434045,,2.769483757,0.025994535,0.020884468,0.021857261,0.000228381,6.57e-05,0.005720664,0.002072752
951,82.16928176,0.17434473,,4.564054695,38.31760787,8.812669369,7.297235264,0.00495763,1.297076479,1.087924051,2.237610452,,3.218860434,0.029618811,,0.000915161,0.000194349,5.61e-05,0.007920229,0.003023812
952,83.33512671,0.214866765,,4.496453616,45.6129129,8.639781396,8.153696224,0.005191275,3.115802671,1.743290167,4.854205334,,2.275991497,0.009655108,0.052022009,0.018954123,0.00043592,7.32e-05,0.005145186,0.003222583
953,89.73076762,0.228027061,,4.739434283,41.62292677,9.760643632,8.243697558,0.008906107,1.521492772,1.683177399,3.213902432,,2.226236811,0.021469259,0.082986462,0.081115989,0.000445178,8e-05,0.009320771,0.00211783
954,72.94827134,0.181843522,,3.96937344,39.23943492,7.468487866,7.330050784,0.008611649,1.944482257,0.816654845,2.706409791,,2.281434558,0.01982136,0.101449531,0.031920433,0.000376762,5.83e-05,0.005529169,0.000734608
955,73.60861255,0.1779316,,3.777809659,39.53766916,4.440801934,7.974220608,0.007207855,2.493230873,1.221240698,3.793311446,,2.152730493,0.007071321,0.065057164,0.035654018,0.000318112,5.61e-05,0.004800708,0.001755276
956,59.65676816,0.112339537,,3.070347171,35.21665937,7.639063695,6.853862609,0.005533628,0.764343991,0.964791928,1.751558416,,1.386498201,0.0138184,0.045888672,0.039727056,0.000232322,3.8e-05,0.005271886,0.000991391
957,85.06308856,0.255499059,,4.461385992,50.42366587,10.11453929,9.238099218,0.012691975,1.656229119,1.97942852,3.604958759,,1.461207962,0.015177828,0.041732821,0.113172775,0.000437128,7.26e-05,0.011648533,0.001258829
958,72.69439267,0.177494431,,3.674984328,44.88911069,8.259867093,8.590959284,0.007966034,1.144796424,1.172720495,2.060623925,,1.571008186,0.024328903,0.079210046,0.05148699,0.000443371,6.02e-05,0.006511255,0.000615233
959,53.34824287,0.117161777,,2.442811242,37.09993625,7.805325227,7.360514543,0.009683038,0.919596842,1.295786977,2.24966811,,0.803869047,0.030004085,0.172265892,0.072264048,0.000268102,4.53e-05,0.008531134,0.001536101
960,66.04007807,0.162285781,,3.223325619,49.48441748,10.49865074,9.055638465,0.00486597,0.734115601,0.873912049,1.85017818,,1.433410174,0.025706138,0.096987155,0.075942677,0.000413363,6.47e-05,0.005779185,0.000645823
961,56.6640588,0.138359272,,2.71741832,37.96877118,7.345085692,7.446531937,0.007326654,0.492635213,0.971053338,1.573707665,,1.259246356,0.027450625,0.143449796,0.072007875,0.000295133,4.68e-05,0.006695378,0.00061005
962,83.12883887,0.285916079,,4.245655804,63.02647826,9.857045643,11.13722135,0.007753163,2.325322702,1.518968631,3.458389675,,2.005478868,0.012859074,0.049418335,0.072690632,0.000521921,9.47e-05,0.008124759,0.002689233
963,73.96273292,0.203299229,,3.589507861,52.81800003,11.84966204,9.652942412,0.012936688,0.614125579,1.239987379,1.726401704,,1.588568238,0.017936294,0.085210028,0.118471751,0.000273479,6.78e-05,0.01002604,0.000483197
964,57.99084511,0.151749554,,2.720495061,38.0034099,7.50868317,7.663947484,0.010045975,0.525659849,1.192971237,1.867187805,,0.953420723,0.020870033,0.063639657,0.101932793,0.000201237,4.22e-05,0.008657093,0.000439972
965,56.42926731,0.115006351,,2.62119842,44.66974651,10.11844174,8.117526422,0.010718029,0.732149625,1.28469697,1.965959151,,0.861960661,0.030919927,0.163456799,0.075386175,0.000294211,4.17e-05,0.007563193,0.000719735
966,155.15955,,,8.822130737,,17.973741,,,4.406904827,2.775553107,8.02651907,,3.503932038,0.029344685,0.097594615,,0.000464366,6.62e-05,0.010275965,0.002862409
967,94.7743338,0.105215476,,4.233652826,22.06501897,13.21816363,5.555063382,0.004091073,1.249988377,2.908254692,4.677032792,,0.769429308,0.002981229,,0.136565721,0.000231517,3.61e-05,0.005395505,
968,64.4785335,0.058552471,,2.873828276,30.7091984,11.83642817,6.612545693,0.003459212,1.21163564,2.280187492,3.790194052,,0.46025836,,,0.079791468,0.000107798,2.2e-05,0.002660835,
969,88.39394159,0.104353005,,3.936004295,32.01962987,9.705247636,6.826175275,0.003908289,1.383021437,2.98430166,4.768906503,,0.567712998,,,0.136076013,0.000204923,3.55e-05,0.003692715,
970,98.95412124,0.146821365,,4.674270342,46.81763637,14.52828741,9.229795906,0.006113216,1.957589653,4.034199913,5.700604621,,0.541048397,0.011425312,,0.153588219,0.000145275,5.11e-05,0.013435771,
971,33.87717241,0.043817173,,1.612501119,36.31077415,12.24473229,7.171106765,0.004489095,0.937769007,1.142849165,2.254058798,,,0.007034608,0.009609517,0.048699776,7.76e-06,1.16e-05,0.005877074,0.000344033
972,122.1774409,0.217046667,,5.661377569,25.90287305,9.874987246,6.341134238,0.02446929,1.73184486,3.04148814,4.920879342,,1.492050135,0.028675627,0.062998051,0.237688622,0.000253021,6.88e-05,0.016882048,
973,81.13933637,0.095275169,,3.670306321,28.34026989,10.91636593,6.367363647,0.007028187,1.421938722,2.479092443,4.525327091,,0.811312757,0.002700739,,0.107404766,0.000121932,2.92e-05,0.004462258,
974,78.98204602,0.129676004,,3.720861326,32.1630357,16.14698201,6.985336328,0.009246936,1.347711299,2.19782218,3.996436789,,0.986053861,0.011259782,0.026180419,0.125287548,0.000217718,4.18e-05,0.008281963,
975,87.11726708,0.137859577,,4.256881249,29.49190752,15.25815874,7.152239722,0.007277364,,1.680797072,1.408021462,,0.863301566,0.034320027,0.14438555,0.151477353,0.000613583,7.35e-05,0.010520076,0.000574209
976,80.15317541,0.222166523,,4.281416808,39.36895573,9.337694186,7.677707064,0.010060499,1.384305331,0.915071243,1.859659681,,3.259269726,0.018762454,0.040578821,0.06655954,0.000311449,7.25e-05,0.007987741,0.000925727
977,67.51482358,0.112825102,,3.422058541,22.40289331,8.259633698,5.254478737,0.005556065,1.038404992,1.346350295,2.553315766,,1.33879456,0.020332176,0.072228995,0.093354511,0.000314554,4.25e-05,0.004764275,
978,105.4452068,0.172584925,,4.720544862,52.20110396,24.77538134,11.03110412,0.013636857,1.768629828,3.204901602,5.596527482,,0.961108963,0.012434273,,0.200754412,0.000193309,4.99e-05,0.011129664,
979,87.76785491,0.161560481,,4.613334581,45.7183604,14.52275327,8.581705337,0.009412945,1.244485124,1.450332621,3.197637129,,1.791004713,0.024135352,0.151270424,0.124419724,0.000362326,6.94e-05,0.008072295,0.001348504
980,63.90783763,0.098834556,,2.936197622,34.63040143,10.02107064,6.698569282,0.005135685,1.257576356,2.177555659,3.678500309,,0.622470869,0.004946293,,0.098786806,0.000111727,3.04e-05,0.006254297,
981,79.44541768,0.195745651,,3.951544241,44.15603969,10.55486803,8.584868691,0.009630902,1.132159269,1.493542853,2.804632056,,2.288492662,0.030308474,0.154875861,0.091284217,0.000289579,7.18e-05,0.00983641,0.003311859
982,114.6665796,0.465271178,,5.862765211,60.34127666,14.39310988,11.58015763,0.036038169,0.234081873,1.071587132,1.125852857,,2.234554063,0.033912193,0.232089349,0.242039587,0.000579892,0.00010551,0.031526348,0.000429427
983,71.46953218,0.077687061,,3.143276458,40.34960137,11.07320152,7.606162054,0.001451028,1.265268047,2.248864501,3.85199973,,0.444059374,,,0.100119268,0.00023925,2.62e-05,0.001626901,
984,91.1387566,0.282514795,,4.838205685,60.74723336,13.26982116,10.9386158,0.015597514,1.994550867,2.020502954,4.066661432,,1.723601825,0.01485092,0.051397721,0.111277449,0.000455376,8.05e-05,0.012800215,0.000921305
985,73.37101761,0.129962786,,3.402318503,38.05909757,19.29596174,8.549381153,0.008161407,0.271483935,1.651060871,1.830494552,,1.014291933,0.020162386,0.080900387,0.172542716,0.000298093,5.61e-05,0.006470041,0.00010186
986,58.81251741,0.106165473,,2.746103333,31.56958826,15.29467325,6.874740237,0.006625508,0.068088761,1.1750903,1.240642646,,0.622454835,0.025282264,0.097846848,0.120341872,0.000316541,4.56e-05,0.00701698,0.000369202
987,63.64005002,0.158144608,,3.307137261,40.57822291,13.63967867,8.452976291,0.011658595,0.597578779,0.908862194,1.75865488,,0.562909584,0.017027954,0.081724072,0.052465656,0.000358877,3.41e-05,0.009200431,
988,45.80580938,0.08048073,,2.00023785,36.35749145,12.63454813,7.745015397,0.007532688,0.532482328,1.339746573,2.271967132,,0.421235827,0.006071955,0.015998708,0.094983162,5e-05,2.09e-05,0.006901903,
989,89.94524612,0.098023985,,4.252857398,28.72944891,10.84656778,6.119927739,0.010072125,1.958861281,2.345854101,5.195449626,,1.148800819,0.020546837,0.078154712,0.122753706,2.77e-05,3.17e-05,0.011125047,0.000539564
990,64.14391484,0.062227945,,2.86262871,18.29616274,8.991142155,,0.004141827,1.207825796,2.043814299,3.720379285,,0.673368736,0.002741768,,0.085274472,9.06e-05,2.35e-05,0.002852019,
991,,,,,,,,,,,,,,,,,,,,
992,68.4520856,0.101465383,,3.165877437,29.89807341,10.37944899,6.285912672,0.007691192,1.148645348,1.788397938,3.335312692,,0.990216248,0.009359676,0.037232558,0.097999785,0.000133425,3.36e-05,0.005872949,
993,,,,,40.71222327,,7.831298771,,,,,,,,,,,,,
994,137.5821061,0.209125128,,6.378882667,32.74812657,15.53824168,,0.019820431,2.273877987,4.719079614,7.499725567,,1.028139907,0.011098621,,0.253741136,0.00011933,5.14e-05,0.022321589,
995,94.68350408,0.084318094,,4.603045275,19.3878465,8.365615184,5.584700788,0.003057172,0.417961366,2.11500827,2.783825655,,1.271954138,0.027303727,0.112598362,0.127763364,0.000466987,6.13e-05,0.003707365,0.000593558
996,,,,,30.7743883,,6.726475263,,,,,,,,,,,,,
997,68.61121413,0.108622316,,3.414564842,,14.41502831,,0.014801094,0.79518083,1.436777483,2.280646041,,1.407825902,0.031773235,0.107668472,0.11832859,0.000282577,5.51e-05,0.009167939,0.000867109
998,58.67211494,0.093076377,,3.05305303,,12.18635273,,0.009071737,0.575812144,0.783971728,1.34251317,,1.494344146,0.021781255,0.07831974,0.073044604,0.000204501,3.54e-05,0.007352644,0.000697113
999,68.8303072,0.084502042,,3.325384884,,11.69740481,,0.010105691,0.967573831,1.556194064,2.537354304,,1.321575543,0.019947409,0.082695874,0.106216305,0.000156777,3.99e-05,0.008143149,
1000,58.38145231,0.130525528,,2.948375854,,9.964680447,,0.01036939,0.557029143,0.908290669,1.456434562,,1.336261016,0.01745161,0.071024775,0.062992178,0.000220416,3.84e-05,0.008396121,0.000645967
1001,71.11615896,0.104801802,,3.352293122,,12.78374579,,0.012361408,0.815338205,1.562842181,2.527221208,,1.1113632,0.0184179,0.06299521,0.12763395,0.000185863,4.29e-05,0.00894972,
1002,101.3482631,0.22511517,,5.207055571,50.32258438,12.62457915,9.071426111,0.008738418,1.724760237,2.061884773,3.970235814,,2.529308952,0.03150143,0.046119708,0.05489488,0.000330336,7.25e-05,0.01171403,0.002322741
1003,81.09101972,0.253197371,,4.423970143,59.51127902,8.590872397,10.31491414,0.008820841,2.192974844,1.487710623,3.90713216,,1.962398921,0.006369064,0.032415644,0.073825819,0.00028442,7.29e-05,0.012135136,0.002007232
1004,67.51736218,0.181216293,,3.553201502,46.99621579,6.329273683,8.752329207,0.00836347,1.358422612,1.161583323,2.557844311,,1.528302189,0.011485129,0.044589448,0.058759085,0.000289294,6.27e-05,0.008411855,0.001030437
1005,106.7119288,0.382874656,,5.784356991,67.55459904,13.49173242,11.99954179,0.023116379,2.099711593,1.647789694,3.481555421,,3.242362035,0.035141156,0.044646521,0.09058031,0.000286623,9.25e-05,0.021534813,0.002153357
1006,79.46904353,0.248683,,4.199565514,61.10191838,9.399247739,11.17970793,0.011372234,1.835099043,1.621668297,3.745566259,,2.014773212,0.013796757,0.048414001,0.09607723,0.000381478,7.12e-05,0.011114478,0.000975704
1007,102.4499621,0.294703419,,5.63496014,73.73280468,12.68291527,12.56277971,0.017885543,2.493399247,2.259643511,4.707359095,,2.388420017,0.016535003,0.071725179,0.109639022,0.00039496,9.31e-05,0.016174518,0.00248999
1008,84.92299891,0.220107618,,4.537721627,61.8844877,12.55699285,10.73089012,0.011107838,1.692216866,1.809771885,3.399653068,,1.725282272,0.011314883,0.025197513,0.08204074,0.000392284,7.49e-05,0.010019836,0.001001215
1009,74.39508306,0.168674623,,3.82045534,50.99384581,9.339944068,9.294337108,0.005634503,1.300469644,1.285497476,2.979314526,,1.998260154,0.022596771,0.067552084,0.058183807,0.000349031,6.31e-05,0.004008039,0.00095151
1010,98.97370759,0.225868759,,5.002662064,67.96187549,13.71889953,12.14536368,0.006818962,1.934134275,2.167149384,4.494431545,,2.088157472,0.038657987,0.159472084,0.087493935,0.000510012,9.32e-05,0.010296153,0.003756828
1011,84.97479387,0.239591372,,4.177112277,63.19353027,9.613591642,11.33304004,0.008574575,1.91404673,2.157171501,4.316219583,,1.812169764,0.027295116,0.105272535,0.106530502,0.000358749,8.53e-05,0.010486213,0.003576065
1012,102.6701072,0.235354619,,5.784839506,38.90170423,8.810209321,7.624336124,0.010674551,3.669987901,1.5848575,5.255274793,,3.012129844,0.023293749,0.070943998,0.026799397,0.000241791,6.3e-05,0.01474287,0.005753996
1013,111.7648186,0.194943909,,6.020071225,36.13177072,11.47450602,7.661840088,0.006874205,2.689405121,2.346407163,4.895893619,,2.853919791,0.01901716,0.030558853,0.084803907,0.000350197,7.39e-05,0.007272499,0.00261641
1014,286.90394,0.316501989,,15.69082551,56.17970969,41.709084,14.52328694,0.009452765,9.282320635,8.165466934,18.59848047,,6.601115397,,,0.181200976,0.000514473,0.00013997,0.014741689,0.007275495
1015,139.0213991,0.273970226,,7.302793952,43.1949381,10.43013988,8.869681219,0.005067385,3.517075257,3.459031454,6.682407573,,3.203139199,0.013140025,,0.112192335,0.000480069,9.76e-05,0.007780452,0.002687274
1016,107.1314093,0.245133555,,5.864757133,41.16179508,9.159534601,8.167988908,0.008082598,2.475262537,2.473526613,4.613854358,,2.90816119,0.01735151,0.01137375,0.088984389,0.000392429,8.99e-05,0.007772833,0.001888239
1017,250.84402,0.345668005,,13.51884788,48.22506601,42.711286,19.01832416,0.013254907,6.787399795,6.282398041,13.62832065,,4.927283401,,,0.128729235,0.000687407,0.000119872,0.015118126,0.003089204
1018,115.81988,0.210157229,,6.488385077,42.4361644,27.185138,15.96080318,0.012960119,3.522952027,2.316796817,5.661883747,,3.245237439,0.028980541,0.109437318,0.06098377,0.000356143,8.07e-05,0.008221934,0.003161558
1019,93.94519994,0.211138953,,5.066405041,45.25286812,6.946367359,8.933766046,0.008406576,2.704304395,2.617956796,5.111705627,,1.956784662,0.015394084,0.024165906,0.094722946,0.000346054,7.73e-05,0.009450178,0.002457659
1020,89.84191697,0.101142886,,5.12011935,38.74543128,13.44842303,8.053279084,0.007678537,1.304340842,0.767409458,1.820474836,,3.533838168,0.035565146,0.126357969,0.015792166,0.000332628,6.29e-05,0.00401942,0.001761329
1021,76.25918641,0.144467178,,4.210210983,32.37614789,6.263521852,6.881338835,0.003583231,0.742503561,0.915649315,1.594659637,,3.076011113,0.027608419,0.007827689,0.017343933,0.00014333,5.69e-05,0.006566639,0.002166553
1022,77.33654877,0.101113167,,4.05692623,24.13628894,7.028724103,5.838707868,0.007115664,1.46802482,0.456191323,2.225893419,,1.976041841,0.022723498,0.047882321,0.068174179,0.000254861,2.12e-05,0.006772869,0.002823066
1023,106.0350661,0.187786997,,5.884205558,46.1160317,10.08825289,8.393046203,0.006649591,2.416199828,2.177687426,4.688897571,,3.407394679,0.024091864,0.043319308,0.041843382,0.000305568,7.96e-05,0.004831911,0.00213768
1024,76.28723266,0.129804196,,4.061078041,34.84584143,9.850301611,7.173121394,0.005662076,2.468746599,1.99024908,4.257343515,,2.041580345,0.016089566,0.039345461,0.058861932,0.00025448,5.11e-05,0.004031345,0.001991069
1025,72.45711278,0.160407954,,3.659930953,42.20650755,12.66611254,9.292341692,0.009858547,0.649245302,0.867392185,1.781296206,,1.740365748,0.014569421,0.072843022,0.090429241,0.000278602,5.48e-05,0.007316706,
1026,75.59551785,0.126763732,,3.997694132,42.23948555,11.09507476,8.35939049,0.005582188,0.088762886,0.830505151,1.431079292,,1.74970408,0.031055624,0.091157321,0.038233285,0.000257247,5.84e-05,0.005083575,0.000869669
1027,86.18355708,,,,40.91953341,10.70676664,8.019311671,,,,,,,,,,,,,
1028,75.64640752,0.194757819,,3.938791127,50.65177295,9.522440407,9.761241277,0.001774249,2.348631687,1.638244452,4.348036769,,2.295131956,0.01422803,0.035278031,0.044218036,0.000372129,7.05e-05,0.003774431,0.003090829
1029,65.20282619,0.146267493,,3.643102501,47.18178674,9.484345438,8.727280521,0.0059445,1.693425571,0.694489441,2.516451737,,1.996338719,0.012426275,0.079504375,0.051262139,0.000169386,5.18e-05,0.006673205,0.002354281
1030,91.09172194,0.227514595,,4.446807843,61.721974,11.14326051,11.27896108,0.006828081,1.969816034,2.060771567,4.623843581,,1.646807923,0.036942449,0.12208777,0.125306396,0.000507828,7.62e-05,0.008712771,0.002860291
1031,72.65231049,0.22190783,,3.710901469,54.24818514,7.706725514,10.15586872,0.007948847,0.454093987,1.165796057,1.443459827,,1.415357711,0.022187926,0.08720977,0.062874308,0.000402082,7.75e-05,0.006528617,0.001105319
1032,71.60679327,0.170629764,,3.173194027,51.77146344,10.7183916,10.01970648,0.005228964,3.987604425,2.735580658,6.060981968,,1.800560037,0.034896503,0.198930676,,0.000175309,7.25e-05,0.01336221,0.009233293
1033,85.43800614,0.132975845,,4.591610029,27.16908828,8.65883755,5.805741592,0.003389754,1.763386021,1.781331774,3.695962881,,2.193986984,0.024561574,0.066430426,0.012607395,0.000300832,5.36e-05,0.005159524,0.002581359
1034,65.43536973,0.165673484,,3.348902719,40.75313807,12.5939341,8.147392555,0.003873981,1.010022216,1.100166823,1.924893492,,1.785470737,0.016912084,0.081391492,0.062313894,0.000282143,6.36e-05,0.005253946,0.002181511
1035,72.14987123,0.164721093,,3.666158933,34.80471606,,7.453968321,0.010458257,1.522305389,1.564139513,3.320646345,,1.740353436,0.008834658,,0.079743803,0.000226136,4.57e-05,0.005409768,0.000907735
1036,76.83419206,0.232262458,,3.764357681,44.05172216,,8.859864944,0.011506874,1.40271936,1.648812671,2.706129599,,1.746254957,0.020700538,0.097795358,0.1136421,0.000376021,7.42e-05,0.010839872,0.00186791
1037,99.87766929,0.165013524,,5.109629964,36.48291381,,7.986757269,0.012428093,1.944146281,2.290710512,4.576019651,,2.24409452,0.011403721,,0.091829581,0.000265453,5.25e-05,0.007805988,0.001068626
1038,73.23414781,0.231367793,,3.78256782,46.71691953,,10.53870054,0.01270228,0.722823491,0.94238218,1.807347178,,1.624098914,0.018871562,,0.052317741,0.000230827,5.45e-05,0.011321715,0.000883954
1039,286.555427,0.560040981,,15.96134928,105.0939992,30.87046387,19.18053777,0.031883447,7.749785839,5.196565539,14.13196679,,9.092818769,,,0.118678798,0.000653681,0.000135686,0.020358592,0.005997313
1040,55.17017871,0.161566006,,2.862945374,41.6893768,,9.050760924,0.0092165,0.72677254,0.898593735,1.542257867,,1.339777792,0.012789376,0.052926246,0.063963479,0.000235451,4.03e-05,0.007529686,0.000735703
1041,106.3716798,0.148482611,,5.777827462,20.08110229,,5.596852227,0.014432342,2.019968516,2.133137949,4.450687656,,3.027830408,0.01422245,,,0.000257262,5.06e-05,0.009394786,0.002201382
1042,63.93267928,0.222410451,,3.290374916,46.28770847,,10.14875405,0.011900266,0.651682236,1.045779945,1.577979846,,1.406665588,0.014140553,0.090001821,0.089003519,0.000331643,5.69e-05,0.009734376,0.001195136
1043,101.6947917,0.149541485,,5.371020023,32.16573196,,7.252481835,0.008590974,2.525972951,2.344129441,5.099242318,,3.031347864,,,0.078272829,0.000313764,5.2e-05,,0.001530025
1044,63.82745876,0.160898081,,3.123439104,32.90945475,,7.524194906,0.007676042,1.485531495,1.316587906,2.781260469,,1.29356478,0.028301709,0.11540885,0.05195428,0.00038618,5.11e-05,0.006929606,0.001776753
1045,68.32915898,0.137887209,,3.723785493,38.00417889,,7.716614556,,1.302295108,0.958542062,2.398669654,,2.606799637,0.016728623,,,0.000275034,4.59e-05,,0.001796704
1046,62.33027979,0.18433548,,3.09432678,38.78244111,,8.585295644,0.013018594,0.8769855,1.209520405,1.999700878,,1.348519775,0.021583893,0.108079849,0.06166043,0.000281556,5.79e-05,0.010664725,0.001654057
1047,46.93511252,0.152448063,,2.191656566,32.83564042,,7.371650256,0.009966684,0.456403899,0.744091368,1.004136593,,0.69308458,0.019750716,0.141657074,0.086253839,0.000309842,4.41e-05,0.008555008,
1048,69.34214561,0.191993684,,3.584817719,39.59943298,,8.586365793,0.011172262,1.437013368,1.393921012,2.810721936,,1.965815287,0.012345723,0.086241281,0.062042536,0.000390777,5.39e-05,,0.001366546
1049,64.77540981,0.118307415,,2.968177538,16.18126636,6.382410081,4.355394447,0.008580479,0.229472566,1.572668402,1.823958931,,0.678674445,0.003563926,,0.157678174,0.000159638,3.49e-05,0.00875785,
1050,102.6369417,0.178387651,,4.99108416,33.49034317,,6.992554968,0.012882753,0.359526706,1.134048796,1.348877482,,1.640567209,0.03368482,0.179219668,0.163189342,0.000546875,7.66e-05,0.008368409,
1051,88.96986792,0.222628414,,4.645808854,42.92992242,10.74519132,8.173409174,0.020366212,0.631165282,1.042174275,2.098175555,,2.27416773,0.029341392,0.144037219,0.145824908,0.000301343,7.46e-05,0.014275171,
1052,111.4098136,0.278951295,,5.954645938,49.11242945,15.59915995,9.096827007,0.018229835,3.005775219,1.399204794,4.90906164,,2.869518467,0.031429931,0.188117235,0.117447283,0.000604802,8.99e-05,0.01301678,0.002798491
1053,78.43619638,0.17170496,,3.770708333,32.09445948,,7.528320444,0.018097953,0.943660975,1.791943487,2.791532061,,0.935597381,0.019797884,0.073190876,0.150173448,0.000101743,4.21e-05,0.017326162,
1054,117.9120872,0.340095656,,6.170403748,64.90608885,12.4400987,11.57471952,0.025171782,2.557323562,2.499074639,4.785166271,,2.296844471,0.028425659,0.052314426,0.15248902,0.000356717,8.48e-05,0.022480538,0.002411967
1055,94.72450087,0.322233312,,4.74775616,58.42310111,13.71240656,10.76740657,0.014867451,1.809058057,2.492585402,4.608273856,,1.381010492,0.02068917,0.011183516,0.203224007,0.000494899,0.00010501,0.015162081,0.000862245
1056,48.18414337,0.12517068,,2.211161229,57.60119635,24.5359373,10.8358582,0.010862243,,0.549938896,0.170518527,,0.654811597,0.036963697,0.187739722,0.076141033,0.000260407,3.77e-05,0.012568218,
1057,90.75249924,0.309113302,,4.611775129,57.61312725,14.00603147,10.57355174,0.020573649,0.976813905,1.088157924,2.089795062,,1.755477804,0.036821538,0.211630582,0.145405923,0.000484767,0.000100727,0.019931942,
1058,51.22265493,0.185492199,,2.291766638,50.56159765,9.793983238,9.442390768,0.01171132,0.120144542,1.470486026,1.162759823,,,0.018451055,0.043820112,0.201510409,9.62e-05,4.66e-05,0.016218135,0.000115977
1059,71.91449116,0.239931802,,3.749481517,49.3752792,9.504901439,10.32210902,0.020340244,1.511806464,1.909748354,3.15872261,,1.109968716,0.025848359,0.073423441,0.098063454,0.000195677,5.83e-05,0.019181899,0.001828107
1060,92.84219152,0.199564869,,4.961853213,29.54561247,11.02060647,7.15053721,,1.228503025,1.248170158,,,4.911906008,,,,0.000352376,7.25e-05,,0.00282251
1061,323.3932224,0.288203702,,18.24308442,44.8586273,25.71384415,9.14418292,0.025261362,5.009368459,5.428907755,11.96005299,,10.80476019,0.026035872,,,0.000687558,9.76e-05,,0.004504941
1062,82.37907268,0.251829658,,4.029956302,,12.37542916,,0.016143192,,1.14367191,,,1.425213311,0.030557,0.117830407,0.120111933,0.000263312,7.68e-05,0.013437534,
1063,88.87308753,0.208446414,,4.563497766,31.55829728,11.51418065,8.146214201,0.016627382,1.430819,1.232806221,2.531198084,,2.792855045,0.032214332,0.16846086,,0.000369619,6.24e-05,0.011530392,
1064,81.07012127,0.194576261,,3.72198026,,10.76819612,,0.017470159,,1.934184544,2.827851236,,0.664270241,0.024204634,,0.226153,,5.81e-05,0.023204276,
1065,99.0579026,0.222622963,,4.561769135,,10.66440717,,0.017684377,,1.914218453,2.399493767,,1.490465317,0.026954342,0.078296657,0.19758325,0.000184194,6.84e-05,0.018328762,
1066,108.3036718,0.193103206,,4.911103821,,10.61803184,,0.017367719,,2.123344461,2.332476718,,1.453233753,0.039482441,0.057405323,0.240544186,0.000208667,6.57e-05,0.018892617,
1067,315.5366917,0.489396959,,17.2372833,34.64987427,32.33595539,7.086728188,0.042084113,4.626983837,5.056749411,11.4727424,,9.619886191,0.038876609,0.149944149,0.156119017,0.000718969,0.000129687,0.026573908,0.004015509
1068,225.8922101,0.281206472,,12.92648325,,31.6011289,,0.031036944,7.134366694,4.436195422,12.39199061,,6.469111158,0.036482597,0.119531584,0.084771727,0.000694781,8.25e-05,0.017169618,0.005199819
1069,219.6340032,0.171614581,,12.83770803,,24.26844147,,0.015921073,4.869535735,3.303509986,9.356184459,,8.149965133,0.022103609,0.107601987,,0.000401584,7.18e-05,0.008680774,0.005582572
1070,57.09049915,0.125660529,,3.019924884,31.67949601,6.928498099,7.11214235,0.009710405,1.370337405,1.080776961,2.521556231,,1.399129081,0.01230845,0.065100605,0.069811146,0.000171889,3.76e-05,0.00814907,0.001234798
1071,140.2750197,0.200863077,,7.576123922,23.00786283,18.04599265,4.927510178,0.018354985,2.239371366,2.505267578,5.150255616,,3.896617062,0.012847523,,0.104438239,0.000229813,5.48e-05,0.011202746,0.002042068
1072,221.9592738,0.25563163,,12.04699071,51.18877858,23.0682333,9.667753006,0.023448147,4.31958198,4.150229647,9.533740817,,6.113480538,0.027395018,0.126110956,0.105354799,0.000498894,8.86e-05,0.017226935,0.003390871
1073,84.02312461,0.232722585,,4.390837783,49.72308536,11.39656571,9.924922772,0.018323674,0.8350375,1.484173122,2.447396213,,1.590935778,0.020437753,0.074104223,0.075818847,0.000440671,5.91e-05,0.011996535,0.000901334
1074,120.2035737,0.192149919,,6.445971698,,13.95877369,,0.013487706,3.004698707,2.390865551,5.847277212,,3.860516572,0.01235948,,0.040268186,0.000275895,5.71e-05,0.004679921,0.001517322
1075,230.1546409,0.410039682,,12.71286001,,20.93866351,,0.024868565,5.234317482,3.960031787,9.643594515,,7.052046971,0.016520796,,0.109278204,0.000396822,0.000100978,0.02196382,0.003598136
1076,79.93789555,0.130278602,,3.952361968,29.72589387,13.89742807,7.562066517,0.011691911,,0.935170183,,,1.772151062,0.033590836,0.145355477,,0.000363092,6.27e-05,0.00922707,0.001263415
1077,123.5333768,0.198246851,,6.699498828,27.79474728,12.08786097,4.768969956,0.015030552,2.618755402,2.362299079,5.371262537,,3.480902144,,,0.095475328,0.000243142,5.64e-05,0.009337726,0.001377679
1078,201.2615324,0.269322903,,10.92207048,229.4974769,20.5342274,40.44321686,0.024164347,5.870964357,3.953747597,10.55187209,,5.543759625,0.048677868,0.262658294,,0.00094157,8.1e-05,0.012481893,0.003251727
1079,63.87663164,0.161528671,,3.251677438,,9.932386048,,0.011720034,1.211343459,1.281043924,2.724837788,,1.549479648,0.010897275,0.038607326,0.079818634,0.000198079,4.22e-05,0.006975658,0.000546129
1080,237.3894244,0.289141142,,13.05648681,55.23862906,24.64757514,12.42338241,0.025560291,6.659669784,4.484512998,12.01181856,,7.204175761,0.03693657,0.178512139,,0.000873419,9.61e-05,,0.004290921
1081,226.2706578,0.282367684,,12.32822049,,24.32104819,,0.021697854,5.932955179,4.365454997,11.1558417,,7.106553666,0.039474711,0.190750866,,0.000771066,7.94e-05,0.011315819,0.003350873
1082,49.8743265,0.100381209,,2.548120505,13.22644336,7.957166485,3.181567271,0.007416566,0.447024185,0.618578038,1.209730068,,1.438819635,0.012716714,0.056494561,,0.000173774,2.86e-05,0.005037477,0.000692606
1083,33.29352576,0.072655042,,1.498094587,36.46236623,,7.422009136,0.007478854,,0.575505239,0.3616266,,0.358089181,0.015524156,0.054585217,0.072312585,0.000101904,2.98e-05,0.007167965,
1084,85.56199979,0.182495932,,4.345667871,30.42037935,,7.897937086,0.017046545,,1.446439713,1.759536669,,1.901962359,0.01863038,,,0.000209693,6.2e-05,0.010725744,
1085,79.67998654,0.242587979,,3.958986618,47.57725323,,10.29676869,0.018408221,,0.748973771,1.147961366,,2.450701909,0.020379534,0.152331402,0.086692714,0.000322573,6.23e-05,0.012028593,
1086,380.6728648,0.661761795,,20.2216764,78.12394025,42.49519679,15.73242552,0.041003858,9.173748495,7.502330238,17.74278276,,8.200889258,0.025479133,0.199366894,0.178753883,0.001031487,0.000145906,0.03122192,0.003419859
1087,55.99233186,0.147253823,,2.776291548,34.12140914,,8.173594005,0.015079898,,0.823247635,1.052781605,,1.254801037,0.023069383,0.041701373,0.18604614,0.000131667,4.69e-05,0.014438874,
1088,499.8104864,0.949036969,,26.75401398,24.73358806,51.33748277,5.277936288,0.065738944,9.457667717,9.310997091,21.013534,,12.78563502,0.031946701,,0.342160912,0.00074143,0.000197305,0.043614269,0.003977658
1089,337.569546,0.296829788,,16.91433802,,32.14685211,,,4.237077183,5.295795416,11.42577146,,7.509757446,0.093540196,0.387581819,,0.001416923,8.87e-05,,
1090,186.5463089,0.221466308,,9.773638708,26.65153911,,5.894249594,0.018680627,2.376967666,2.377413207,5.187285703,,5.248962905,0.044707379,0.142059347,,0.000749114,8.8e-05,,0.001766898
1091,124.5379848,0.262482079,,6.242728925,40.44531915,,9.107430411,0.018308934,2.19146897,2.4288145,5.152070502,,2.574146352,0.023050202,0.050003057,0.102212992,0.000380903,6.98e-05,0.014027677,0.001322996
1092,64.82199495,0.185758413,,3.201138339,30.23613871,,7.090311913,0.010822379,0.963119803,1.190312331,2.262890297,,1.334053684,0.010307015,0.037843498,0.108369697,0.000286821,5.19e-05,0.007374967,0.001388321
1093,376.1901631,0.353820682,,19.3819071,49.09204919,40.47108039,9.089975532,0.029635377,6.630156002,6.87047674,15.47481146,,9.220449571,0.077891101,0.465515545,0.195710336,0.001233209,0.000124288,0.015024419,0.004801178
1094,511.8370223,0.69054558,,27.67835193,,55.08091594,,0.057688024,9.471248338,9.525727134,22.18337459,,15.33457109,0.080872036,0.319617413,,0.001308496,0.000186532,0.057062691,0.005310991
1095,476.21823,0.363060753,,25.4242677,31.14769511,46.32559528,7.172149034,0.036138007,7.401896913,8.629744943,19.36726,,15.72748491,0.055038453,0.316211831,0.468219776,0.001088501,0.000154649,0.045995723,0.005667164
1096,351.4095535,0.366127499,,19.13745449,62.23533839,52.55288357,12.59852174,0.041731942,7.484301533,6.625583207,16.21415193,,10.44245246,0.065934234,0.385003804,0.248669776,0.001082576,0.00014548,0.023839992,0.005678322
1097,59.48211726,0.123927014,,2.72867383,,10.47208302,,0.00913264,0.619014566,1.228834252,2.164654449,,1.015960856,0.009016964,0.024845563,0.11546638,7.14e-05,3.83e-05,0.007737216,
1098,56.40590905,0.113432183,,2.577664852,,7.602256227,,0.008364247,,1.032960746,1.779697505,,0.989078443,0.005789741,,0.095789818,7.33e-05,3.47e-05,0.005438958,
1099,74.05066039,0.179119089,,3.943318252,,12.13057539,,0.009277087,1.862407218,1.399435884,3.392782084,,2.542354114,0.013860563,0.069418485,,0.000280473,4.59e-05,0.004292981,0.001359613
1100,401.7610382,0.617810114,,22.13742288,58.1217129,41.96834637,13.14041207,0.031239338,10.8463105,9.259584607,21.57244504,,10.59940927,,,,0.000895801,0.000147639,,0.006694414
1101,90.97830529,0.195013131,,4.780031498,,10.61343265,,0.008174555,2.951369435,1.783520895,4.587666587,,3.768848835,0.021861013,,,0.000326226,4.31e-05,,0.001683872
1102,496.751799,0.445673385,,27.6263167,37.79335795,,9.754916436,0.025964972,12.77689049,8.589768658,20.01665469,,18.84054263,0.056514355,,,,0.00025381,0.036762604,0.014970183
1103,320.1488251,0.369748374,,18.46117296,36.7339176,,7.322811527,0.025624114,9.332358159,7.681329061,18.48339288,,8.461457927,0.023266097,0.113245659,,0.000537362,0.000100706,0.033833352,0.007269243
1104,78.70316389,0.179270448,,4.420255699,,,,0.005996969,2.146947697,1.343576271,2.486345706,,2.565308993,0.019080865,0.094032602,,0.000362873,6.04e-05,0.006005144,0.003358277
1105,335.6175285,0.345671555,,18.97542159,30.25699088,,6.269383904,0.03064865,9.55719629,7.344119724,17.85406387,,8.968564335,,,,0.000399333,9.42e-05,0.034392082,0.00656993
1106,79.82577181,0.248172331,,4.255312826,54.36547871,,10.80878908,0.018084207,1.575936732,1.446372243,2.925389947,,2.002348113,0.019855077,0.117264236,0.101389735,0.000326538,6.88e-05,0.01299818,0.00155322
1107,186.2002405,0.276682282,,10.41271728,,,,0.018329278,4.214612735,3.416089191,6.981213715,,5.605205111,0.030844301,,0.116832523,0.000381404,0.000109338,0.018378603,0.004751841
1108,430.39811,0.285772461,,23.4455058,33.02984169,,7.220842488,0.046723192,11.88782697,8.565589239,19.13167782,,10.64592737,0.112451402,0.88152508,,0.001131324,0.000182705,0.056995232,0.010908561
1109,141.4801655,0.19372708,,7.857420807,,,,0.009363053,3.514086104,2.869606629,6.541297893,,4.236258401,0.019909423,0.09847656,,0.000413958,6.74e-05,0.005627956,0.004032643
1110,348.8833539,0.225929556,,19.27143986,27.74467013,,5.307138383,0.018616189,9.202506392,7.431969822,17.41381282,,9.874476236,0.062378226,0.51285529,,0.000795877,0.000112129,0.025376663,0.008517133
1111,389.212465,0.424370956,,22.01159716,39.48256262,,10.58407772,0.04289729,8.031010882,6.508304791,15.23262554,,12.0498945,0.062556251,,0.222262854,,0.000167177,0.054949832,0.007822426
1112,305.159258,0.289996451,,17.41675275,,,,0.019992983,9.671840478,6.739316847,16.66401539,,8.978163051,0.023488377,0.133963853,,0.000574429,8.89e-05,0.025877172,0.007695203
1113,58.52437168,0.127797356,,3.015138057,,,,0.011931438,1.148453875,0.849674402,1.90582489,,1.270960853,0.020909374,0.116259341,0.0762681,0.000245614,4.58e-05,0.008849011,0.000957943
1114,320.5241106,0.212401193,,17.92471131,43.57424564,,8.050856446,0.019046065,9.292786763,6.6431124,16.12023197,,9.348757443,0.043405315,0.302707054,,0.000682042,0.000105861,0.02399718,0.007841548
