,LMA (g/m²),N content (mg/cm²),LAI (m²/m²),C content (mg/cm²),Chl content (μg/cm²),EWT (mg/cm²),Carotenoid content (μg/cm²),Phosphorus content (mg/cm²),Lignin (mg/cm²),Cellulose (mg/cm²),Fiber (mg/cm²),Anthocyanin content (μg/cm²),NSC (mg/cm²),Magnesium content (mg/cm²),Ca content (mg/cm²),Potassium content (mg/cm²),Boron content (mg/cm²),Copper content (mg/cm²),Sulfur content (mg/cm²),Manganese content (mg/cm²)
0,27.89021383,0.060400645,,,24.07812286,6.617554218,,,,,,,,0.005759905,0.012191345,,,,,
1,30.30577688,0.091056561,,,29.73668941,17.49557847,,,,,,,,0.003711371,0.069664046,,,,,
2,29.94560845,0.08714314,,,29.78528674,10.35193238,,,,,,,,0.009243956,0.055860635,,,,,
3,18.20789898,0.04669939,,,18.70853914,5.814839638,,,,,,,,0.013819759,0.019997434,,,,,
4,21.66009365,0.049481011,,,23.92323637,10.43868029,,,,,,,,0.005272961,0.02597282,,,,,
5,30.43545792,0.076679497,,,17.83742086,7.044038651,,,,,,,,0.00480534,0.015446147,,,,,
6,48.03200809,0.154691102,,,32.12775315,16.78391274,,,,,,,,0.012150671,0.088800245,,,,,
7,144.8929276,0.304616081,,,59.72068112,44.19384032,,,,,,,,0.025496297,0.076870414,,,,,
8,38.00152051,0.070097175,,,23.04243089,13.97507764,,,,,,,,0.014046255,0.033010604,,,,,
9,59.58324346,0.104971315,,,27.17428201,13.54191028,,,,,,,,0.012498886,0.033281497,,,,,
10,59.76072059,0.07045238,,,14.5461188,11.99982491,,,,,,,,0.007302417,0.05858692,,,,,
11,37.77907835,0.112023124,,,50.00344856,25.2862369,,,,,,,,0.007022828,0.039087746,,,,,
12,51.44674447,0.128251214,,,38.65698995,17.89296993,,,,,,,,0.013034172,0.071279001,,,,,
13,61.7746097,0.195667104,,,38.06426302,11.31841876,,,,,,,,0.021714696,0.337705703,,,,,
14,45.82705584,,2.905599209,,28.7475392,14.46469672,8.451562485,,,,,1.138707777,,,,,,,,
15,42.71898137,,3.242724716,,37.09796539,12.84075065,9.023417861,,,,,1.673124118,,,,,,,,
16,34.28463548,,4.572313012,,46.77649605,13.93159614,10.84199867,,,,,1.841728981,,,,,,,,
17,52.45072179,,2.751174825,,40.78693099,19.61415126,11.80765352,,,,,1.342719993,,,,,,,,
18,27.06881257,,4.0238,,26.15906687,15.98442631,8.174988201,,,,,0.853262123,,,,,,,,
19,46.32153986,,3.897086998,,27.99340277,13.16199842,8.280820441,,,,,1.126706506,,,,,,,,
20,34.70766032,,4.061438902,,28.36430429,12.07778977,8.873376745,,,,,1.047345872,,,,,,,,
21,39.67816661,,3.269170666,,42.95293939,15.06363075,10.86157784,,,,,1.860984239,,,,,,,,
22,49.50891511,,4.784800375,,33.24150721,18.30292331,10.12557124,,,,,1.871220177,,,,,,,,
23,25.65470628,,3.5008,,19.41490343,14.77860126,7.030633345,,,,,0.801445769,,,,,,,,
24,35.02125306,,4.62901973,,35.93890206,12.98343671,9.395465671,,,,,1.595767507,,,,,,,,
25,26.75261121,,0.397018824,,16.24303472,8.671466202,5.912575856,,,,,0.895493398,,,,,,,,
26,40.0679483,,4.939855107,,24.65114486,11.90887134,7.810092626,,,,,1.085236858,,,,,,,,
27,55.0887773,,3.468125874,,37.04144032,18.82652263,11.21416848,,,,,1.314485253,,,,,,,,
28,22.24124143,,3.0728,,8.614266842,15.72189549,5.30713615,,,,,0.715979279,,,,,,,,
29,32.94727274,,4.29688482,,43.54610378,13.37512527,10.53261873,,,,,1.775902053,,,,,,,,
30,78.05646466,,3.926502808,,27.38167406,12.56692802,7.639817762,,,,,0.880992408,,,,,,,,
31,46.33323631,,4.72705284,,27.42048111,12.15305709,8.136858478,,,,,1.109773969,,,,,,,,
32,43.83905056,,5.491163184,,28.16969338,10.09927391,8.708892795,,,,,1.420078061,,,,,,,,
33,38.73138554,,3.823756813,,27.56587274,11.78231214,8.936649872,,,,,1.061191976,,,,,,,,
34,62.7154002,,4.526743499,,34.85383433,29.13366559,10.42175999,,,,,0.921897082,,,,,,,,
35,65.15205343,,1.714621073,,61.15384399,15.91803825,11.59521919,,,,,1.622272946,,,,,,,,
36,41.47962145,,5.508008321,,24.16013071,11.72024571,7.788092561,,,,,1.022500957,,,,,,,,
37,40.16030735,,3.717360121,,27.2167272,11.68133267,8.945157392,,,,,1.067073918,,,,,,,,
38,63.2567137,,4.627187185,,34.48665345,29.01190447,10.35022405,,,,,0.899501747,,,,,,,,
39,60.37671424,,4.609416667,,33.95708621,20.47347238,10.50801832,,,,,1.169535276,,,,,,,,
40,45.86214517,,5.395496734,,27.02877423,11.43787271,8.019676594,,,,,1.087910167,,,,,,,,
41,41.20060199,,3.619259663,,26.90096182,11.61152611,8.938245548,,,,,1.072261787,,,,,,,,
42,29.36406599,,2.530965035,,31.18019107,20.22273127,9.178110102,,,,,1.025864465,,,,,,,,
43,43.33440742,,6.553069143,,23.79409944,8.705572427,8.380874624,,,,,1.219366422,,,,,,,,
44,41.85226945,,3.52945544,,26.61857661,11.57289244,8.915914342,,,,,1.076755583,,,,,,,,
45,63.25732332,,4.786272706,,34.15832998,28.86323411,10.27035766,,,,,0.886285221,,,,,,,,
46,48.41251908,,6.532131288,,26.89323205,11.37366557,9.02160919,,,,,1.265909915,,,,,,,,
47,70.06000321,,2.30698446,,57.54689456,14.97077394,11.29377666,,,,,1.626039298,,,,,,,,
48,32.1051457,,6.208359191,,33.00085676,6.795635878,9.358201154,,,,,1.677655851,,,,,,,,
49,42.55380475,,0.622723689,,24.48262588,7.444387175,7.596770144,,,,,1.012375351,,,,,,,,
50,31.60429949,,3.239404196,,30.6734715,18.64833013,9.307175197,,,,,1.178081749,,,,,,,,
51,42.11530971,,3.447947452,,26.36957155,11.56543168,8.878163772,,,,,1.080555306,,,,,,,,
52,36.79551532,,6.189553148,,31.81573445,7.710378478,8.574952002,,,,,1.220984291,,,,,,,,
53,46.74406986,,4.162609341,,23.24947736,10.87242388,7.714437561,,,,,1.121526233,,,,,,,,
54,48.63898402,,6.614648076,,26.7517692,11.42423283,9.02320769,,,,,1.266261348,,,,,,,,
55,36.13490936,,4.898445023,,27.03076062,10.19142679,8.738374587,,,,,1.272339786,,,,,,,,
56,40.44527756,,0.615934616,,25.46554281,7.173244868,7.932954158,,,,,1.056911928,,,,,,,,
57,63.5048282,,5.718070938,,64.31713517,13.01730299,12.12079527,,,,,1.903745915,,,,,,,,
58,59.4035174,,3.701328671,,23.60467569,18.30666682,8.48502842,,,,,0.882696191,,,,,,,,
59,38.94214645,,2.686,,34.34598648,10.54237864,10.01381198,,,,,1.297708581,,,,,,,,
60,31.08124465,,6.719359926,,31.01418865,6.683274643,8.80810802,,,,,1.516218871,,,,,,,,
61,64.50942517,,6.109808654,,64.81244213,12.96249443,12.19697423,,,,,1.984728953,,,,,,,,
62,59.6419553,,3.139846154,,18.39232327,18.74772491,7.25908675,,,,,0.623071557,,,,,,,,
63,48.2857276,,6.686440379,,26.64657375,11.93108061,9.003897589,,,,,1.261838739,,,,,,,,
64,21.45561176,,2.301997983,,24.7346252,11.75524228,7.265628196,,,,,0.945281892,,,,,,,,
65,37.40374734,,4.048871795,,29.34823657,15.36947284,9.491755644,,,,,1.624571431,,,,,,,,
66,38.13495646,,5.935236946,,19.75722662,12.12909742,6.853029722,,,,,0.820220206,,,,,,,,
67,33.10376342,,6.727940918,,32.88977552,8.093300998,8.278516067,,,,,1.18038014,,,,,,,,
68,38.06323777,,3.745166434,,29.19233868,15.30444533,9.454980773,,,,,1.695598988,,,,,,,,
69,75.98431087,,5.071234845,,27.00098311,10.09219817,7.081722115,,,,,0.827739529,,,,,,,,
70,40.41137402,,6.46306503,,27.0848665,11.24806342,7.820433128,,,,,0.972553143,,,,,,,,
71,47.18968067,,6.587836863,,26.84243769,12.56493412,8.970936189,,,,,1.254326242,,,,,,,,
72,74.99689295,,2.86022746,,49.59561398,14.17151561,10.91742288,,,,,1.601553591,,,,,,,,
73,38.85050063,,4.866610747,,26.33218313,10.83983788,8.517573626,,,,,1.299443523,,,,,,,,
74,80.09889939,,5.238985875,,26.58367916,12.13317683,6.813785357,,,,,0.842993412,,,,,,,,
75,32.75604239,,5.374855107,,16.59200364,12.81338693,6.043687261,,,,,0.741764123,,,,,,,,
76,35.96542264,,3.111336621,,43.3079338,13.85327692,11.33802726,,,,,2.434082898,,,,,,,,
77,82.78006641,,5.31104768,,26.32965819,13.50697325,6.660192137,,,,,0.854314152,,,,,,,,
78,34.90490369,,6.527469298,,22.60188371,7.931127775,6.923037628,,,,,0.561035015,,,,,,,,
79,30.22905311,,3.094547993,,25.57921691,12.62797001,8.021062151,,,,,1.08596645,,,,,,,,
80,75.02583295,,2.821107073,,45.25128283,14.3195216,10.84251162,,,,,1.573301532,,,,,,,,
81,38.42311297,,4.805026471,,27.45421451,11.3027462,8.664641738,,,,,1.376732982,,,,,,,,
82,73.30158849,,6.167401664,,69.25461301,16.03876082,12.34891823,,,,,2.533136672,,,,,,,,
83,74.67407144,,2.761290368,,43.74855157,14.44998806,10.8343213,,,,,1.561512445,,,,,,,,
84,37.47259562,,4.664965613,,42.02979712,30.3061838,11.3374899,,,,,1.566111457,,,,,,,,
85,31.3739958,,4.800520471,,39.66039807,10.69619091,10.99818626,,,,,1.168180386,,,,,,,,
86,39.77093507,,5.588994071,,28.70680189,15.88707855,8.775629591,,,,,1.209881117,,,,,,,,
87,,,0.286576923,,,,,,,,,,,,,,,,,
88,31.5147236,,2.604247727,,36.98169092,13.28759055,10.43416766,,,,,1.28420305,,,,,,,,
89,,,2.8948,,41.27839136,,9.826635279,,,,,1.637559927,,,,,,,,
90,11.91043,,1.344175,,46.60646101,20.247737,13.0156758,,,,,1.685434998,,,,,,,,
91,38.155071,,4.450675319,,44.58111895,12.35105281,10.96164689,,,,,1.556409173,,,,,,,,
92,68.49983237,,0.723163636,,49.01320784,11.15979585,11.83776319,,,,,1.23205045,,,,,,,,
93,29.01881875,,2.492344343,,21.35634197,11.79546408,6.975242335,,,,,0.756354033,,,,,,,,
94,33.06514,,1.301475,,38.02995618,20.941254,10.77098051,,,,,1.264542198,,,,,,,,
95,33.55643887,,1.426506818,,22.77155578,21.31068749,7.059862129,,,,,0.756017915,,,,,,,,
96,49.70638977,,2.004984091,,33.02274426,12.52211634,9.613964414,,,,,1.058478641,,,,,,,,
97,38.91608657,,6.14901049,,37.86043312,21.39021623,10.27373933,,,,,1.717764515,,,,,,,,
98,31.47019883,,4.941210577,,39.31198885,15.07477735,10.4030922,,,,,1.826189593,,,,,,,,
99,27.79630287,,2.578904545,,45.45210168,16.55611097,12.17180888,,,,,1.763814948,,,,,,,,
100,40.50859254,,0.914730769,,31.31898593,10.24630689,10.24294311,,,,,1.543884053,,,,,,,,
101,32.86231,,1.210825,,40.33325502,27.040749,10.27591606,,,,,1.425304154,,,,,,,,
102,28.2285332,,2.161807692,,45.57775171,18.39627171,11.4249055,,,,,1.89186655,,,,,,,,
103,,,6.071578089,,33.02100086,,9.504828443,,,,,1.574863391,,,,,,,,
104,,,5.937949883,,36.61610125,,9.828887434,,,,,1.308004427,,,,,,,,
105,,,4.895805769,,35.25308225,,10.24535738,,,,,1.464726458,,,,,,,,
106,,,2.93542815,,39.6891245,,11.15643338,,,,,1.494034073,,,,,,,,
107,,,3.517971816,,37.94932422,,9.977752089,,,,,1.559954568,,,,,,,,
108,,,3.665825175,,43.15285615,,11.02792486,,,,,1.674941888,,,,,,,,
109,,,4.152610683,,40.50121393,,11.15042866,,,,,1.303847544,,,,,,,,
110,47.55115553,,3.010024476,,33.68719895,18.79333701,8.554244672,,,,,0.855518024,,,,,,,,
111,36.21353846,,3.084542823,,37.00182618,15.22188264,10.70063783,,,,,1.385543835,,,,,,,,
112,29.82016025,,3.553921101,,35.7943719,10.84005875,9.643425167,,,,,1.473863501,,,,,,,,
113,38.07177708,,1.3045,,35.41823794,10.69204162,10.73661816,,,,,1.46688616,,,,,,,,
114,60.017268,,1.4056,,10.84722467,33.1064098,4.869799712,,,,,0.639686387,,,,,,,,
115,33.09410292,,4.703351064,,21.00459324,15.5003938,6.687446855,,,,,0.708719412,,,,,,,,
116,42.27989618,,2.517573325,,26.23768093,22.24913025,8.108654418,,,,,0.89931408,,,,,,,,
117,72.47679015,,2.983832416,,30.57652304,19.7003974,8.739847035,,,,,0.901989034,,,,,,,,
118,38.01732623,,4.96601049,,25.69097445,16.64783837,8.183540267,,,,,1.346265766,,,,,,,,
119,38.84020312,,5.304398086,,32.56445507,9.055471874,8.685710205,,,,,1.431807828,,,,,,,,
120,38.3865412,,3.214226077,,,14.9,,,,,,,,,,,,,,
121,42.27442733,,4.488566434,,,31.83185923,,,,,,,,,,,,,,
122,,,4.985017663,,47.7612761,,11.12897788,,,,,1.701401131,,,,,,,,
123,,,1.451407115,,54.82156714,,12.34811135,,,,,1.319161035,,,,,,,,
124,,,4.107275997,,48.94064337,,11.28362402,,,,,1.35602668,,,,,,,,
125,,,3.555300231,,31.63512242,,9.006832944,,,,,1.320624373,,,,,,,,
126,43.53486047,,2.156086687,,19.45821945,21.7409015,6.663337928,,,,,0.766078905,,,,,,,,
127,22.12409179,,1.991997669,,31.2983339,11.7136655,10.1929881,,,,,1.30364549,,,,,,,,
128,58.73642692,,5.227374936,,33.47166898,23.71667148,11.17961133,,,,,1.085370795,,,,,,,,
129,43.17503367,,2.114844298,,19.10693156,21.52795562,6.653981932,,,,,0.774526334,,,,,,,,
130,116.2790993,,1.905471937,,55.83992325,25.76773153,12.41224214,,,,,1.367615363,,,,,,,,
131,13.39990111,,1.89748951,,34.33838139,14.32203398,10.74608414,,,,,1.688590207,,,,,,,,
132,,,0.883045336,,,,,,,,,,,,,,,,,
133,61.05742771,,4.186303987,,19.14570934,10.04352427,7.240987547,,,,,0.931003605,,,,,,,,
134,62.41660132,,4.05618756,,18.85684166,10.38174987,7.194102542,,,,,0.920485867,,,,,,,,
135,46.86552422,,1.580136223,,17.67965599,19.07062551,6.885229286,,,,,0.824417013,,,,,,,,
136,80.64255348,,3.16933433,,25.26279242,23.93796465,8.576993185,,,,,0.938929466,,,,,,,,
137,75.68768827,,3.104504067,,40.646151,40.10587537,10.41044752,,,,,1.365481487,,,,,,,,
138,39.78561843,,3.254774402,,13.84782392,15.82895407,7.92342173,,,,,1.576782844,,,,,,,,
139,,,2.835182609,,49.78361543,,11.74894008,,,,,1.448500871,,,,,,,,
140,,,2.799057536,,24.67247338,,8.90852771,,,,,1.018937555,,,,,,,,
141,,,,,14.10337981,,6.427552765,,,,,0.739424938,,,,,,,,
142,,,2.989492584,,12.22757236,,8.015079606,,,,,1.870206225,,,,,,,,
143,,,1.272382866,,9.496293808,,5.910986219,,,,,0.940217747,,,,,,,,
144,,,,,46.86813336,,11.4496839,,,,,1.46118476,,,,,,,,
145,,,,,21.92569582,,7.06673735,,,,,0.782162037,,,,,,,,
146,,,,,,,,,,,,,,,,,,,,
147,,,,,,,,,,,,,,,,,,,,
148,,,,,,,,,,,,,,,,,,,,
149,38.373752,0.080823618,,,26.40689094,23.317314,4.656664003,0.009770172,,,,,,,,,,,,
150,,,,,,,,,,,,,,,,,,,,
151,,,,,,,,,,,,,,,,,,,,
152,,,,,,,,,,,,,,,,,,,,
153,,,,,,,,,,,,,,,,,,,,
154,,,,,,,,,,,,,,,,,,,,
155,,,,,,,,,,,,,,,,,,,,
156,,,,,,,,,,,,,,,,,,,,
157,,,,,,,,,,,,,,,,,,,,
158,36.914271,0.133302752,,,39.49312606,18.560679,7.512185328,0.011870873,,,,,,,,,,,,
159,48.032008,0.154691102,,,32.12775315,21.587114,6.310817876,0.013645274,,,,,,,,,,,,
160,,,,,,,,,,,,,,,,,,,,
161,61.613605,0.106175238,,,23.15972671,17.786732,5.157500741,0.018735089,,,,,,,,,,,,
162,,,,,,,,,,,,,,,,,,,,
163,61.613605,0.106175238,,,23.15972671,17.786732,5.157500741,0.018735089,,,,,,,,,,,,
164,67.880172,0.066529499,,,10.97772846,18.131162,3.20410926,0.010473001,,,,,,,,,,,,
165,,,,,,,,,,,,,,,,,,,,
166,59.760721,0.07045238,,,14.5461188,17.975897,3.118470465,0.011747972,,,,,,,,,,,,
167,,,,,,,,,,,,,,,,,,,,
168,67.880172,0.066529499,,,10.97772846,18.131162,3.20410926,0.010473001,,,,,,,,,,,,
169,,,,,,,,,,,,,,,,,,,,
170,,,,,,,,,,,,,,,,,,,,
171,,,,,,,,,,,,,,,,,,,,
172,,,,,,,,,,,,,,,,,,,,
173,51.891496,0.146627133,,,30.09513686,15.888515,5.788805405,0.016718677,,,,,,,,,,,,
174,,,,,,,,,,,,,,,,,,,,
175,71.584535,0.114687831,,,23.21848045,17.623673,4.125131344,0.015553823,,,,,,,,,,,,
176,,,,,,,,,,,,,,,,,,,,
177,,,,,,,,,,,,,,,,,,,,
178,,,,,,,,,,,,,,,,,,,,
179,,,,,,,,,,,,,,,,,,,,
180,,,,,,,,,,,,,,,,,,,,
181,,,,,,,,,,,,,,,,,,,,
182,,,,,,,,,,,,,,,,,,,,
183,36.914271,0.133302752,,,39.49312606,18.560679,7.512185328,0.011870873,,,,,,,,,,,,
184,,,,,,,,,,,,,,,,,,,,
185,36.914271,0.133302752,,,39.49312606,18.560679,7.512185328,0.011870873,,,,,,,,,,,,
186,,,,,,,,,,,,,,,,,,,,
187,,,,,,,,,,,,,,,,,,,,
188,,,,,,,,,,,,,,,,,,,,
189,,,,,,,,,,,,,,,,,,,,
190,,,,,,,,,,,,,,,,,,,,
191,,,,,,,,,,,,,,,,,,,,
192,,,,,,,,,,,,,,,,,,,,
193,,,,,,,,,,,,,,,,,,,,
194,,,,,,,,,,,,,,,,,,,,
195,,,,,,,,,,,,,,,,,,,,
196,59.760721,0.07045238,,,14.5461188,17.975897,3.118470465,0.011747972,,,,,,,,,,,,
197,,,,,,,,,,,,,,,,,,,,
198,,,,,,,,,,,,,,,,,,,,
199,56.383585,0.096201131,,,25.55150263,17.319128,5.677561008,0.017723278,,,,,,,,,,,,
200,67.880172,0.066529499,,,10.97772846,18.131162,3.20410926,0.010473001,,,,,,,,,,,,
201,,,,,,,,,,,,,,,,,,,,
202,59.760721,0.07045238,,,14.5461188,17.975897,3.118470465,0.011747972,,,,,,,,,,,,
203,69.469065,0.113035783,,,21.35919553,21.768575,4.646784592,0.011125769,,,,,,,,,,,,
204,,,,,,,,,,,,,,,,,,,,
205,59.760721,0.07045238,,,14.5461188,17.975897,3.118470465,0.011747972,,,,,,,,,,,,
206,,,,,,,,,,,,,,,,,,,,
207,,,,,,,,,,,,,,,,,,,,
208,51.891496,0.146627133,,,30.09513686,15.888515,5.788805405,0.016718677,,,,,,,,,,,,
209,51.891496,0.146627133,,,30.09513686,15.888515,5.788805405,0.016718677,,,,,,,,,,,,
210,51.891496,0.146627133,,,30.09513686,15.888515,5.788805405,0.016718677,,,,,,,,,,,,
211,,,,,,,,,,,,,,,,,,,,
212,51.891496,0.146627133,,,30.09513686,15.888515,5.788805405,0.016718677,,,,,,,,,,,,
213,,,,,,,,,,,,,,,,,,,,
214,,,,,,,,,,,,,,,,,,,,
215,,,,,,,,,,,,,,,,,,,,
216,,,,,,,,,,,,,,,,,,,,
217,,,,,,,,,,,,,,,,,,,,
218,,,,,,,,,,,,,,,,,,,,
219,,,,,,,,,,,,,,,,,,,,
220,,,,,,,,,,,,,,,,,,,,
221,,,,,,,,,,,,,,,,,,,,
222,,,,,,,,,,,,,,,,,,,,
223,,,,,,,,,,,,,,,,,,,,
224,,,,,,,,,,,,,,,,,,,,
225,,,,,,,,,,,,,,,,,,,,
226,,,,,,,,,,,,,,,,,,,,
227,,,,,,,,,,,,,,,,,,,,
228,36.914271,0.133302752,,,39.49312606,18.560679,7.512185328,0.011870873,,,,,,,,,,,,
229,,,,,,,,,,,,,,,,,,,,
230,,,,,,,,,,,,,,,,,,,,
231,,,,,,,,,,,,,,,,,,,,
232,61.613605,0.106175238,,,23.15972671,17.786732,5.157500741,0.018735089,,,,,,,,,,,,
233,66.924237,0.096307283,,,17.68320468,18.448757,4.410524466,0.010692084,,,,,,,,,,,,
234,59.760721,0.07045238,,,14.5461188,17.975897,3.118470465,0.011747972,,,,,,,,,,,,
235,,,,,,,,,,,,,,,,,,,,
236,50.275679,0.110111128,,,25.13063808,16.338736,4.883929481,0.015523536,,,,,,,,,,,,
237,59.760721,0.07045238,,,14.5461188,17.975897,3.118470465,0.011747972,,,,,,,,,,,,
238,,,,,,,,,,,,,,,,,,,,
239,67.880172,0.066529499,,,10.97772846,18.131162,3.20410926,0.010473001,,,,,,,,,,,,
240,,,,,,,,,,,,,,,,,,,,
241,67.880172,0.066529499,,,10.97772846,18.131162,3.20410926,0.010473001,,,,,,,,,,,,
242,59.760721,0.07045238,,,14.5461188,17.975897,3.118470465,0.011747972,,,,,,,,,,,,
243,,,,,,,,,,,,,,,,,,,,
244,,,,,,,,,,,,,,,,,,,,
245,,,,,,,,,,,,,,,,,,,,
246,,,,,,,,,,,,,,,,,,,,
247,51.891496,0.146627133,,,30.09513686,15.888515,5.788805405,0.016718677,,,,,,,,,,,,
248,51.891496,0.146627133,,,30.09513686,15.888515,5.788805405,0.016718677,,,,,,,,,,,,
249,58.703349,0.118195741,,,35.90387324,18.050379,6.150298042,0.017517379,,,,,,,,,,,,
250,61.77461,0.195667105,,,38.06426302,17.49588,6.527779509,0.017217307,,,,,,,,,,,,
251,,,,,,,,,,,,,,,,,,,,
252,,,,,,,,,,,,,,,,,,,,
253,,,,,,,,,,,,,,,,,,,,
254,51.891496,0.146627133,,,30.09513686,15.888515,5.788805405,0.016718677,,,,,,,,,,,,
255,,,,,,,,,,,,,,,,,,,,
256,,,,,,,,,,,,,,,,,,,,
257,,,,,,,,,,,,,,,,,,,,
258,,,,,,,,,,,,,,,,,,,,
259,,,,,,,,,,,,,,,,,,,,
260,,,,,,,,,,,,,,,,,,,,
261,,,,,,,,,,,,,,,,,,,,
262,,,,,,,,,,,,,,,,,,,,
263,,,,,,,,,,,,,,,,,,,,
264,,,,,,,,,,,,,,,,,,,,
265,,,,,,,,,,,,,,,,,,,,
266,,,,,,,,,,,,,,,,,,,,
267,,,,,,,,,,,,,,,,,,,,
268,,,,,,,,,,,,,,,,,,,,
269,,,,,,,,,,,,,,,,,,,,
270,,,,,,,,,,,,,,,,,,,,
271,,,,,,,,,,,,,,,,,,,,
272,,,,,,,,,,,,,,,,,,,,
273,,,,,,,,,,,,,,,,,,,,
274,,,,,,,,,,,,,,,,,,,,
275,,,,,,,,,,,,,,,,,,,,
276,,,,,,,,,,,,,,,,,,,,
277,,,,,,,,,,,,,,,,,,,,
278,,,,,,,,,,,,,,,,,,,,
279,,,,,,,,,,,,,,,,,,,,
280,,,,,,,,,,,,,,,,,,,,
281,,,,,,,,,,,,,,,,,,,,
282,,,,,,,,,,,,,,,,,,,,
283,71.78,0.128,,2.694,,19.36785799,,,,,,,,,,,,,,
284,81.28,0.143,,3.052,,20.60300035,,,,,,,,,,,,,,
285,47.65,,,,,17.45981343,,,,,,,,,,,,,,
286,93.15,0.224,,4.74,,10.49993299,,,,,,,,,,,,,,
287,127.22,0.268,,6.44,,11.7198828,,,,,,,,,,,,,,
288,56.79,0.093,,2.507,,4.053647815,,,,,,,,,,,,,,
289,38.39,,,,,40.64535689,,,,,,,,,,,,,,
290,67.09,0.095,,3.149,,4.510063545,,,,,,,,,,,,,,
291,91.81,0.196,,4.315,,13.06518367,,,,,,,,,,,,,,
292,331.9,0.581,,17.119,,36.15809862,,,,,,,,,,,,,,
293,98.06,0.202,,4.688,,13.70958753,,,,,,,,,,,,,,
294,,,,,,,,,,,,,,,,,,,,
295,,,,,,,,,,,,,,,,,,,,
296,,,,,,,,,,,,,,,,,,,,
297,,,,,,,,,,,,,,,,,,,,
298,,,,,,,,,,,,,,,,,,,,
299,,,,,,,,,,,,,,,,,,,,
300,,,,,,,,,,,,,,,,,,,,
301,,,,,,,,,,,,,,,,,,,,
302,,,,,,,,,,,,,,,,,,,,
303,,,,,,,,,,,,,,,,,,,,
304,,,,,,,,,,,,,,,,,,,,
305,,,,,,,,,,,,,,,,,,,,
306,,,,,,,,,,,,,,,,,,,,
307,,,,,,,,,,,,,,,,,,,,
308,,,,,,,,,,,,,,,,,,,,
309,,,,,,,,,,,,,,,,,,,,
310,,,,,,,,,,,,,,,,,,,,
311,,,,,,,,,,,,,,,,,,,,
312,,,,,,,,,,,,,,,,,,,,
313,,,,,,,,,,,,,,,,,,,,
314,,,,,,,,,,,,,,,,,,,,
315,,,,,,,,,,,,,,,,,,,,
316,,,,,,,,,,,,,,,,,,,,
317,,,,,,,,,,,,,,,,,,,,
318,,,,,,,,,,,,,,,,,,,,
319,,,,,,,,,,,,,,,,,,,,
320,,,,,,,,,,,,,,,,,,,,
321,,,,,,,,,,,,,,,,,,,,
322,,,,,,,,,,,,,,,,,,,,
323,,,,,,,,,,,,,,,,,,,,
324,,,,,,,,,,,,,,,,,,,,
325,,,,,,,,,,,,,,,,,,,,
326,,,,,,,,,,,,,,,,,,,,
327,,,,,,,,,,,,,,,,,,,,
328,,,,,,,,,,,,,,,,,,,,
329,,,,,,,,,,,,,,,,,,,,
330,,,,,,,,,,,,,,,,,,,,
331,,,,,,,,,,,,,,,,,,,,
332,,,,,,,,,,,,,,,,,,,,
333,,,,,,,,,,,,,,,,,,,,
334,,,,,,,,,,,,,,,,,,,,
335,,,,,,,,,,,,,,,,,,,,
336,,,,,,,,,,,,,,,,,,,,
337,,,,,,,,,,,,,,,,,,,,
338,,,,,,,,,,,,,,,,,,,,
339,,,,,,,,,,,,,,,,,,,,
340,,,,,,,,,,,,,,,,,,,,
341,,,,,,,,,,,,,,,,,,,,
342,,,,,,,,,,,,,,,,,,,,
343,,,,,,,,,,,,,,,,,,,,
344,,,,,,,,,,,,,,,,,,,,
345,,,,,,,,,,,,,,,,,,,,
346,,,,,,,,,,,,,,,,,,,,
347,,,,,,,,,,,,,,,,,,,,
348,,,,,,,,,,,,,,,,,,,,
349,,,,,,,,,,,,,,,,,,,,
350,,,,,,,,,,,,,,,,,,,,
351,,,,,,,,,,,,,,,,,,,,
352,64.774,0.1742,,3.1823,,,,,,,,,,,,,,,,
353,95.456,0.2024,,4.8578,,,,,,,,,,,,,,,,
354,79.31,0.2332,,3.929,,,,,,,,,,,,,,,,
355,100.747,0.2106,,4.9527,,,,,,,,,,,,,,,,
356,80.581,0.1902,,4.0524,,,,,,,,,,,,,,,,
357,99.874,0.2317,,4.9298,,,,,,,,,,,,,,,,
358,68.441,0.167,,3.5329,,,,,,,,,,,,,,,,
359,67.018,0.199,,3.3449,,,,,,,,,,,,,,,,
360,76.76,0.2157,,3.9186,,,,,,,,,,,,,,,,
361,103.25,0.1642,,5.052,,,,,,,,,,,,,,,,
362,71.303,0.1562,,3.6129,,,,,,,,,,,,,,,,
363,94.611,0.229,,4.6463,,,,,,,,,,,,,,,,
364,93.438,0.1906,,4.5551,,,,,,,,,,,,,,,,
365,82.788,0.2467,,4.1866,,,,,,,,,,,,,,,,
366,68.732,0.1546,,3.1019,,,,,,,,,,,,,,,,
367,73.59,0.1354,,3.5036,,,,,,,,,,,,,,,,
368,89.916,0.2059,,4.5749,,,,,,,,,,,,,,,,
369,98.416,0.2303,,4.9021,,,,,,,,,,,,,,,,
370,83.662,0.1916,,4.2308,,,,,,,,,,,,,,,,
371,69.049,0.1388,,3.3143,,,,,,,,,,,,,,,,
372,192.945,0.191,,9.9483,,,,,,,,,,,,,,,,
373,186.681,0.168,,9.6104,,,,,,,,,,,,,,,,
374,82.464,0.155,,4.1018,,,,,,,,,,,,,,,,
375,98.893,0.1988,,4.6401,,,,,,,,,,,,,,,,
376,85.954,0.2269,,4.0854,,,,,,,,,,,,,,,,
377,56.183,0.1657,,2.6681,,,,,,,,,,,,,,,,
378,75.76907961,0.203050359,,3.943045472,52.08302264,11.44120779,9.043495826,0.012161462,0.828631886,1.168929735,2.112677105,,2.274742723,0.014129734,0.079130496,0.100450218,0.000156916,6.04e-05,0.011118332,0.001480501
379,72.52095453,0.1690968,,3.93096196,61.57936875,8.629088713,10.04742913,0.011347321,2.096970064,1.481857887,3.561107178,,1.873173206,0.01046051,0.044416858,0.060837868,0.000234768,4.2e-05,0.009261023,0.00177743
380,215.554202,0.291963266,,11.83658368,,,,0.034418487,7.4373578,5.891773627,13.81959151,,3.351347304,0.018273035,0.141566188,0.200530123,0.000533023,9.71e-05,0.028867759,0.00490463
381,,,,,,,,,,,,,,,,,,,,
382,99.31560329,0.24072519,,5.096123052,50.20459656,,8.822713573,0.01789246,2.240980259,1.724677602,3.701550759,,2.302328758,0.020509231,0.063106988,0.109688673,0.000363202,6.23e-05,0.013002795,0.001262183
383,55.70074002,0.128283313,,2.93172248,49.43817147,7.693935014,8.186581814,0.010665146,1.800581654,0.831924804,2.505476988,,1.182693994,0.008938954,0.059671609,0.065209002,0.000155746,3.94e-05,0.012274818,0.00198174
384,74.05507734,0.16204725,,3.692376631,49.53026302,,9.249968836,0.010500268,1.925582689,1.27629076,3.0583686,,1.437517207,0.022631496,0.160241969,0.076481528,0.00040311,4.92e-05,0.010702018,0.00179881
385,,,,,,,5.437068447,,,,,,,,,,,,,
386,,,,,,,13.93414831,,,,,,,,,,,,,
387,,,,,,,9.401050755,,,,,,,,,,,,,
388,,,,,,,,,,,,,,,,,,,,
389,,,,,,,8.005907102,,,,,,,,,,,,,
390,96.04,0.196899998,,4.770399997,,,,,,,,,,,,,,,,
391,86.76,0.125799996,,4.126400004,,,,,,,,,,,,,,,,
392,55.89,0.080499999,,2.365900001,,,,,,,,,,,,,,,,
393,54.9,0.157563,,2.313486,,,,,,,,,,,,,,,,
394,60.82,0.2286832,,2.8074512,,,,,,,,,,,,,,,,
395,85.39,0.2160367,,3.8775599,,,,,,,,,,,,,,,,
396,80.2,0.181252,,3.318676,,,,,,,,,,,,,,,,
397,85.27,0.2003845,,3.820096,,,,,,,,,,,,,,,,
398,83.14,0.2095128,,3.5475838,,,,,,,,,,,,,,,,
399,63.84,0.1953504,,2.8734384,,,,,,,,,,,,,,,,
400,96.1,0.308481,,4.335071,,,,,,,,,,,,,,,,
401,90.26,0.2500202,,3.899232,,,,,,,,,,,,,,,,
402,90.04,0.1836816,,3.9050348,,,,,,,,,,,,,,,,
403,86.13,0.2170476,,3.7673262,,,,,,,,,,,,,,,,
404,54.09,0.146043,,2.4967944,,,,,,,,,,,,,,,,
405,61.64,0.206494,,2.6825728,,,,,,,,,,,,,,,,
406,53.2,,,,,,,,,,,,,,,,,,,
407,69.86,,,,,,,,,,,,,,,,,,,
408,84.05,0.2277755,,3.851171,,,,,,,,,,,,,,,,
409,60.44,0.1353856,,2.8938672,,,,,,,,,,,,,,,,
410,62.77,0.1782668,,2.8447364,,,,,,,,,,,,,,,,
411,66.99,0.2230767,,2.9830647,,,,,,,,,,,,,,,,
412,63.64,0.146372,,2.8135244,,,,,,,,,,,,,,,,
413,65.11,0.1484508,,2.8674444,,,,,,,,,,,,,,,,
414,63.03,0.1682901,,2.8848831,,,,,,,,,,,,,,,,
415,60.17,0.1781032,,2.7473622,,,,,,,,,,,,,,,,
416,46.82,0.1348416,,2.1644886,,,,,,,,,,,,,,,,
417,54.13,0.0925623,,2.4369326,,,,,,,,,,,,,,,,
418,65.64,0.1988892,,2.8776576,,,,,,,,,,,,,,,,
419,64.22,0.1399996,,2.7730196,,,,,,,,,,,,,,,,
420,67.36,0.1367408,,2.8540432,,,,,,,,,,,,,,,,
421,64.63,0.1609287,,3.011758,,,,,,,,,,,,,,,,
422,62.54,0.096937,,2.8305604,,,,,,,,,,,,,,,,
423,82.63,0.0917193,,3.5216906,,,,,,,,,,,,,,,,
424,100.74,0.2437908,,5.0400222,,,,,,,,,,,,,,,,
425,70.53,0.1932522,,3.4651389,,,,,,,,,,,,,,,,
426,85.14,0.1736856,,3.6576144,,,,,,,,,,,,,,,,
427,,,,,,,,,,,,,,,,,,,,
428,,,,,,,,,,,,,,,,,,,,
429,95.42,0.2461836,,4.8034428,,,,,,,,,,,,,,,,
430,89.26,0.227613,,4.579038,,,,,,,,,,,,,,,,
431,104.56,0.2216672,,5.4799896,,,,,,,,,,,,,,,,
432,121.63,0.2225829,,6.1143401,,,,,,,,,,,,,,,,
433,41.1968968,,,,,,,,,,,,,,,,,,,
434,38.77354993,,,,,,,,,,,,,,,,,,,
435,45.78160709,,,,,,,,,,,,,,,,,,,
436,42.31032644,,,,,,,,,,,,,,,,,,,
437,43.55474781,,,,,,,,,,,,,,,,,,,
438,,,,,,,,,,,,,,,,,,,,
439,,,,,,,,,,,,,,,,,,,,
440,,,,,,,,,,,,,,,,,,,,
441,,,,,,,,,,,,,,,,,,,,
442,,,,,,,,,,,,,,,,,,,,
443,,,,,,,,,,,,,,,,,,,,
444,,,,,,,,,,,,,,,,,,,,
445,,,,,,,,,,,,,,,,,,,,
446,,,,,,,,,,,,,,,,,,,,
447,60.45268004,,,,,,,,,,,,,,,,,,,
448,49.38387947,,,,,,,,,,,,,,,,,,,
449,60.71466349,,,,,,,,,,,,,,,,,,,
450,78.26755433,,,,,,,,,,,,,,,,,,,
451,49.8423505,,,,,,,,,,,,,,,,,,,
452,79.24999225,,,,,,,,,,,,,,,,,,,
453,46.50206157,,,,,,,,,,,,,,,,,,,
454,42.76879747,,,,,,,,,,,,,,,,,,,
455,57.37437456,,,,,,,,,,,,,,,,,,,
456,,,,,,,,,,,,,,,,,,,,
457,,,,,,,,,,,,,,,,,,,,
458,,,,,,,,,,,,,,,,,,,,
459,,,,,,,,,,,,,,,,,,,,
460,,,,,,,,,,,,,,,,,,,,
461,,,,,,,,,,,,,,,,,,,,
462,,,,,,,,,,,,,,,,,,,,
463,,,,,,,,,,,,,,,,,,,,
464,,,,,,,,,,,,,,,,,,,,
465,,,,,,,,,,,,,,,,,,,,
466,67.32974548,,,,,,,,,,,,,,,,,,,
467,33.13021265,,,,,,,,,,,,,,,,,,,
468,84.89914985,,,,,,,,,,,,,,,,,,,
469,114.8473704,,,,,,,,,,,,,,,,,,,
470,139.2780867,,,,,,,,,,,,,,,,,,,
471,100.6017069,,,,,,,,,,,,,,,,,,,
472,72.34580094,,,,,,,,,,,,,,,,,,,
473,149.5867382,,,,,,,,,,,,,,,,,,,
474,113.9792216,,,,,,,,,,,,,,,,,,,
475,57.05922045,,,,,,,,,,,,,,,,,,,
476,57.05922045,,,,,,,,,,,,,,,,,,,
477,48.99996877,,,,,,,,,,,,,,,,,,,
478,48.99996877,,,,,,,,,,,,,,,,,,,
479,48.99996877,,,,,,,,,,,,,,,,,,,
480,61.74584143,,,,,,,,,,,,,,,,,,,
481,61.74584143,,,,,,,,,,,,,,,,,,,
482,113.0827217,,,,,,,,,,,,,,,,,,,
483,81.55307159,,,,,,,,,,,,,,,,,,,
484,81.55307159,,,,,,,,,,,,,,,,,,,
485,81.55307159,,,,,,,,,,,,,,,,,,,
486,106.8806357,,,,,,,,,,,,,,,,,,,
487,106.8806357,,,,,,,,,,,,,,,,,,,
488,56.59365525,,,,,,,,,,,,,,,,,,,
489,69.42721173,,,,,,,,,,,,,,,,,,,
490,121.5102624,,,,,,,,,,,,,,,,,,,
491,134.5016028,,,,,,,,,,,,,,,,,,,
492,86.0511973,,,,,,,,,,,,,,,,,,,
493,86.98017227,,,,,,,,,,,,,,,,,,,
494,155.5190192,,,,,,,,,,,,,,,,,,,
495,183.5355094,,,,,,,,,,,,,,,,,,,
496,79.95613949,,,,,,,,,,,,,,,,,,,
497,106.9464728,,,,,,,,,,,,,,,,,,,
498,92.37990332,,,,,,,,,,,,,,,,,,,
499,57.38059087,,,,,,,,,,,,,,,,,,,
500,71.15508856,,,,,,,,,,,,,,,,,,,
501,80.65150862,,,,,,,,,,,,,,,,,,,
502,75.03183504,,,,,,,,,,,,,,,,,,,
503,141.8422122,,,,,,,,,,,,,,,,,,,
504,129.3148185,,,,,,,,,,,,,,,,,,,
505,126.4925841,,,,,,,,,,,,,,,,,,,
506,73.15623345,,,,,,,,,,,,,,,,,,,
507,85.81088757,,,,,,,,,,,,,,,,,,,
508,74.32885326,,,,,,,,,,,,,,,,,,,
509,95.90947536,,,,,,,,,,,,,,,,,,,
510,57.38587144,,,,,,,,,,,,,,,,,,,
511,56.43409139,,,,,,,,,,,,,,,,,,,
512,60.14552549,,,,,,,,,,,,,,,,,,,
513,60.14552549,,,,,,,,,,,,,,,,,,,
514,88.35574395,,,,,,,,,,,,,,,,,,,
515,186.6091116,,,,,,,,,,,,,,,,,,,
516,79.8504033,,,,,,,,,,,,,,,,,,,
517,161.8836368,,,,,,,,,,,,,,,,,,,
518,79.09037606,,,,,,,,,,,,,,,,,,,
519,165.939364,,,,,,,,,,,,,,,,,,,
520,56.84057259,,,,,,,,,,,,,,,,,,,
521,120.1874252,,,,,,,,,,,,,,,,,,,
522,120.1874252,,,,,,,,,,,,,,,,,,,
523,94.87481145,,,,,,,,,,,,,,,,,,,
524,76.68226123,,,,,,,,,,,,,,,,,,,
525,136.6466653,,,,,,,,,,,,,,,,,,,
526,140.5812222,,,,,,,,,,,,,,,,,,,
527,64.65380413,,,,,,,,,,,,,,,,,,,
528,64.65380413,,,,,,,,,,,,,,,,,,,
529,0.31,0.001519404,,,,0.133333333,,,,,,,,,,,,,,
530,1.223333333,0.005467359,,,,0.614666667,,,,,,,,,,,,,,
531,1.206666667,0.005913437,,,,0.577666667,,,,,,,,,,,,,,
532,0.963333333,0.004769198,,,,0.397,,,,,,,,,,,,,,
533,0.63,0.0028896,,,,0.221333333,,,,,,,,,,,,,,
534,12.9,0.062958167,,,,8.256666667,,,,,,,,,,,,,,
535,1.4,0.005004255,,,,0.746666667,,,,,,,,,,,,,,
536,2.053333333,0.009609837,,,,0.868666667,,,,,,,,,,,,,,
537,9.933333333,0.046990563,,,,5.742666667,,,,,,,,,,,,,,
538,2.566666667,0.011176249,,,,1.078333333,,,,,,,,,,,,,,
539,4.866666667,0.0235207,,,,2.647666667,,,,,,,,,,,,,,
540,1.986666667,0.005621559,,,,0.808,,,,,,,,,,,,,,
541,2.18,0.008902879,,,,0.885,,,,,,,,,,,,,,
542,2.306666667,0.010255728,,,,0.885333333,,,,,,,,,,,,,,
543,15.13333333,0.071170744,1.79,,,10.32,,,,,,,,,,,,,,
544,2.066666667,0.009157166,0.403333333,,,0.870333333,,,,,,,,,,,,,,
545,1.233333333,0.003807858,0.266666667,,,0.441333333,,,,,,,,,,,,,,
546,15.26666667,0.062296197,1.7033,,,9.833333333,,,,,,,,,,,,,,
547,26.63333333,0.109559256,3.47,,,18.66666667,,,,,,,,,,,,,,
548,1.513333333,0.005102762,0.26,,,0.622,,,,,,,,,,,,,,
549,19.06666667,0.073690091,2.8367,,,10.93,,,,,,,,,,,,,,
550,23.9,0.081748863,6.0,,,14.28333333,,,,,,,,,,,,,,
551,30.4,0.115206232,5.12,,,21.95333333,,,,,,,,,,,,,,
552,3.833333333,0.014645874,0.323333333,,,1.439333333,,,,,,,,,,,,,,
553,23.5,0.081062559,4.13,,,14.966,,,,,,,,,,,,,,
554,4.85,0.019435826,0.553333333,,,1.972333333,,,,,,,,,,,,,,
555,32.33333333,0.111628479,6.59,,,23.92333333,,,,,,,,,,,,,,
556,3.306666667,0.013151014,0.206666667,,,1.254666667,,,,,,,,,,,,,,
557,35.23333333,0.112474331,5.65,,,25.88666667,,,,,,,,,,,,,,
558,32.5,0.129236042,3.96,,,22.85,,,,,,,,,,,,,,
559,3.266666667,0.012348441,,,,1.334,,,,,,,,,,,,,,
560,2.533333333,0.009781613,,,,1.154666667,,,,,,,,,,,,,,
561,6.033333333,0.018825415,,,,2.409333333,,,,,,,,,,,,,,
562,5.033333333,0.015321712,,,,1.925,,,,,,,,,,,,,,
563,38.66666667,0.141172259,4.2867,,,27.30333333,,,,,,,,,,,,,,
564,4.066666667,0.014550242,,,,1.668666667,,,,,,,,,,,,,,
565,11.1,0.039230137,,,,4.723666667,,,,,,,,,,,,,,
566,38.06666667,0.127297819,5.15,,,28.15666667,,,,,,,,,,,,,,
567,37.0,0.146360112,4.3467,,,26.46333333,,,,,,,,,,,,,,
568,6.233333333,0.018389213,,,,2.261,,,,,,,,,,,,,,
569,10.73333333,0.026869842,1.21,,,3.975666667,,,,,,,,,,,,,,
570,31.53333333,0.119501202,3.8833,,,21.96666667,,,,,,,,,,,,,,
571,49.1,0.184536915,6.3833,,,38.23666667,,,,,,,,,,,,,,
572,42.73333333,0.142968136,4.54,,,26.87,,,,,,,,,,,,,,
573,5.233333333,0.01502906,0.88,,,1.912,,,,,,,,,,,,,,
574,79.46666667,0.182206808,5.95,,,44.13333333,,,,,,,,,,,,,,
575,7.7,0.026560924,0.933333333,,,2.996666667,,,,,,,,,,,,,,
576,77.43333333,0.155475177,5.085,,,30.53,,,,,,,,,,,,,,
577,82.16666667,0.192666668,6.896666667,,,49.06666667,,,,,,,,,,,,,,
578,9.566666667,0.027253876,1.11,,,3.961333333,,,,,,,,,,,,,,
579,20.1,0.04989552,2.173333333,,,8.459333333,,,,,,,,,,,,,,
580,9.5,0.027230332,1.403333333,,,4.179666667,,,,,,,,,,,,,,
581,74.8,0.165449813,6.303333333,,,46.14,,,,,,,,,,,,,,
582,83.2,0.189913044,5.64,,,30.15,,,,,,,,,,,,,,
583,14.86666667,0.042809011,1.24,,,6.848,,,,,,,,,,,,,,
584,15.6,0.042839999,1.7,,,6.648666667,,,,,,,,,,,,,,
585,26.06666667,0.062038667,2.47,,,11.401,,,,,,,,,,,,,,
586,30.13333333,0.043392,2.513333333,,,9.837333333,,,,,,,,,,,,,,
587,29.6,0.058608,2.83,,,12.03466667,,,,,,,,,,,,,,
588,23.16666667,0.055831667,2.096666667,,,10.021,,,,,,,,,,,,,,
589,20.85333333,0.042332267,1.906666667,,,4.341333333,,,,,,,,,,,,,,
590,30.63333333,0.058509667,2.196666667,,,7.023333333,,,,,,,,,,,,,,
591,31.26666667,0.03752,2.376666667,,,4.046666667,,,,,,,,,,,,,,
592,37.93333333,0.052348,1.613333333,,,5.28,,,,,,,,,,,,,,
593,58.73333333,0.088687333,3.96,,,18.9,,,,,,,,,,,,,,
594,72.8,0.133224,4.28,,,22.73666667,,,,,,,,,,,,,,
595,72.98182177,,,,,,,,,,,,,,,,,,,
596,94.75285354,,,,,,,,,,,,,,,,,,,
597,87.81222462,,,,,,,,,,,,,,,,,,,
598,83.00284902,,,,,,,,,,,,,,,,,,,
599,73.22888774,,,,,,,,,,,,,,,,,,,
600,77.45615137,,,,,,,,,,,,,,,,,,,
601,86.55107453,,,,,,,,,,,,,,,,,,,
602,91.58143965,,,,,,,,,,,,,,,,,,,
603,95.84064566,,,,,,,,,,,,,,,,,,,
604,57.01906893,,,,,,,,,,,,,,,,,,,
605,85.88356287,,,,,,,,,,,,,,,,,,,
606,100.10662,,,,,,,,,,,,,,,,,,,
607,129.4568392,0.197109896,,6.44611012,,,,,2.869757617,1.776905221,4.812435574,,,,,,,,,
608,130.8744681,0.196353359,,6.619845453,,,,,2.865810656,1.777343339,4.924739274,,,,,,,,,
609,92.63915884,0.185747266,,4.610739989,,,,,2.172680193,1.731541324,3.920554301,,,,,,,,,
610,77.99718088,0.184315458,,3.968374295,,,,,1.863756539,1.188486598,3.181362476,,,,,,,,,
611,144.1425802,0.231830609,,7.447055992,,,,,3.779419473,2.323671584,6.211665848,,,,,,,,,
612,142.7850787,0.222994782,,7.305591812,,,,,3.738807527,2.266632295,6.367890354,,,,,,,,,
613,58.44107769,0.159577646,,2.910753279,,,,,1.468500089,1.19991977,2.679019889,,,,,,,,,
614,113.5985068,0.237578259,,5.636361562,,,,,1.698033586,1.581797162,3.302012694,,,,,,,,,
615,50.90606401,0.140436086,,2.469625279,,,,,0.756610632,0.784754247,1.547872201,,,,,,,,,
616,55.57191916,0.141894093,,2.685283137,,,,,0.793992973,0.881456649,1.701959589,,,,,,,,,
617,42.62584994,0.134525494,,1.997282306,,,,,0.795104813,0.814447058,1.629239568,,,,,,,,,
618,42.62584994,0.134525494,,1.997282306,,,,,0.795104813,0.814447058,1.629239568,,,,,,,,,
619,52.79615238,0.164476872,,2.596763872,,,,,0.992822164,0.876633976,1.62728574,,,,,,,,,
620,53.78827514,0.139077422,,2.643355809,,,,,0.84219503,0.723456279,1.484155252,,,,,,,,,
621,108.8435401,0.215402139,,5.377073232,,,,,2.543372603,1.831046211,4.186947462,,,,,,,,,
622,72.5171109,0.208621365,,3.555874785,,,,,1.333471886,1.150845329,2.421087007,,,,,,,,,
623,72.5171109,0.208621365,,3.555874785,,,,,1.333471886,1.150845329,2.421087007,,,,,,,,,
624,107.8323163,0.243736285,,5.341626942,,,,,2.435007822,1.681466975,4.01422221,,,,,,,,,
625,107.8323163,0.243736285,,5.341626942,,,,,2.435007822,1.681466975,4.01422221,,,,,,,,,
626,47.0679522,0.136403999,,2.231953915,,,,,0.909229467,0.777089641,1.567680925,,,,,,,,,
627,47.0679522,0.136403999,,2.231953915,,,,,0.909229467,0.777089641,1.567680925,,,,,,,,,
628,70.44382003,0.212872137,,3.504013474,,,,,1.511306188,1.090035189,2.583247424,,,,,,,,,
629,58.15655263,0.176895967,,2.84300621,,,,,1.106240241,0.984789223,2.003869966,,,,,,,,,
630,87.50256304,0.238623042,,4.454679628,,,,,2.309154324,1.358579807,3.617370606,,,,,,,,,
631,158.0752391,0.281575298,,7.901213719,,,,,4.152814219,3.063585709,7.067480612,,,,,,,,,
632,129.8284609,0.245320225,,6.521611914,,,,,3.31318239,2.315122503,5.815926992,,,,,,,,,
633,149.6063082,0.331508115,,7.532043616,,,,,3.635792434,2.719295184,6.362940814,,,,,,,,,
634,59.05642464,0.184799346,,2.743524052,,,,,1.03046367,0.889561436,1.775997402,,,,,,,,,
635,80.79379755,0.251696505,,4.00021322,,,,,1.615565412,1.330444066,2.815773594,,,,,,,,,
636,203.8171389,0.421335742,,9.86097485,,,,,5.486762373,3.491107206,8.432969073,,,,,,,,,
637,88.69456973,0.273192047,,4.43216469,,,,,2.103480912,1.519173128,3.288861241,,,,,,,,,
638,86.19197221,0.2405866,,4.199597502,,,,,1.896446733,1.472461642,3.101474078,,,,,,,,,
639,178.6552236,0.297912248,,9.354573041,,,,,6.64891002,3.478966872,9.591031017,,,,,,,,,
640,60.04098167,0.157748223,,2.922690534,,,,,1.055311081,0.923947974,1.882917095,,,,,,,,,
641,135.1020678,0.220815319,,6.799958776,,,,,3.774798672,2.435813118,6.191672794,,,,,,,,,
642,60.94228309,0.148148789,,2.982833362,,,,,1.073684599,0.927227618,1.928795336,,,,,,,,,
643,115.5456136,0.194956925,,5.794776042,,,,,2.958369784,2.03594009,4.955274485,,,,,,,,,
644,65.98620943,0.182387222,,3.215446526,,,,,1.314826274,1.074389905,2.318150813,,,,,,,,,
645,57.2813962,0.156331459,,2.761353234,,,,,1.246802912,0.974357146,2.147046785,,,,,,,,,
646,221.7378325,0.256463662,,11.26178253,,,,,6.235274682,4.62858949,11.02097061,,,,,,,,,
647,201.1723616,0.1956329,,10.15968569,,,,,4.807313188,3.988294078,8.950623442,,,,,,,,,
648,51.61450979,0.136767411,,2.533665088,,,,,1.143469317,0.947544031,1.939954387,,,,,,,,,
649,79.93333034,0.160487527,,3.957938723,,,,,1.344834318,1.19522826,2.525243599,,,,,,,,,
650,79.93333034,0.160487527,,3.957938723,,,,,1.344834318,1.19522826,2.525243599,,,,,,,,,
651,47.03654178,0.122143405,,2.266997142,,,,,0.926932942,0.877435318,1.772838362,,,,,,,,,
652,50.10710542,0.135935566,,2.40467562,,,,,0.972323245,0.917279466,1.828955434,,,,,,,,,
653,50.10710542,0.135935566,,2.40467562,,,,,0.972323245,0.917279466,1.828955434,,,,,,,,,
654,146.9706243,0.216553425,,7.33989916,,,,,4.491429561,2.998734508,7.478804251,,,,,,,,,
655,136.3580199,0.218868585,,6.797522125,,,,,4.188667951,2.698257082,6.873461087,,,,,,,,,
656,165.6217766,0.289718679,,8.434015929,,,,,5.153779982,3.582219926,8.845126883,,,,,,,,,
657,165.6217766,0.289718679,,8.434015929,,,,,5.153779982,3.582219926,8.845126883,,,,,,,,,
658,181.462337,0.259590638,,9.276570771,,,,,4.762887971,3.395134824,8.507422401,,,,,,,,,
659,141.0377552,0.264500401,,7.036733874,,,,,3.530170226,2.284332051,5.815385557,,,,,,,,,
660,204.4408538,0.251271548,,10.37932006,,,,,5.167607648,4.313852985,9.778548866,,,,,,,,,
661,102.4189021,0.188342871,,5.131727654,,,,,1.636970922,1.27652279,2.958054037,,,,,,,,,
662,45.73438879,0.101280245,,2.224919196,,,,,0.632457226,0.775017827,1.426260438,,,,,,,,,
663,39.17873016,0.095587878,,1.905137714,,,,,0.620966034,0.629675151,1.180900373,,,,,,,,,
664,60.58838237,0.147999896,,2.980586639,,,,,1.136658172,0.917740951,2.007979574,,,,,,,,,
665,66.10178822,0.168379353,,3.249523527,,,,,1.261381476,0.979500658,2.214537422,,,,,,,,,
666,60.68528848,0.143840112,,3.010190831,,,,,1.128949462,0.899085775,1.998847688,,,,,,,,,
667,,,2.26,,,,,,,,,,,,,,,,,
668,,,2.26,,,,,,,,,,,,,,,,,
669,,,2.26,,,,,,,,,,,,,,,,,
670,,,2.26,,,,,,,,,,,,,,,,,
671,,,2.26,,,,,,,,,,,,,,,,,
672,,,2.26,,,,,,,,,,,,,,,,,
673,,,2.26,,,,,,,,,,,,,,,,,
674,,,2.26,,,,,,,,,,,,,,,,,
675,,,2.26,,,,,,,,,,,,,,,,,
676,,,2.26,,,,,,,,,,,,,,,,,
677,,,2.26,,,,,,,,,,,,,,,,,
678,,,2.26,,,,,,,,,,,,,,,,,
679,,,2.26,,,,,,,,,,,,,,,,,
680,,,2.26,,,,,,,,,,,,,,,,,
681,,,2.26,,,,,,,,,,,,,,,,,
682,,,2.26,,,,,,,,,,,,,,,,,
683,,,2.26,,,,,,,,,,,,,,,,,
684,,,2.26,,,,,,,,,,,,,,,,,
685,,,2.26,,,,,,,,,,,,,,,,,
686,,,2.26,,,,,,,,,,,,,,,,,
687,65.36626483,,,,,,,,,,,,,,,,,,,
688,,,,,,,,,,,,,,,,,,,,
689,,,,,,,,,,,,,,,,,,,,
690,,,,,,,,,,,,,,,,,,,,
691,,,,,,,,,,,,,,,,,,,,
692,,,,,,,,,,,,,,,,,,,,
693,73.2355873,,,,,,,,,,,,,,,,,,,
694,48.08541954,,,,,,,,,,,,,,,,,,,
695,70.10874378,,,,,,,,,,,,,,,,,,,
696,43.72586384,,,,,,,,,,,,,,,,,,,
697,,,,,,,,,,,,,,,,,,,,
698,50.65007546,,,,,,,,,,,,,,,,,,,
699,39.09813632,,,,,,,,,,,,,,,,,,,
700,73.04550757,,,,,,,,,,,,,,,,,,,
701,,,5.09,,55.68367131,,,,,,,,,,,,,,,
702,,,5.1,,71.61302349,,,,,,,,,,,,,,,
703,,,4.9,,66.60404373,,,,,,,,,,,,,,,
704,,,5.0,,66.06617886,,,,,,,,,,,,,,,
705,,,2.68,,64.25483345,,,,,,,,,,,,,,,
706,,,3.76,,53.18715659,,,,,,,,,,,,,,,
707,,,5.29,,49.54725941,,,,,,,,,,,,,,,
708,,,5.28,,50.48579198,,,,,,,,,,,,,,,
709,,,2.73,,56.65962918,,,,,,,,,,,,,,,
710,,,3.74,,44.67311872,,,,,,,,,,,,,,,
711,,,3.91,,48.79544409,,,,,,,,,,,,,,,
712,,,2.61,,51.62117465,,,,,,,,,,,,,,,
713,,,4.39,,47.98828649,,,,,,,,,,,,,,,
714,,,3.02,,52.52592986,,,,,,,,,,,,,,,
715,,,4.03,,54.1946367,,,,,,,,,,,,,,,
716,,,3.7,,52.41652738,,,,,,,,,,,,,,,
717,,,3.13,,45.55097141,,,,,,,,,,,,,,,
718,,,2.88,,47.22729218,,,,,,,,,,,,,,,
719,,,2.46,,57.53261185,,,,,,,,,,,,,,,
720,,,2.41,,56.54161692,,,,,,,,,,,,,,,
721,,,2.37,,53.2981675,,,,,,,,,,,,,,,
722,,,3.98,,60.73753948,,,,,,,,,,,,,,,
723,,,3.89,,58.09513641,,,,,,,,,,,,,,,
724,,,3.01,,51.65706383,,,,,,,,,,,,,,,
725,,,,,,,,,,,,,,,,,,,,
726,,,,,,,,,,,,,,,,,,,,
727,,,,,,,,,,,,,,,,,,,,
728,,,,,,,,,,,,,,,,,,,,
729,,,,,,,,,,,,,,,,,,,,
730,,,,,,,,,,,,,,,,,,,,
731,,,,,,,,,,,,,,,,,,,,
732,,,,,,,,,,,,,,,,,,,,
733,,,,,,,,,,,,,,,,,,,,
734,,,,,,,,,,,,,,,,,,,,
735,,,,,,,,,,,,,,,,,,,,
736,,,,,,,,,,,,,,,,,,,,
737,,,,,,,,,,,,,,,,,,,,
738,,,,,,,,,,,,,,,,,,,,
739,,,,,,,,,,,,,,,,,,,,
740,,,,,,,,,,,,,,,,,,,,
741,,,,,,,,,,,,,,,,,,,,
742,,,,,,,,,,,,,,,,,,,,
743,,,5.21,,,,,,,,,,,,,,,,,
744,,,3.83,,,,,,,,,,,,,,,,,
745,,,3.02,,,,,,,,,,,,,,,,,
746,,,3.02,,,,,,,,,,,,,,,,,
747,,,2.2,,,,,,,,,,,,,,,,,
748,,,,,,,,,,,,,,,,,,,,
749,,,,,,,,,,,,,,,,,,,,
750,,,,,,,,,,,,,,,,,,,,
751,,,,,,,,,,,,,,,,,,,,
752,,,,,,,,,,,,,,,,,,,,
753,,,,,,,,,,,,,,,,,,,,
754,,,,,,,,,,,,,,,,,,,,
755,,,,,,,,,,,,,,,,,,,,
756,,,,,,,,,,,,,,,,,,,,
757,,,,,,,,,,,,,,,,,,,,
758,,,,,,,,,,,,,,,,,,,,
759,,,,,,,,,,,,,,,,,,,,
760,,,,,,,,,,,,,,,,,,,,
761,,,,,,,,,,,,,,,,,,,,
762,,,,,,,,,,,,,,,,,,,,
763,,,,,,,,,,,,,,,,,,,,
764,,,,,,,,,,,,,,,,,,,,
765,,,,,,,,,,,,,,,,,,,,
766,,,,,,,,,,,,,,,,,,,,
767,,,,,,,,,,,,,,,,,,,,
768,,,,,,,,,,,,,,,,,,,,
769,,,,,,,,,,,,,,,,,,,,
770,,,,,,,,,,,,,,,,,,,,
771,,,,,,,,,,,,,,,,,,,,
772,,,,,,,,,,,,,,,,,,,,
773,,,,,,,,,,,,,,,,,,,,
774,,,,,,,,,,,,,,,,,,,,
775,,,,,,,,,,,,,,,,,,,,
776,,,,,,,,,,,,,,,,,,,,
777,,,,,,,,,,,,,,,,,,,,
778,,,3.79,,,,,,,,,,,,,,,,,
779,,,3.03,,,,,,,,,,,,,,,,,
780,,,3.54,,65.83699733,,,,,,,,,,,,,,,
781,,,5.28,,53.2734784,,,,,,,,,,,,,,,
782,,,3.25,,47.1835485,,,,,,,,,,,,,,,
783,,,4.49,,59.5946189,,,,,,,,,,,,,,,
784,,,3.49,,51.69297797,,,,,,,,,,,,,,,
785,,,5.24,,52.2710118,,,,,,,,,,,,,,,
786,,,2.66,,23.83349513,,,,,,,,,,,,,,,
787,,,3.74,,56.45523085,,,,,,,,,,,,,,,
788,,,4.96,,56.580927,,,,,,,,,,,,,,,
789,,,5.3,,43.08745768,,,,,,,,,,,,,,,
790,,,0.82,,30.59192085,,,,,,,,,,,,,,,
791,,,4.58,,60.1912474,,,,,,,,,,,,,,,
792,,,4.52,,49.51283603,,,,,,,,,,,,,,,
793,,,2.1,,35.61624841,,,,,,,,,,,,,,,
794,,,4.43,,53.86918547,,,,,,,,,,,,,,,
795,,,3.48,,54.37069333,,,,,,,,,,,,,,,
796,,,3.23,,51.38254977,,,,,,,,,,,,,,,
797,,,1.26,,29.60466498,,,,,,,,,,,,,,,
798,,,3.36,,45.63547083,,,,,,,,,,,,,,,
799,54.4,0.0852,5.9,1.3422,54.22,,14.81,,,,,,,,,,,,,
800,55.4,0.0577,6.0,1.2665,42.56,,9.97,,,,,,,,,,,,,
801,43.5,0.0825,3.8,0.9045,46.79,,11.61,,,,,,,,,,,,,
802,50.5,0.0998,5.0,1.2803,50.36,,13.09,,,,,,,,,,,,,
803,48.8,0.048443,2.5,1.071936,49.57,,12.76,,,,,,,,,,,,,
804,56.3,0.074903,3.4,0.982883,59.93,,17.56,,,,,,,,,,,,,
805,,,4.69,,,,,,,,,,,,,,,,,
806,,,4.64,,,,,,,,,,,,,,,,,
807,,,4.04,,,,,,,,,,,,,,,,,
808,,,4.75,,,,,,,,,,,,,,,,,
809,,,2.08,,,,,,,,,,,,,,,,,
810,,,5.19,,,,,,,,,,,,,,,,,
811,,,3.47,,,,,,,,,,,,,,,,,
812,,,4.68,,,,,,,,,,,,,,,,,
813,,,5.8,,,,,,,,,,,,,,,,,
814,,,5.7,,,,,,,,,,,,,,,,,
815,,,1.7,,,,,,,,,,,,,,,,,
816,115.0,0.134349315,2.92,6.113321918,,15.3,,,,,,,,,,,,,,
817,214.0,0.218925234,2.14,11.19537383,,24.4,,,,,,,,,,,,,,
818,133.0,0.140956284,3.66,6.822650273,,14.4,,,,,,,,,,,,,,
819,130.0,0.110649351,0.77,6.801558442,,14.3,,,,,,,,,,,,,,
820,137.0,0.224,2.0,6.85715,,17.0,,,,,,,,,,,,,,
821,142.0,0.153569024,2.97,7.730875421,,14.9,,,,,,,,,,,,,,
822,86.0,0.091417323,1.27,4.266929134,,10.1,,,,,,,,,,,,,,
823,105.0,0.09740458,1.31,5.397175573,,11.0,,,,,,,,,,,,,,
824,55.0,0.078348624,2.18,2.801788991,,6.61,,,,,,,,,,,,,,
825,92.0,0.08030303,1.98,4.721262626,,,,,,,,,,,,,,,,
826,52.0,0.058444976,4.18,2.619832536,,6.23,,,,,,,,,,,,,,
827,104.0,0.103586207,2.9,5.462,,11.6,,,,,,,,,,,,,,
828,74.0,0.067848101,1.58,3.816772152,,7.69,,,,,,,,,,,,,,
829,99.0,0.082307692,2.86,5.122237762,,8.92,,,,,,,,,,,,,,
830,64.0,0.068730159,3.15,3.400507937,,7.51,,,,,,,,,,,,,,
831,111.0,0.126607143,1.12,5.495089286,,11.8,,,,,,,,,,,,,,
832,131.0,0.118661417,1.27,6.705748031,,11.8,,,,,,,,,,,,,,
833,88.41478457,0.230223269,,,,,,0.01880128,1.081632998,,,,,,0.151911029,0.112806907,,,,
834,58.6363005,0.215509236,,,,,,0.0162988,0.951282607,,,,,,0.027866677,0.079804635,,,,
835,51.20778992,0.240147493,,,,,,0.022717427,0.565880113,,,,,,0.044215541,0.11965948,,,,
836,98.25243085,0.235233109,,,,,,0.022849845,1.147306718,,,,,,0.037598205,0.114123767,,,,
837,63.46854888,0.198178824,,,,,,0.015572266,0.863818187,,,,,,0.049224991,0.062301004,,,,
838,82.88880633,0.224989705,,,,,,0.02177232,0.889085669,,,,,,0.046990394,0.13221814,,,,
839,84.5157609,0.139366045,,,,,,0.015049783,0.218753905,,,,,,0.036646079,0.033704005,,,,
840,87.24543132,0.252614345,,,,,,0.014632455,1.567770203,,,,,,0.04680266,0.070535713,,,,
841,96.84497242,0.199791565,,,,,,0.017854316,0.821969249,,,,,,0.003712227,0.068006605,,,,
842,81.86743467,0.191533611,,,,,,0.006907526,0.790638135,,,,,,0.088147102,0.125745272,,,,
843,99.25299318,0.231687687,,,,,,0.007836475,2.041133654,,,,,,0.098516266,0.000397345,,,,
844,85.39204957,0.155392966,,,,,,0.013948712,1.179084865,,,,,,0.083917633,0.059042093,,,,
845,105.9614897,0.254619488,,,,,,0.016406816,1.798809542,,,,,,0.036334638,0.054467164,,,,
846,94.72933077,0.164423296,,,,,,0.019783902,1.099876089,,,,,,0.185551776,0.088495679,,,,
847,104.9285157,0.222295065,,,,,,0.013528523,1.408684348,,,,,,0.191171313,0.057124448,,,,
848,51.15063198,0.040515285,,,,,,0.008269887,0.407362839,,,,,,0.06433281,0.041680047,,,,
849,,,5.04,,24.79781746,8.466468254,5.964087302,,,,,,,,,,,,,
850,,,2.2,,12.84590909,7.354545455,3.821363636,,,,,,,,,,,,,
851,,,4.26,,28.04201878,9.842488263,6.621830986,,,,,,,,,,,,,
852,,,4.91,,28.38900204,9.390835031,6.594297352,,,,,,,,,,,,,
853,,,3.41,,21.25835777,9.572727273,5.772434018,,,,,,,,,,,,,
854,,,4.69,,23.96268657,12.41599147,6.315351812,,,,,,,,,,,,,
855,,,3.89,,27.9714653,12.7159383,7.360411311,,,,,,,,,,,,,
856,,,6.87,,29.28646288,8.032605531,7.007714702,,,,,,,,,,,,,
857,,,4.37,,18.12494279,6.618993135,5.037299771,,,,,,,,,,,,,
858,,,2.94,,32.5462585,11.47585034,8.010204082,,,,,,,,,,,,,
859,,,3.18,,23.44465409,7.270440252,5.968553459,,,,,,,,,,,,,
860,,,2.17,,27.75023041,8.513824885,6.842396313,,,,,,,,,,,,,
861,,,3.73438,,,,,,,,,,,,,,,,,
862,,,1.41335,,,,,,,,,,,,,,,,,
863,,,0.656255,,,,,,,,,,,,,,,,,
864,,,0.277856,,,,,,,,,,,,,,,,,
865,,,0.277856,,,,,,,,,,,,,,,,,
866,,,0.892809,,,,,,,,,,,,,,,,,
867,,,1.98885,,,,,,,,,,,,,,,,,
868,,,5.566717,,,,,,,,,,,,,,,,,
869,,,7.389823,,,,,,,,,,,,,,,,,
870,,,0.160966,,,,,,,,,,,,,,,,,
871,,,0.160966,,,,,,,,,,,,,,,,,
872,,,0.160966,,,,,,,,,,,,,,,,,
873,,,1.15533,,,,,,,,,,,,,,,,,
874,,,0.659385,,,,,,,,,,,,,,,,,
875,,,0.659385,,,,,,,,,,,,,,,,,
876,,,2.18775,,,,,,,,,,,,,,,,,
877,,,2.18775,,,,,,,,,,,,,,,,,
878,,,1.285492,,,,,,,,,,,,,,,,,
879,,,1.285492,,,,,,,,,,,,,,,,,
880,,,3.27426,,,,,,,,,,,,,,,,,
881,,,2.389598,,,,,,,,,,,,,,,,,
882,,,4.010587,,,,,,,,,,,,,,,,,
883,,,1.853483,,,,,,,,,,,,,,,,,
884,,,3.901797,,,,,,,,,,,,,,,,,
885,,,3.31022,,,,,,,,,,,,,,,,,
886,,,2.78534,,,,,,,,,,,,,,,,,
887,,,2.91686,,,,,,,,,,,,,,,,,
888,,,2.70947,,,,,,,,,,,,,,,,,
889,,,1.96184,,,,,,,,,,,,,,,,,
890,,,1.96184,,,,,,,,,,,,,,,,,
891,,,,,,,,,,,,,,,,,,,,
892,,,0.579916,,,,,,,,,,,,,,,,,
893,,,4.716083,,,,,,,,,,,,,,,,,
894,,,0.409965,,,,,,,,,,,,,,,,,
895,,,0.409965,,,,,,,,,,,,,,,,,
896,315.9454797,0.434804345,,17.6090852,62.52211214,42.26344049,13.93414831,0.048093475,8.130670917,6.746250976,16.30414158,,6.745394546,0.034501258,0.241155957,0.324490368,0.000655089,0.000154356,0.044233695,0.006551729
897,81.82914527,0.128934217,,4.597548295,31.01347578,11.43821002,6.33846885,0.008520756,2.086479405,1.343975372,3.105864674,,2.23879981,0.022427479,0.071959096,0.049685372,0.000303534,4.68e-05,0.008960276,0.003181053
898,121.2552138,0.19520004,,6.829353298,,21.05935395,,0.010580248,3.880758512,2.567049109,6.854446735,,3.255595308,,0.095140294,0.049234609,0.000212585,4.52e-05,0.00985032,0.002770978
899,87.99646542,0.12918977,,4.860453172,37.24513673,8.964767466,7.690242593,0.008486027,2.020669997,1.564241171,3.461248909,,2.470014614,0.01749416,,,0.000206274,5e-05,0.01086041,0.003798117
900,82.65658925,0.154997764,,4.650610238,43.07278864,12.94597793,8.412717667,0.011167589,2.459986913,1.480453317,3.915815998,,2.274171286,0.016247734,0.071125723,0.038037109,0.00031315,3.65e-05,0.008569359,0.002379962
901,88.13211357,0.208075981,,4.681248971,48.11899491,10.35293463,9.246170481,0.01056242,3.379480301,1.522942672,4.768973922,,2.533201137,0.022274603,0.081869308,0.038924677,0.000285157,5.3e-05,0.010842939,0.003352083
902,115.529877,0.236422636,,5.711652645,36.52696659,11.90632321,7.079125567,0.021619338,0.45874056,0.888290982,1.704197778,,1.91235461,0.044416059,0.230612201,0.131688249,0.000627754,4.19e-05,0.020599938,0.001529093
903,87.56225512,0.111990506,,4.927032379,34.12667807,14.69953043,7.216469379,0.002139945,2.684876966,0.5844662,3.315704525,,3.447454723,0.014470397,0.011848495,0.042869177,0.000256472,2.87e-05,0.001633844,0.004777897
904,105.1652622,0.253763477,,5.43217173,44.01681729,12.75769319,8.31053633,0.01189846,2.034905444,2.203577943,4.103517769,,2.387113704,0.021880256,0.050649274,0.09001361,0.000359777,7.74e-05,0.012614907,0.002549531
905,86.55050669,0.139803852,,4.542646969,39.20190468,16.32303513,8.01273013,0.000816818,1.877181948,1.272860742,2.998273909,,2.953803705,0.025368974,0.058379925,0.050159608,0.000430801,5.32e-05,0.00110231,0.002720035
906,99.45185769,0.247338652,,5.345077561,56.00204958,9.973762091,10.89089551,0.004018305,1.662132052,1.423375853,3.084275725,,3.940028977,0.03830988,0.065762753,0.00222996,0.000288726,7.13e-05,0.006528124,0.004707508
907,97.42417832,0.226975877,,4.931995584,53.14167164,11.84438725,9.859094976,0.013120762,2.02535447,2.25170008,4.022535438,,1.592455832,0.018311102,0.049694692,0.110916469,0.000318292,6.51e-05,0.012756569,0.00228946
908,99.55432981,0.236931873,,5.006834772,51.04413911,11.04914846,9.657671874,0.011701493,1.966536451,2.017934923,3.648436441,,2.236325003,0.023202228,0.047028415,0.091947584,0.000393304,7.08e-05,0.011215355,0.002258664
909,65.41998171,0.137976411,,3.414148797,46.24418893,8.072204838,8.897134405,0.011200677,1.178906973,1.084241524,2.611588605,,1.451661932,0.018035906,0.132379289,0.06357166,0.000199435,4.97e-05,0.010554483,0.001746361
910,102.8289554,0.212924957,,5.271729423,60.07797481,11.40392922,11.21270983,0.00733785,0.806036468,1.876223591,2.860089832,,2.272509135,0.031619791,0.116965088,0.115180164,0.000598035,7.56e-05,0.009474296,0.000793567
911,52.67256375,0.112346838,,2.91253962,37.55667852,12.0496962,7.313687569,0.006542336,0.965682838,0.722714871,2.13617992,,1.13234664,0.020477768,0.098309337,0.010958178,0.000298256,2.74e-05,0.007906673,0.000625325
912,88.43994646,0.225844285,,4.687519084,59.36952471,10.54058139,10.32718437,0.013126034,1.973994152,1.982247184,3.76596702,,1.656081017,0.012931991,0.052722002,0.102523608,0.000351212,7.18e-05,0.011031695,0.001510068
913,81.85351927,0.232364002,,3.843957297,51.62032726,7.52408467,9.521770205,0.011833552,0.283388179,1.234890083,1.854471867,,1.188312435,0.028040477,0.178181933,0.142891658,0.000518496,7.37e-05,0.01374202,
914,72.41512163,0.150487565,,3.695476785,46.38035257,13.75006004,8.74228451,0.002931515,1.910269565,1.724352519,3.696636395,,1.622097917,0.020030192,0.132654205,0.076120042,0.000402821,5.69e-05,0.005553352,0.002456834
915,74.61730863,0.213834411,,3.95101262,58.00418973,5.949172998,10.69365857,0.006271123,0.655152652,0.932047147,1.632445076,,2.244504096,0.019963818,0.054672858,0.065776487,0.00032659,6.88e-05,0.009821598,0.002283871
916,93.74590396,0.328279162,,5.007020381,74.1523999,13.03944923,12.9343525,0.016027079,1.983029305,2.018017793,4.138484786,,2.150944938,0.008145147,,0.158903267,0.000364004,9.6e-05,0.014457306,0.001422139
917,44.7872031,0.081041768,,2.20211699,41.52928036,8.94180369,7.975226973,0.002128698,0.496583371,0.632798097,1.170257445,,1.055849743,0.013432209,0.036473556,0.035575698,0.000191593,2.63e-05,0.002827979,0.001338691
918,68.26764017,0.19310808,,3.566114283,56.75332972,11.41914449,10.66868704,0.01020964,0.847795464,1.073403312,2.341200473,,1.405250755,0.029863672,0.140583424,0.035276821,0.000422669,4.56e-05,0.010607572,0.000438167
919,47.90655608,0.161116289,,2.420187675,68.12494141,9.693915717,12.45487552,0.011030611,0.540033189,0.685519613,1.565767722,,1.221328472,0.009127372,0.041475239,0.105973443,0.000134863,3.97e-05,0.008983177,0.000548085
920,170.2604307,0.182165086,,9.39985566,34.82745954,21.74374577,7.380462122,0.004938562,5.461563331,6.007952268,11.08275746,,2.492620175,0.031953401,0.078690363,0.115645507,0.000345055,9.38e-05,0.024519203,0.002659251
921,321.88034,0.294694065,,18.15388993,47.24315431,47.183404,16.90507406,0.023586951,11.40558005,7.373366937,20.6937876,,7.066922681,0.020769902,0.175246796,,0.000249843,0.000100323,0.029202584,0.012301861
922,248.79144,0.313421192,,14.16694604,56.60237049,36.831726,15.38976715,0.020284803,8.23555747,5.03407367,14.89276455,,6.158473691,0.028378223,0.103627156,0.099614264,0.000375805,8.19e-05,0.023913688,0.009050984
923,207.82441,0.298956373,,11.61034118,47.15081497,35.955387,16.27027305,0.016079264,5.142280898,4.476464151,10.28331291,,5.064091835,0.04480741,0.087734109,,0.000649867,0.000100582,0.01824947,0.00367753
924,302.58343,0.380674114,,16.04804648,44.30891189,47.733877,17.25664321,0.013585723,8.810853228,8.419616584,18.74419848,,5.606191126,,,0.248972947,0.000597517,0.000123488,0.014155588,0.003744974
925,171.5340726,0.285584319,,9.067680391,57.64223047,12.57893183,11.27047894,,4.524371969,4.773601419,8.56895053,,3.944887615,0.022980375,,0.134601364,0.000740579,0.000116782,0.007327376,0.00522367
926,140.4622447,0.198228133,,7.351355013,51.32313554,11.21355613,10.13557569,,4.071924217,4.13270578,7.781926585,,3.214591666,0.019780896,,0.103175362,0.000487179,8.29e-05,0.005010755,0.004097037
927,210.3180791,0.42917932,,11.04481539,63.14961873,23.42484674,12.29085975,0.016526062,3.953730486,7.421283289,8.570674426,,1.331245223,0.01296071,,0.272647496,0.000965839,0.000155681,0.035664545,
928,122.4012844,0.224737653,,6.257095126,51.52141805,7.863365251,10.2416615,0.004798727,3.268044886,2.832239105,6.106281742,,2.982082425,0.04640149,0.177812343,0.055137841,0.000557592,9.08e-05,0.009661556,0.005735728
929,185.2360138,0.342907753,,9.522230922,65.75215586,14.48110003,12.46119686,0.012368062,4.524853475,5.098686783,8.854239285,,2.831295368,0.034180977,0.162689504,0.204649159,0.000789049,0.000112792,0.024071258,0.005262187
930,94.86518818,0.137626741,,5.042482821,43.35666387,4.758444986,8.861686438,0.012276115,2.064145094,1.311015387,3.487821756,,2.086491252,0.020995469,0.171974657,0.058795493,0.000330929,4.01e-05,0.014088773,0.005051212
931,119.7530385,0.270912536,,6.507671343,58.11776247,18.90066079,11.06403995,0.013339159,1.877979403,1.277755005,2.737698745,,2.558839272,0.005754012,0.049371766,0.140546624,0.000477507,0.000103648,0.013243476,0.002375519
932,190.1859993,0.343453062,,10.17533804,70.24941174,16.39897048,12.93917696,0.006256439,5.005132351,5.229309104,9.629805049,,4.644761684,0.027955656,0.017839667,0.149548287,0.000679367,0.000130212,0.01177153,0.005041943
933,102.3698472,0.165144663,,5.586546629,26.73342244,5.689591163,6.167764207,0.003204013,2.771123056,2.09764409,4.488919266,,3.043624654,0.019281469,0.034806448,0.029632307,0.000337908,7.02e-05,0.004646596,0.00327338
934,159.8234825,0.194548948,,8.401595734,34.5537127,19.11574307,9.057679807,,5.932392196,4.887950526,11.2606814,,2.403412683,,,,0.000171593,3.69e-05,0.026928304,0.002491783
935,267.9159384,0.338137588,,15.00454563,,34.06037259,,0.033339693,8.277511961,6.123019641,16.24028837,,7.17062921,0.014837813,,0.123967731,0.000504491,0.000125828,0.018028866,0.006710969
936,109.182783,0.151391165,,5.808644836,38.41731326,5.675264927,8.191204066,0.006076516,3.342791343,2.401008563,5.601332431,,2.850607081,0.015406573,0.066277461,,0.000303385,5.97e-05,0.00875361,0.003883718
937,135.8498308,0.146102444,,7.483183782,33.73578865,8.643890965,7.521630475,,5.930535452,2.941503359,8.207282046,,4.306068717,0.02303684,0.132568806,,0.000388747,6.85e-05,0.007822964,0.005998341
938,128.0823927,0.139636724,,6.25294844,29.76677631,,6.906109804,0.035658202,,2.565332714,3.89188121,,1.147000079,0.068550193,0.455607719,0.113865553,0.00051504,9.88e-05,0.034914889,0.000956825
939,92.65881363,0.282084365,,4.646214864,,,,0.022213913,1.444185824,0.909184131,1.431248176,,1.037831118,0.041292468,0.18375419,0.179240248,0.000387778,7.32e-05,0.028695711,
940,147.6651518,0.251718101,,7.216042337,21.73271332,,6.126714913,0.024408477,,1.951049926,,,1.441780315,0.077570761,0.23894472,0.30727692,0.00051436,9.16e-05,0.043658153,
941,126.1462381,0.246831029,,6.588193878,26.82818445,,6.863635452,0.017321748,3.575634306,2.13808574,4.888592027,,3.543544275,0.069798372,0.291844601,0.284139763,0.000650936,8.21e-05,0.024699282,0.003239156
942,95.19899441,0.291570733,,5.022966947,31.95986483,,7.233520173,0.02010795,2.217116773,1.322879515,1.401100852,,2.08233533,0.062816413,0.254546314,0.18617585,0.000526615,8.58e-05,0.026542707,0.004697044
943,83.19686685,0.151992157,,3.96022931,29.63518251,9.011098827,6.557281901,,1.124546813,1.425742421,2.929191899,,1.814888855,0.025737008,0.134153955,0.085194825,0.000501204,8.08e-05,0.000884097,0.00226444
944,263.2825354,0.301781416,,15.10952688,37.55059053,27.12411616,,0.031968191,8.169658308,4.17169055,12.48837446,,6.196758404,0.021330344,0.245026399,0.120943098,0.001175476,6.52e-05,0.0203347,0.00568343
945,91.19176275,0.221473971,,4.908838006,33.68340762,9.085778211,6.835408682,0.014645006,1.917941816,1.46674005,3.458470758,,2.596597212,0.0240936,0.138547314,0.07441565,0.000275738,7.33e-05,0.01322038,0.003535587
946,338.86256,0.574046255,,18.08091593,39.95887736,38.919278,15.97648393,0.026636778,8.850746681,7.061924445,14.51803059,,10.56697369,0.028124677,0.175870729,0.136828291,0.000602348,0.000180048,0.024276629,0.008045523
947,309.32452,0.443073647,,17.09837795,39.59277073,39.26008,16.72934065,0.02778247,9.045824206,6.024001592,15.79123776,,6.865715655,0.024958574,,0.149205611,0.000754924,0.000141096,0.020571806,0.003325882
948,226.45007,0.389940165,,12.96755251,34.7599626,34.787832,15.00636778,0.031503987,7.414597572,4.119628761,11.9096481,,5.415583091,,,0.119246637,0.000248754,8.12e-05,0.028728332,0.005638009
949,286.04364,0.46323603,,16.00816959,56.78609345,45.129642,17.27589244,0.012857141,8.996355427,6.935588462,16.48874003,,5.558442121,0.024009105,,0.11459461,0.000899433,0.000152533,0.021936055,0.004455681
950,82.12052632,0.175777252,,4.42557016,32.91502525,8.61697177,6.546847638,0.003780408,1.11165107,1.076445348,2.252864543,,3.001755862,0.030619407,0.017357067,0.025079901,0.000283022,5.57e-05,0.006140266,0.002250612
951,67.82373885,0.170381671,,3.522955462,26.72040312,6.829832525,5.770665385,0.00517965,0.930910579,1.44601944,2.189451659,,1.569353748,0.019574476,0.048662362,0.043053721,0.000305714,5.96e-05,0.005062112,0.001985319
952,73.30988316,0.103771403,,3.896959308,35.42566271,9.331282039,6.993083708,0.003259892,1.376874924,0.981173306,2.420666423,,2.223991301,0.019834019,0.146273827,0.023691745,0.0002798,7.47e-05,0.002720099,0.00335162
953,73.16014844,0.114393866,,3.542432006,25.99221106,8.714371469,5.563289034,0.011310203,1.240229111,1.883531118,3.152996283,,0.767701839,0.021576183,0.167589422,0.090180652,0.000392738,4.79e-05,0.00880696,0.000579228
954,96.00882588,0.156322944,,5.04122622,39.09377713,8.109116301,7.913678131,0.006739793,1.006554985,1.114980641,2.265953762,,2.902467158,0.037357068,0.103215769,0.021490158,0.00031183,5.91e-05,0.006164843,0.002167462
955,73.71886839,0.198274028,,3.946456779,38.31271436,6.297508256,6.888959036,0.008880522,1.959921025,1.244452498,2.872644206,,2.203961743,0.011775765,0.093938777,0.052059964,0.000340903,7.04e-05,0.007824701,0.002023071
956,64.35134418,0.121527077,,3.212110399,29.80701548,4.436729948,6.21770265,0.005354991,0.720177069,1.005179388,1.919813569,,1.317092786,0.012409515,0.019858596,0.048501311,0.000241676,3.88e-05,0.004391331,0.000654594
957,85.48820773,0.221631132,,4.476757709,42.95485262,10.085394,8.184808579,0.013121376,2.053469007,2.09542994,3.830054732,,1.651199216,0.014592451,0.044795909,0.103459495,0.000319883,6.68e-05,0.011302055,0.001848616
958,53.71869052,0.12345225,,2.872308048,24.69403081,6.64208983,5.651430781,0.004476003,0.84007788,0.815992259,1.479377203,,1.694496565,0.013944763,0.029092963,0.033186726,0.000193379,4.15e-05,0.004624094,0.001638995
959,98.76628255,0.296797941,,5.359540885,56.95898661,9.628275488,10.0560297,0.014431637,2.766679154,2.251993394,4.883275965,,2.052133203,0.013723847,0.006260536,0.102894366,0.000434467,8.42e-05,0.013678606,0.002342473
960,63.22453032,0.132254517,,3.241124052,30.36048735,7.138960126,6.39859666,0.006887909,0.757663327,1.09508248,1.892061106,,1.21091525,0.008539728,0.033939018,0.056481113,0.000222372,4.09e-05,0.007381697,0.001279315
961,71.11649697,0.171447736,,3.387338917,42.46743434,9.830701771,7.973258326,0.012196291,0.97347163,1.744543816,2.773356956,,0.821642516,0.033406349,0.208637515,0.094696917,0.000410007,5.83e-05,0.012758339,0.001485154
962,50.27193434,0.097007904,,2.519498761,38.3824744,6.8144988,7.662251218,0.00265713,0.786126757,0.909288407,1.856923548,,1.014580861,0.012021839,0.03427696,0.04053355,0.000230574,3.2e-05,0.003285075,0.001012581
963,79.43135718,0.276066857,,3.884763388,46.04601582,9.568710348,8.793389856,0.003763808,1.73867618,1.349200614,3.697576733,,2.065738847,0.0167376,0.020059252,0.1043632,0.000483335,9.15e-05,0.00667888,0.003164478
964,57.95820523,0.151899162,,3.015587878,53.83427877,8.515096747,9.53503361,0.007371919,1.158163433,0.962995609,2.372142972,,1.550073136,0.018927896,0.044716046,0.047789638,0.000245756,4.72e-05,0.00549816,0.00100575
965,89.18500791,0.126571749,,4.973774015,13.26370732,7.616782741,3.609629008,0.000830641,1.186419088,1.00225504,1.916779578,,3.414311766,0.035645703,0.060772004,,0.000274517,5.2e-05,0.002588674,0.003337231
966,72.77730799,0.05497617,,3.27363223,19.1091775,5.211722525,4.565972039,0.00449133,1.665168956,2.383699599,4.69145491,,0.737748948,,,0.075144488,,2.35e-05,0.002478586,
967,88.30125208,0.132418064,,4.50610064,24.5198072,13.08935281,5.972478888,0.010203974,0.66109434,1.058884701,1.955269854,,2.602403955,0.020221886,0.093459109,0.144537632,0.000347941,6.06e-05,0.003112795,0.000493806
968,368.355,0.579832763,,19.99443962,28.63233519,36.511695,8.835834669,0.045804911,8.736682269,7.638226456,16.71222003,,4.521687997,0.058501191,0.404057236,0.216235742,0.001906515,0.000137464,0.046697079,0.002074878
969,79.81800066,0.121286877,,4.187285959,21.91807508,12.49844749,5.505923988,0.001922728,1.855946911,1.857500949,3.746006318,,2.040465634,0.014695173,0.065692741,0.049201322,0.000320936,5.39e-05,0.00202573,0.00128808
970,72.28171519,0.078128364,,3.322413831,24.73463079,9.715674207,5.446505206,0.004400426,1.149362454,2.066467422,3.701656594,,0.990224624,0.005937105,0.013986246,0.086442805,0.00013557,3.22e-05,0.002767725,
971,117.2213929,0.316320605,,6.184274044,45.19634721,11.07549256,8.683582987,0.013528324,2.047820123,2.789495681,4.891113595,,2.364124722,0.016025775,0.028282837,0.144187522,0.000484554,0.000107087,0.014125412,0.001258344
972,95.69363509,0.201732197,,4.470286803,37.44893517,9.141960189,7.429318827,0.010922817,2.073359815,2.323382673,4.255897858,,2.787288639,0.023798817,0.129835475,0.09416686,0.00014363,8.75e-05,0.005970896,0.004680362
973,81.57708651,0.118095608,,4.10787201,27.96687374,11.56494313,6.537194434,0.008380272,0.753571652,0.820979755,1.573861102,,1.842535153,0.035600167,0.076503701,0.027999922,0.000365819,3.59e-05,0.008630735,0.000505193
974,72.67801491,0.101412226,,3.359650905,31.55988282,16.41616388,6.831086078,0.006644902,1.199598993,2.489578959,3.902140141,,0.408816127,0.010381935,0.000692263,0.124409503,0.000185457,3.7e-05,0.008603972,
975,49.94635076,0.137709204,,2.581139514,28.910993,9.018450262,6.071028957,0.006061078,0.674739478,0.874796977,1.602590913,,1.136489534,0.016121445,0.050583405,0.068885794,0.000269396,4.49e-05,0.006542463,0.000226528
976,69.74998922,0.134770149,,3.102346315,30.26447936,12.73636922,6.406514502,0.007937809,0.700629444,1.930542063,3.071486319,,0.471409363,0.007613591,0.025740239,0.134056769,0.000197434,3.02e-05,0.010361357,
977,74.99410314,0.084669067,,3.351066684,30.46355152,10.78696455,6.228887681,0.004906902,1.274156045,2.508445778,4.161380504,,0.651546129,0.008322664,,0.11706858,0.000128839,3.21e-05,0.00465261,
978,90.33516176,0.129238301,,4.119087961,24.81776678,5.899541459,5.645782601,0.010730687,1.47347791,2.553387741,4.511795053,,0.871039125,0.010023205,0.019234303,0.125633276,0.000246407,4.38e-05,0.007729703,
979,60.72294977,0.071517219,,2.708223829,34.23900353,11.8833196,6.856125178,0.003262862,1.044655426,2.065235287,3.491065676,,0.458348116,,,0.088003827,0.000108574,2.34e-05,0.003099253,
980,95.16126729,0.176177457,,4.880121498,35.1686092,16.92001384,8.011222698,0.009877474,,1.983282649,2.116941565,,1.164735765,0.036053427,0.10788414,0.142151824,0.000655903,8.17e-05,0.011825986,0.000374796
981,73.01226831,0.079396417,,3.307487234,30.32721665,10.02863644,6.284253294,0.001439496,1.301242518,2.17696086,4.14392083,,0.935814607,0.006589716,,0.097386397,0.00018259,3.13e-05,0.001325964,
982,126.6877809,0.176156398,,5.823400619,40.5833377,10.26053771,8.344090176,0.008802935,2.105209513,4.339311401,7.116291254,,1.059240696,0.00539624,,0.226543421,0.000177265,5.96e-05,0.01257925,
983,80.10920149,0.115374375,,3.584970583,29.13755456,5.182096752,6.610113257,0.00810185,1.159728324,2.441703334,3.880279859,,0.706593289,0.009181742,0.003501291,0.142399043,0.000194228,3.97e-05,0.006046807,
984,91.25330665,0.145315221,,4.566931416,37.19812123,18.49097591,8.376601272,0.011473527,0.116257956,1.555613598,2.23161282,,1.221735046,0.043146204,0.220736766,0.163270066,0.000534775,7.51e-05,0.015221075,0.001589605
985,53.63110061,0.127392855,,2.502774153,31.98741689,5.710615797,6.469019962,0.008182653,0.088417618,0.786658353,1.047189693,,0.475715396,0.01782995,0.15923019,0.109316872,0.000361767,4.46e-05,0.008676873,
986,63.92472027,0.07567673,,2.894252395,39.3252792,10.4760256,7.565681803,0.003932723,1.167994314,1.981185295,3.560097587,,0.760666943,0.008626542,0.01025963,0.086746519,0.000108715,2.66e-05,0.004247858,
987,95.99519294,0.374290119,,4.352713291,45.56661853,12.08095957,9.124919551,0.015117347,2.055958286,2.2701756,3.41036032,,3.465379099,0.041923708,0.103990825,0.025430203,0.000207397,8.81e-05,0.017618938,0.008309971
988,109.0304938,0.202692361,,4.930124958,57.29505218,17.70721321,10.79747418,0.007895014,2.121677645,2.254075919,3.517058731,,2.005222734,0.059508494,0.322005309,0.175965434,0.000747749,9.71e-05,0.009806589,0.004549098
989,66.21418184,0.115864865,,2.930312679,64.26183693,13.56500529,11.5577116,0.005552012,0.901439034,2.147348193,3.361362619,,0.623032142,0.005213923,0.004327597,0.117757878,0.000132579,2.83e-05,0.007091215,
990,55.68530794,0.097705765,,2.493830365,36.21297349,9.169042274,7.517919116,0.004526505,0.842573852,1.914420109,3.02391326,,0.415943864,,,0.108662043,8.67e-05,2.58e-05,0.006893262,
991,72.13354697,0.311637495,,3.353087406,49.58381341,11.26751138,9.295728155,0.013836308,,1.036530723,1.59098902,,1.085773394,0.03198939,0.16528387,0.165133869,0.000562822,8.79e-05,0.015631491,0.000961741
992,46.09010142,0.069649824,,2.092278985,33.05131213,8.728277964,7.157418364,0.005323152,0.767412503,1.449815345,2.506943582,,0.416594393,0.003734798,,0.089641234,4.18e-05,1.87e-05,0.006389724,
993,102.9774474,0.33121299,,5.329709515,60.54179436,9.598596901,11.5679645,0.019521925,2.140910865,2.312960168,4.334743332,,1.897157164,0.018825598,0.026814392,0.145333275,0.000386086,8.21e-05,0.018581322,0.00187449
994,87.13719326,0.279111586,,4.493919953,61.93341765,11.17017623,11.15538336,0.015477999,1.764169379,2.153428713,3.827767754,,1.655511169,0.016481995,0.046884166,0.118894661,0.000345365,8.03e-05,0.015395255,0.001512457
995,58.16688789,0.109538794,,2.58757327,38.27636724,7.055499622,8.308969588,0.006400129,0.722419712,1.690791611,2.645536411,,0.558048237,0.005803491,0.003984924,0.118297625,0.00014052,3.43e-05,0.006480689,
996,122.8846919,0.111796867,,6.036397565,33.75386632,23.89695605,7.232224433,0.001991977,1.062968662,2.805380186,4.203693261,,1.777627812,0.034932947,0.126124153,0.158314089,0.00060532,7.45e-05,0.001635954,0.000114815
997,73.40853392,0.101521009,,3.542880574,,14.21023562,,0.008982852,1.220100163,1.713714069,2.890590729,,1.403892932,0.020526928,0.080264185,0.093550582,0.000202749,4.55e-05,0.006365349,0.000712936
998,63.52097166,0.10941191,,2.977896607,,15.2696406,,0.009385645,0.506379239,1.48000194,1.982260849,,0.794326246,0.024509323,0.094512993,0.15638208,0.000240562,5.14e-05,0.01006278,
999,60.10363919,0.101434415,,2.993720651,,10.64685982,,0.006569073,0.811873802,1.212759481,1.989317128,,1.404402423,0.01611718,0.063538431,0.058762218,0.000219004,3.39e-05,0.004915054,0.000482237
1000,61.68526125,0.093098921,,2.99709039,21.76123726,9.400236442,5.52383784,0.009424357,0.775065679,1.214306307,2.105926497,,1.312091372,0.016338394,0.052979754,0.076349941,0.000165262,3.33e-05,0.006255396,
1001,91.38740226,0.280202795,,5.173104906,51.92459921,7.743544512,8.779777308,0.013897092,2.304027087,1.326220456,3.567597718,,3.082991946,0.009441156,0.038530192,0.044312763,0.000317839,8.43e-05,0.011375829,0.001779802
1002,108.5517293,0.220298189,,6.022224771,50.60197149,10.93847479,9.363662559,0.011261596,1.740498933,1.91549625,3.688872216,,2.915825022,0.021979989,0.039641054,0.024524235,0.000348325,8.16e-05,0.015132002,0.002895887
1003,80.18585896,0.151317434,,4.404537607,42.76148536,9.632188197,7.841013705,0.004439327,0.841668279,1.138816581,1.988948135,,2.638424291,0.031667579,0.100725845,,0.000373559,7.44e-05,0.004438869,0.001546865
1004,79.77194582,0.202182098,,4.345587796,46.99057284,9.404958717,9.050735567,0.008961325,0.914661368,0.776457605,2.05193286,,2.427607981,0.022152951,0.097999773,0.070895368,0.000194151,6.59e-05,0.011373717,0.003719433
1005,85.06944821,0.26554753,,4.440739909,59.64076255,9.79456184,10.78230452,0.014386702,1.177878811,1.236327846,2.437978984,,2.560523236,0.025075547,0.066611077,0.073388728,0.000276145,7.3e-05,0.012168458,0.001315363
1006,83.67948139,0.190306833,,4.62447964,53.01494958,9.7823828,9.241120293,0.007169987,1.054358236,1.10394631,2.172573887,,2.745703807,0.03277439,0.083825207,0.019376229,0.000352667,7.48e-05,0.008136399,0.002061345
1007,70.09544177,0.187679448,,3.837495772,56.11576858,8.03606131,10.11593351,0.007727724,1.636468538,1.233652495,3.024592564,,1.872100729,0.011084389,0.051314807,0.035656095,0.000281012,6.58e-05,0.008177717,0.001791259
1008,82.67655361,0.240378829,,4.549844887,65.71126572,10.44935765,11.50673158,0.011527868,2.162409122,1.728345299,3.863826171,,2.127702478,0.012440071,0.054300335,0.069003546,0.000307201,7.75e-05,0.01321056,0.002704464
1009,67.88923024,0.184459377,,3.543970793,55.03792911,13.09601395,10.04472415,0.008869271,0.969587461,1.254360731,2.430075582,,1.649129349,0.013325793,0.062990519,0.063866915,0.000438829,6.48e-05,0.006546059,0.001165244
1010,76.65625338,0.242743249,,4.081261856,66.52657373,12.88072781,11.74241296,0.011309397,1.125731953,0.852812865,2.499122046,,2.154892783,0.014986928,0.099059003,0.07778744,0.000217498,7.72e-05,0.011904468,0.002912182
1011,70.81049654,0.224825455,,3.69050864,69.79818428,13.61859218,12.38753231,0.009336918,0.986661862,1.048628155,2.375065365,,1.794125853,0.016608539,0.106293205,0.084747136,0.000326539,7.53e-05,0.011582467,0.001945271
1012,297.16518,0.400690757,,16.73904567,60.92491538,40.126906,15.33704997,0.019286448,8.653622546,6.869899703,17.0396628,,7.800910236,0.03665793,,0.11334806,0.000589598,0.000123319,0.025903202,0.008192376
1013,95.63568725,0.165273608,,5.282749353,36.01886675,17.93856759,7.445085939,0.014980932,2.027666561,0.793890854,2.826719458,,2.015643499,0.008291095,0.089433693,0.136984195,0.000268275,6.85e-05,0.009901482,0.001966481
1014,250.14436,0.341082879,,13.72120829,45.84488245,25.196894,17.55950036,0.015281637,5.646888558,5.737314015,12.17596644,,5.909755752,0.02788821,,0.143423876,0.000671473,0.000116974,0.020016093,0.003898197
1015,109.8257651,0.226525598,,6.284328708,51.43213759,8.454961683,9.749735137,0.012954598,4.169332871,2.580326817,6.905144962,,2.804459134,0.017059505,0.067995818,0.086920297,0.000274879,7.82e-05,0.014851345,0.005403883
1016,129.3364135,0.225596776,,6.848375943,45.10352525,10.50719162,9.213664201,0.00738087,2.845719019,2.603658831,5.110208208,,3.489651253,0.032029825,0.033088106,0.045610593,0.000392295,7.83e-05,0.008716068,0.003801814
1017,101.5501994,0.183821584,,5.590689607,45.75074828,7.345618816,8.556725942,0.003965561,2.797553588,2.06723489,4.508597981,,3.353765431,0.02433331,0.032790245,0.018016156,0.000345317,7.52e-05,0.003009479,0.002501016
1018,88.31141157,0.226956168,,4.716236444,48.29000955,9.09684594,9.194848731,0.006163509,1.728982263,1.930661052,3.72506464,,1.890797053,0.002122559,0.023788128,0.088385811,0.000472489,9.95e-05,0.009142434,0.002176294
1019,95.13926131,0.207708715,,4.972043992,53.16489285,8.955222455,10.17841282,0.006324376,2.273832839,2.286847267,4.56089381,,2.358621648,0.01548506,0.003924067,0.095081746,0.000421582,7.54e-05,0.004419449,0.001205115
1020,91.69622447,0.169469629,,5.02863901,45.67692359,6.486296317,8.725122531,0.001985625,2.635424159,2.441851527,5.154287069,,2.394832372,0.010233465,0.006846457,0.079272305,0.000266022,7.44e-05,0.00606476,0.002827111
1021,82.20600416,0.150255024,,4.410920138,42.97310588,7.782774654,8.302036164,0.003436549,1.197176609,1.24516191,2.308609371,,2.907939015,0.025407051,0.005189517,0.045960144,0.000168172,5.47e-05,0.006751423,0.002658852
1022,68.15198559,0.071774703,,3.588264586,31.48328864,8.7101107,6.901899489,0.000930514,1.055525209,0.783897987,1.788336673,,2.517670479,0.020079491,0.075098201,0.024863905,0.00020677,4.15e-05,,0.002650158
1023,88.364035,0.213493722,,4.088921268,48.09821979,9.775921067,9.245713396,0.00496749,3.666158988,2.837527438,6.22900103,,2.931516573,0.021713272,0.083516829,0.015272709,4.65e-05,9.28e-05,0.008498945,0.008219647
1024,85.03881356,0.196699012,,4.644776399,44.86075033,7.229254317,8.96438985,0.012226046,2.457011698,1.655064838,4.366471356,,1.987499004,0.020396747,0.096770649,0.08591909,0.000260836,5.83e-05,0.015084876,0.004283838
1025,103.1869275,0.270974127,,5.555824253,62.34300014,8.795763129,11.80061376,0.007313632,2.864361079,2.847806243,5.684079526,,2.111997875,0.012775622,,0.119007536,0.000437464,9.07e-05,0.010127966,0.002184035
1026,95.13509534,0.224941303,,5.477851166,51.67674222,9.264041444,9.842091916,0.010368068,3.67066395,1.613205859,5.510598093,,2.562709125,0.013870748,0.055149076,0.068898045,0.000266241,6.66e-05,0.014467041,0.005593607
1027,60.2267061,0.084012025,,3.071239094,35.48312894,7.958962647,7.458234022,0.004512907,1.204163847,1.066791436,2.482158196,,1.125828955,0.015769371,0.055115155,0.03685785,0.000180718,3.05e-05,0.003245896,0.002870747
1028,78.54004335,0.11407525,,4.270010631,42.44514496,12.89094313,8.326818224,0.002145858,1.202793855,0.954773107,2.09030184,,2.976259891,0.028199695,0.08608961,0.023720499,0.000288105,5.86e-05,0.001457733,0.002739817
1029,68.22935737,0.152945349,,3.619699775,51.15482725,9.602691754,9.58993854,0.00561391,1.225324731,1.240790298,2.106442681,,1.844337998,0.021028773,0.086833118,0.037047557,0.000261366,6.2e-05,0.005519675,0.002223275
1030,78.4326413,0.240498273,,3.854916137,49.35989544,7.409454695,9.762520858,0.014024652,3.600265023,1.833272005,5.836424719,,2.164893984,0.020939784,0.155849774,0.059780482,0.000176322,7.8e-05,0.017018657,0.00794502
1031,96.55382794,0.270038107,,4.819730883,56.76276648,13.62731002,10.60507372,0.009084332,1.789094627,1.58614992,3.440402719,,2.371586176,0.020880791,0.109229261,0.153451984,0.000405488,9.2e-05,0.010985985,0.002598526
1032,73.90923975,0.22137186,,3.607581785,53.64166788,9.308036552,10.48701274,0.012201198,2.752982367,1.702461903,4.662807405,,1.839095559,0.018511843,0.102687884,0.065280348,0.000155705,6.46e-05,0.014836412,0.006368243
1033,48.44446761,0.12040869,,2.708197403,54.61807108,9.105213139,10.37557765,0.007389322,1.627722063,0.523591875,2.643479598,,1.457180966,0.009389551,0.065504549,0.039137868,0.000160468,3.06e-05,0.008331213,0.001655124
1034,97.14526858,0.152031349,,5.086981663,29.44914958,10.27560637,6.563321369,,1.070379968,1.40961655,2.525547229,,2.438311663,0.024065983,0.007143334,,0.000354901,5.83e-05,0.002331906,0.003817187
1035,59.18898712,0.121921177,,2.990925808,24.89704549,,5.201284486,0.007404202,0.884252469,1.005549843,1.993692728,,1.782535295,0.008543084,0.028767685,0.066155162,0.000203889,3.54e-05,,
1036,47.2013273,0.107264675,,2.476606688,28.903289,,5.817468696,0.007274461,1.309071654,1.28324922,2.630991285,,1.085245511,0.007341094,,0.04573496,0.000218518,3.31e-05,,0.000872859
1037,138.0417607,0.372509129,,7.52739032,62.8838783,35.59578822,11.24326456,0.028431388,4.166130533,2.788113608,7.239241314,,3.996923242,0.020288954,0.05154308,0.085121468,0.000422897,7.77e-05,0.014862992,0.001891018
1038,346.130108,0.622310169,,18.97605902,62.76557838,39.21461444,11.34257257,0.033744115,9.472416435,7.485770857,19.03654194,,10.44134637,,,,0.000692847,0.000159006,0.017528951,0.007040208
1039,314.2506177,0.404763666,,16.07530811,54.20988518,32.45568931,9.527224081,0.031461968,9.684877625,7.879911749,19.13066661,,7.393456965,,,0.277203697,0.000431233,0.000148448,0.014695055,0.004250562
1040,92.80603385,0.217948689,,4.829955895,42.77145916,,9.629712617,0.013822006,1.984912451,2.135176418,4.376627593,,1.971924329,0.012019203,,0.101064594,0.000308512,5.96e-05,0.011078278,0.001722472
1041,80.82483912,0.17076467,,4.127096677,31.80648681,,7.73502604,0.01080916,1.728322671,1.569999715,3.64121479,,2.111417443,0.023972364,0.108028199,0.041133873,0.000325837,5.61e-05,0.007335779,0.001648028
1042,70.10314618,0.14374138,,3.665815441,27.98228403,,6.783987175,0.009271702,0.917823617,0.945644164,1.796643394,,1.751537775,0.014982352,0.043296211,,0.000263986,4.71e-05,0.007103935,0.001881444
1043,75.14993457,0.153418743,,4.062012128,42.83919159,,8.524848686,0.006159803,1.208934606,1.208953957,2.667518929,,2.013186685,0.01889634,,,0.000143593,4.77e-05,0.007396384,0.001761366
1044,60.20326584,0.127360431,,3.162424848,27.42547887,,7.399520201,0.008982998,0.767482284,1.014450709,1.893945885,,1.516168309,0.009026108,,,0.000191501,3.29e-05,0.005334563,0.000937461
1045,65.53039576,,,,46.38902387,,9.237359622,,,,,,,,,,,,,
1046,70.17734765,0.245437669,,3.464530101,34.68609129,,8.047814637,,6.373672571,,4.690069871,,3.181235347,,,,,,,0.006405951
1047,53.03973754,0.195386588,,2.690692911,30.4650048,,7.52870619,0.011579175,0.930724894,1.004816025,1.837968631,,1.181449649,0.008663262,0.024115267,0.08496739,0.000248226,3.9e-05,0.009769975,0.000618765
1048,103.2450004,0.188414334,,5.080046346,49.39748393,34.73831477,10.25074471,0.011693752,1.93681102,3.2423534,5.264483316,,1.737426354,0.028829046,0.125747054,0.163678396,0.000216735,5.25e-05,0.021568933,0.000148678
1049,99.16265753,0.287330733,,4.844516788,51.5476663,17.87074676,10.88238081,0.022596926,0.515120615,1.917941504,1.636604256,,1.901791173,0.037344547,0.11165934,0.120430862,0.000293965,6.88e-05,0.021457284,0.000205511
1050,124.6123765,0.216352167,,5.994303031,53.86622251,34.12496237,10.78187024,0.015846009,2.048751623,3.839052706,6.098083552,,1.546001012,0.03040826,0.131421768,0.190288159,0.000205572,5.05e-05,0.025448415,
1051,88.62026241,0.204296156,,4.247845523,36.21088792,9.645511967,8.067301979,0.016956112,0.869080594,2.021708334,2.554486246,,1.160074064,0.018210915,0.046139505,0.166367737,0.000194951,5.74e-05,0.016659528,
1052,66.4040008,0.170361205,,3.151913063,42.65402356,20.87729196,9.175294619,0.017125127,,1.161790666,1.176805321,,0.871117188,0.021239591,0.12997792,0.167087865,0.00017541,5.54e-05,0.016740618,
1053,83.01843924,0.293725315,,3.817006046,52.0776089,10.56088306,9.878260397,0.017032319,1.201254136,2.16650191,3.623840253,,0.973999991,0.013294129,0.032006592,0.180630835,0.000121007,6.43e-05,0.024035841,0.0006807
1054,76.0641091,0.23059493,,3.452389822,41.13478172,10.45054056,8.478283607,0.014041527,1.076675009,2.050001144,3.379626189,,0.79927412,0.015352251,0.034240328,0.137156516,9.53e-05,4.45e-05,0.020924199,
1055,46.49833032,0.166897965,,2.16811297,43.13968828,8.596473339,8.380471613,0.012088565,0.57892008,1.232788113,1.734087531,,0.572620151,0.01277882,0.02757269,0.121577057,3.65e-05,3.54e-05,0.016084884,
1056,97.28182537,0.322440334,,4.653078623,66.63153531,16.62963424,11.80071301,0.022629237,1.221554869,1.627802204,2.83345545,,1.834135382,0.034175689,0.218217395,0.208763829,0.000431338,9.9e-05,0.019418938,0.001701224
1057,47.41203573,,,,43.70266534,7.100951485,8.243170941,,,,,,,,,,,,,
1058,39.53969475,0.119328938,,1.718722145,65.37162505,18.06660886,12.07890394,0.012824724,,0.749335776,,,,0.01972944,0.081624891,0.094787107,6.09e-05,1.89e-05,0.014998562,
1059,43.27313937,0.249491836,,1.788823369,63.54747455,19.84459511,12.01076534,0.013281041,0.080079574,0.808157783,0.681092447,,,0.082542794,0.335654688,0.070361113,0.000387041,3.49e-05,0.020693462,0.002525573
1060,34.34578883,0.106455823,,1.574723181,37.40959338,5.788154851,7.687175975,0.007211243,,0.655780096,,,0.348268136,0.012811378,,0.122742042,,3.47e-05,0.010813022,
1061,495.5293271,0.492270733,,26.10014976,66.5654431,42.39765144,14.35843203,0.041497036,7.302322058,7.910790174,16.38011082,,16.80753424,0.072529013,0.440316846,,0.000923454,0.000202061,0.024944215,0.006020709
1062,438.3211377,0.37875192,,23.00460361,75.007775,40.03262165,13.43034152,0.02827966,7.996176702,8.279582657,16.84680217,,13.46145241,0.075154976,0.438292658,,0.000930193,0.000170384,0.025504642,0.007174088
1063,64.35269987,0.134380655,,3.00283367,,8.272876847,,0.011166434,,1.015588795,0.776336928,,1.200331169,0.016857435,0.033161927,0.138707085,0.000104705,4.43e-05,0.010026904,
1064,89.2355037,0.201235112,,4.121520938,,17.46314711,,0.015129578,,1.607537774,1.492281552,,1.017540701,0.035042463,0.0733606,0.226849552,0.000313894,6.59e-05,0.015589739,
1065,104.8259001,0.193549515,,5.408110417,,16.26795132,,0.021523981,0.815963515,1.983719169,3.023922672,,1.771662356,0.024562357,0.044223164,0.177897731,0.000128956,7.21e-05,0.016320393,0.001047318
1066,122.8421121,0.186650978,,6.57288378,,13.4991604,,0.0146188,2.142261683,2.212983812,4.862705444,,3.457986395,0.013914376,,0.054340292,0.00029569,5.77e-05,0.006980413,0.001162804
1067,201.1346861,0.30730073,,11.48784531,55.41062568,22.10885366,9.089852781,0.025771447,4.426644803,3.589081779,8.793602452,,5.688050174,,,0.163164303,0.000231842,7.86e-05,0.021188498,0.003683381
1068,218.4522366,0.318382684,,12.48279974,43.9265009,27.57407423,6.296293167,0.034272756,5.516624238,4.394301939,10.47767773,,5.293360213,0.017033883,,0.187526148,0.000343247,7.68e-05,0.02633884,0.003682699
1069,235.413445,0.259356525,,12.97123492,,20.9159586,,0.031751671,3.719843198,3.895321369,8.718704903,,6.523771653,0.033310668,0.148579896,0.184332768,0.000432564,9.51e-05,0.022622198,0.004226191
1070,116.5739165,0.244585778,,6.36387345,28.97360262,13.47072835,7.482738308,0.020751755,1.089020276,1.777864216,3.11470831,,3.252152938,0.028717382,0.102579266,,0.000471302,6.37e-05,0.01585003,0.001879091
1071,51.58172425,0.128136393,,2.579568912,,5.79171891,,0.008503978,,0.686283636,1.031627043,,1.174405773,0.014836236,0.062381609,0.023035874,0.000170578,3.73e-05,0.007373534,0.00081249
1072,97.52257768,0.15355535,,5.216231216,,11.0530784,,0.013096379,1.840464551,1.841960113,4.007516339,,2.874291557,0.01256342,0.033189627,0.064463707,0.00020863,4.84e-05,0.006513421,0.001113321
1073,186.9214685,0.209433688,,10.6388685,30.55435539,18.66749413,6.747448783,,5.323802319,3.165608504,9.082568681,,7.887346089,,,,0.000367863,6.52e-05,,0.004239624
1074,131.3983586,0.200922302,,6.900246512,,13.55123404,,0.014049588,2.902916979,2.473801442,5.807442144,,4.406370756,0.016726231,0.0759434,0.042807622,0.000337334,7.03e-05,,0.001735039
1075,72.00497273,0.221612258,,3.839090498,36.39683892,8.779856614,7.89047772,0.015458093,1.214115301,1.227272167,2.626077221,,1.714540686,0.011297595,,0.060998114,0.000299261,5.21e-05,0.011795933,0.00148011
1076,249.4864961,0.205496356,,14.25610009,,22.92545372,,,3.549949216,3.5082343,8.358254122,,9.477544944,0.022438935,,,0.000426457,9.03e-05,,0.004502276
1077,184.5517743,0.217063646,,10.22003118,,18.13421782,,0.019122858,3.909790401,3.353897028,7.777001659,,5.653754465,0.017456553,0.07718875,0.073831587,0.000451465,6.96e-05,0.011790805,0.002695579
1078,169.5710164,0.208826569,,9.281252873,,21.93607566,,0.012397019,3.803788732,3.064625968,7.072213709,,5.497390645,,,0.101388661,0.000283488,6.31e-05,,0.002195333
1079,375.8079278,0.580401848,,21.36287589,71.67285233,44.90833621,14.27175863,0.046260446,9.208023114,7.277412128,17.89205698,,11.67681162,0.031528672,,0.376849098,0.000948621,0.000154586,0.028143859,0.006767891
1080,63.67823272,0.173588954,,3.455263332,33.90627188,8.933681473,6.876982437,0.011401602,1.061549791,0.942222956,2.19131522,,1.890655117,0.013899021,0.04658442,0.045555516,0.000239595,4.33e-05,0.00937255,0.001389876
1081,365.9839796,0.626300423,,20.5228712,71.33250255,40.8552268,12.99941179,0.052956195,8.761546395,7.441626358,17.61755085,,10.01440517,0.045631997,0.270214842,0.226659344,0.001167068,0.000162136,0.03626479,0.006735291
1082,156.4078799,0.256309902,,7.974123819,45.15422182,,9.5910993,0.018429927,1.992023032,2.743581972,5.426908552,,3.290738062,0.031019444,,,0.000421299,6.62e-05,0.019410093,0.001818508
1083,70.7369879,0.221303736,,3.455355932,65.85547358,,12.65929472,0.018393518,,,,,1.948269225,0.022812828,0.178943604,0.072549613,0.000290719,5.88e-05,0.01428549,
1084,39.05724209,0.13087524,,1.858278517,37.45166726,,8.548728765,0.011278007,,0.724089236,0.730645194,,0.674979093,0.018386674,0.050881911,0.118843374,0.000127266,4.02e-05,0.011222357,
1085,144.5406329,0.22896634,,7.488145955,28.75276455,,7.088388866,0.023226887,1.335344316,2.249959668,4.13608978,,3.123317453,0.041068478,0.118418326,,0.000417923,6.77e-05,0.021492604,
1086,53.91555273,0.182630824,,2.708169893,29.52987596,,7.943002466,0.013529446,,0.807263976,0.604700206,,1.127401719,0.020415655,0.059780243,,0.000157844,4.81e-05,0.011477477,
1087,174.2485902,0.268820178,,9.730223841,31.64510599,,7.476020803,0.02061213,3.990157877,2.782538587,7.681106399,,5.528511371,0.02934603,0.283264528,,0.00062283,6.63e-05,0.012304223,0.002552265
1088,206.1323931,0.209700164,,11.31701102,24.9443837,,5.466051356,0.018726581,2.317907038,2.418618163,6.318852603,,6.350280702,0.053932018,0.169309051,,0.000642152,6.64e-05,0.012848984,
1089,225.9507958,0.299302136,,11.49494784,32.69175765,,8.251911358,0.022447848,4.145379152,4.570051806,8.791166988,,3.70700796,0.046549938,0.141336978,,0.00096925,8.15e-05,0.0217969,
1090,54.22268258,0.076227217,,2.521572787,,15.23076414,,0.008427881,0.479003895,0.930379559,1.49068167,,1.112689204,0.015938582,0.06091076,0.079693577,0.000147444,3.35e-05,0.005588548,
1091,289.2270818,0.345489974,,15.12279568,22.8200062,35.54088085,6.791588062,0.022512738,8.120169813,6.13693285,15.94064158,,8.011849299,0.02418131,0.138990594,,0.00051986,8.37e-05,0.013629979,0.002197289
1092,67.70812174,0.169301552,,3.228824054,,10.18217005,,0.011087332,1.053441642,1.059871806,2.218057574,,1.492447332,0.015464539,0.074293532,0.096303921,0.000240549,5.12e-05,0.007906305,0.00095083
1093,114.4921205,0.23838022,,5.831266983,49.53144721,,10.50099616,0.021299302,2.312469787,2.756652911,5.418896658,,1.835858856,0.016136101,,0.117929146,0.000422143,6.58e-05,0.015304975,0.001915962
1094,231.9348499,0.391218029,,12.04421198,,31.98648259,,0.026549172,4.518491342,4.769763913,10.36774756,,4.975412983,0.041118843,0.173183535,0.232947926,0.000845285,0.000130814,0.018980698,0.004637188
1095,124.7112745,0.249644513,,6.414377565,,18.11204682,,0.016829555,2.161863376,2.083047208,4.936192807,,3.531709141,0.016548053,0.049209926,0.084800284,0.000308642,6.66e-05,0.008378358,0.00150717
1096,52.12406901,0.127936563,,2.457894585,,10.85207637,,0.009366042,0.581559837,0.94014847,1.66466485,,0.989482049,0.011298617,0.03380849,0.097197593,0.000102041,3.72e-05,0.007753698,
1097,142.0658109,0.406708148,,7.627991596,29.84701297,,7.125491532,0.015843224,5.497626685,2.176507551,5.534702232,,5.024383135,0.032173617,0.18785563,,0.000328415,0.00010127,0.022184817,0.005060322
1098,350.1440041,0.472875449,,19.39941884,73.6661132,37.92217069,13.84068358,,9.925751751,6.840414266,19.62763194,,11.81673366,,0.132991042,,0.000470678,0.000112439,0.014741347,0.005837535
1099,663.8073277,0.632456758,,37.2915028,26.37018476,69.52865811,5.945690368,0.041723016,13.0299154,11.32314774,29.80663698,,21.82779161,0.104877635,0.817230194,,0.002235024,0.000262206,0.030262423,0.015189304
1100,418.7724532,0.448113184,,22.80270813,43.17465981,35.1866076,8.933164821,0.034644375,9.129628725,7.991820816,20.43211953,,13.32914671,0.065671166,0.292808818,0.349440471,0.000908323,0.000136892,0.040805356,0.006709111
1101,416.7946276,0.604693681,,23.16798459,,44.83520884,,0.039465229,10.67405242,9.228490711,21.55841787,,10.97865845,,,,0.00098005,0.000139761,,0.005346328
1102,119.2172922,0.191732478,,6.691269036,,,,0.011853934,2.307168636,1.86263334,4.07376625,,3.913148279,0.029927017,0.103399133,0.041019837,0.000373047,6.71e-05,0.007987622,0.003587142
1103,100.0234255,0.167024511,,5.735796608,,,,0.009299978,2.550729516,1.956697593,4.430920088,,3.416015183,0.022005672,0.082825359,,0.000334767,5.89e-05,,0.003501658
1104,94.04268302,0.169912049,,5.18512615,,,,0.014058301,2.168336374,1.93281468,3.928800525,,2.469463024,0.023169451,0.113343872,0.050490606,0.000358167,6.23e-05,0.008568514,0.003096833
1105,146.0082681,0.26563451,,7.441039529,,,,0.01204507,1.963833799,3.333344599,5.770172243,,3.134029616,,,0.176780285,0.000254252,9.11e-05,0.012906834,0.00251702
1106,70.61134689,0.106184233,,3.406019226,23.38213816,,5.535327561,0.00801562,1.230105907,1.859307243,3.342408493,,1.346045063,0.013124407,0.034464731,0.089354652,6.19e-05,4.27e-05,0.00882948,0.000785181
1107,273.736104,0.323115765,,15.09708213,,,,0.020093077,6.589237431,6.085102078,13.34440123,,6.779612896,0.028188248,0.140291749,0.120213387,0.000448813,0.000126034,0.028981019,0.006738035
1108,337.04416,0.341687155,,18.8407359,,,,0.032335542,7.478715081,7.224267357,16.16714915,,9.569494594,0.032996685,,,0.000394145,0.00010921,0.03463888,0.006586784
1109,256.6083674,0.268975326,,14.83887149,,,,0.013183866,6.136495331,5.231880913,12.1413552,,7.532111708,0.038739065,0.128066286,,0.000549795,0.000105784,0.01883652,0.007631912
1110,258.2509688,0.179865996,,14.24236275,,,,,5.728021926,5.522166729,11.86993366,,9.15389576,0.034401883,0.135412283,,0.000468052,9.27e-05,,0.007766511
1111,205.8555961,0.260126486,,11.59094235,,,,0.017479875,5.433022306,3.839469512,8.819644914,,6.242681111,0.037832849,0.170856808,,0.000437011,9.14e-05,0.020469023,0.005198184
1112,87.1120612,0.285431253,,4.574871863,69.48991199,,13.08593466,0.024512108,1.855472147,1.417820177,3.059863789,,1.979829805,0.029981034,0.184414946,0.064219801,0.000375711,7.62e-05,0.02033306,0.001660685
1113,115.9465915,0.156439687,,6.612250885,,,,,2.524229482,2.061123369,4.169066718,,4.109996033,0.027108122,0.095784576,,0.000410574,6.93e-05,,0.004097739
